{
	name: "Windows",
	host: "localhost",
	port: 9090,
	index_port: 9292,
	background: {
		color: "#333333",
		watermark: {
			svg: "images/EVL-LAVA.svg",
			color: "rgba(255, 255, 255, 0.5)"
		}
	},
	ui: {
		clock: 12,
		show_version: false,
		show_url: true,
		maxWindowWidth: 8192,
		maxWindowHeight: 8192,
		noDropShadow: true
	},
	resolution: {
		width: 1920,
		height: 1080
	},
	layout: {
		rows: 1,
		columns: 1
	},
	displays: [
		{
			row: 0,
			column: 0
		}
	],
	alternate_hosts: [
		"127.0.0.1"
	],
	remote_sites: [
                {
                        name: "CAVE2",
                        host: "lyra.evl.uic.edu",
                        port: 443,
                        secure: true
                }
	],
	dependencies: {
		ImageMagick: "bin/",
		FFMpeg: "bin/"
    }
}
