^C:\SAGE\OMICRON\SOURCE\SRC\APPS\OINPUTSERVER\OINPUTSERVER.CPP
C:\SAGE\OMICRON\BUILD\SRC\APPS\OINPUTSERVER\OINPUTSERVER.DIR\DEBUG\VC120.PDB
C:\SAGE\OMICRON\BUILD\SRC\APPS\OINPUTSERVER\OINPUTSERVER.DIR\DEBUG\OINPUTSERVER.OBJ
