^C:\SAGE\OMICRON\BUILD\SRC\APPS\OINPUTSERVER\OINPUTSERVER.DIR\DEBUG\OINPUTSERVER.OBJ
C:\SAGE\OMICRON\BUILD\BIN\DEBUG\OINPUTSERVER.ILK
C:\SAGE\OMICRON\BUILD\BIN\DEBUG\OINPUTSERVER.EXE
C:\SAGE\OMICRON\BUILD\BIN\DEBUG\OINPUTSERVER.PDB
