^C:\SAGE\OMICRON\BUILD\SRC\APPS\OINPUTSERVER\OINPUTSERVER.DIR\DEBUG\OINPUTSERVER.OBJ
C:\PROGRAM FILES (X86)\WINDOWS KITS\8.1\LIB\WINV6.3\UM\X86\KERNEL32.LIB
C:\PROGRAM FILES (X86)\WINDOWS KITS\8.1\LIB\WINV6.3\UM\X86\USER32.LIB
C:\PROGRAM FILES (X86)\WINDOWS KITS\8.1\LIB\WINV6.3\UM\X86\GDI32.LIB
C:\PROGRAM FILES (X86)\WINDOWS KITS\8.1\LIB\WINV6.3\UM\X86\WINSPOOL.LIB
C:\PROGRAM FILES (X86)\WINDOWS KITS\8.1\LIB\WINV6.3\UM\X86\SHELL32.LIB
C:\PROGRAM FILES (X86)\WINDOWS KITS\8.1\LIB\WINV6.3\UM\X86\OLE32.LIB
C:\PROGRAM FILES (X86)\WINDOWS KITS\8.1\LIB\WINV6.3\UM\X86\OLEAUT32.LIB
C:\PROGRAM FILES (X86)\WINDOWS KITS\8.1\LIB\WINV6.3\UM\X86\UUID.LIB
C:\PROGRAM FILES (X86)\WINDOWS KITS\8.1\LIB\WINV6.3\UM\X86\COMDLG32.LIB
C:\PROGRAM FILES (X86)\WINDOWS KITS\8.1\LIB\WINV6.3\UM\X86\ADVAPI32.LIB
C:\SAGE\OMICRON\BUILD\LIB\DEBUG\OMICRON.LIB
C:\SAGE\OMICRON\SOURCE\EXTERNAL\LIBS32\NATNETLIBSTATIC.LIB
C:\SAGE\OMICRON\SOURCE\EXTERNAL\LIBS32\PQMTCLIENT.LIB
C:\PROGRAM FILES (X86)\WINDOWS KITS\8.1\LIB\WINV6.3\UM\X86\WS2_32.LIB
C:\SAGE\OMICRON\SOURCE\EXTERNAL\LIBS32\KINECT20.LIB
C:\SAGE\OMICRON\SOURCE\EXTERNAL\LIBS32\DINPUT8.LIB
C:\SAGE\OMICRON\SOURCE\EXTERNAL\LIBS32\DXGUID.LIB
C:\SAGE\OMICRON\SOURCE\EXTERNAL\LIBS32\HID.LIB
C:\SAGE\OMICRON\SOURCE\EXTERNAL\LIBS32\SETUPAPI.LIB
C:\SAGE\OMICRON\SOURCE\EXTERNAL\LIBS32\XINPUT.LIB
C:\SAGE\OMICRON\SOURCE\EXTERNAL\LIBS32\VRPN.LIB
C:\SAGE\OMICRON\BUILD\SRC\APPS\OINPUTSERVER\OINPUTSERVER.DIR\DEBUG\OINPUTSERVER.OBJ
C:\WINDOWS\GLOBALIZATION\SORTING\SORTDEFAULT.NLS
C:\PROGRAM FILES (X86)\MICROSOFT VISUAL STUDIO 12.0\VC\LIB\MSVCPRTD.LIB
C:\PROGRAM FILES (X86)\WINDOWS KITS\8.1\LIB\WINV6.3\UM\X86\MSWSOCK.LIB
C:\PROGRAM FILES (X86)\WINDOWS KITS\8.1\LIB\WINV6.3\UM\X86\WSOCK32.LIB
C:\PROGRAM FILES (X86)\MICROSOFT VISUAL STUDIO 12.0\VC\LIB\MSVCRTD.LIB
C:\PROGRAM FILES (X86)\MICROSOFT VISUAL STUDIO 12.0\VC\LIB\OLDNAMES.LIB
C:\PROGRAM FILES (X86)\WINDOWS KITS\8.1\BIN\X86\RC.EXE
C:\PROGRAM FILES (X86)\MICROSOFT VISUAL STUDIO 12.0\VC\BIN\CVTRES.EXE
C:\WINDOWS\SYSTEM32\TZRES.DLL
