^C:\SAGE\OMICRON\BUILD\SRC\APPS\SAGEINPUTSERVER\SAGEINPUTSERVER.DIR\DEBUG\SAGEINPUTSERVER.OBJ
C:\SAGE\OMICRON\BUILD\BIN\DEBUG\SAGEINPUTSERVER.ILK
C:\SAGE\OMICRON\BUILD\BIN\DEBUG\SAGEINPUTSERVER.EXE
C:\SAGE\OMICRON\BUILD\BIN\DEBUG\SAGEINPUTSERVER.PDB
