^C:\SAGE\OMICRON\SOURCE\EXAMPLES\REMOTESERVICE\NETHEARTBEAT.CPP
C:\SAGE\OMICRON\BUILD\SRC\REMOTESERVICE-PREFIX\SRC\REMOTESERVICE-BUILD\NETHEARTBEAT.DIR\DEBUG\VC120.PDB
C:\SAGE\OMICRON\BUILD\SRC\REMOTESERVICE-PREFIX\SRC\REMOTESERVICE-BUILD\NETHEARTBEAT.DIR\DEBUG\NETHEARTBEAT.OBJ
