^C:\SAGE\OMICRON\BUILD\CMAKEFILES\C4A3F06C699EAF7C599F561191195FDD\GENERATE.STAMP.RULE
C:\PROGRAM FILES\CMAKE\SHARE\CMAKE-3.8\MODULES\CMAKECINFORMATION.CMAKE
C:\PROGRAM FILES\CMAKE\SHARE\CMAKE-3.8\MODULES\CMAKECXXINFORMATION.CMAKE
C:\PROGRAM FILES\CMAKE\SHARE\CMAKE-3.8\MODULES\CMAKECOMMONLANGUAGEINCLUDE.CMAKE
C:\PROGRAM FILES\CMAKE\SHARE\CMAKE-3.8\MODULES\CMAKEGENERICSYSTEM.CMAKE
C:\PROGRAM FILES\CMAKE\SHARE\CMAKE-3.8\MODULES\CMAKELANGUAGEINFORMATION.CMAKE
C:\PROGRAM FILES\CMAKE\SHARE\CMAKE-3.8\MODULES\CMAKERCINFORMATION.CMAKE
C:\PROGRAM FILES\CMAKE\SHARE\CMAKE-3.8\MODULES\CMAKESYSTEMSPECIFICINFORMATION.CMAKE
C:\PROGRAM FILES\CMAKE\SHARE\CMAKE-3.8\MODULES\CMAKESYSTEMSPECIFICINITIALIZE.CMAKE
C:\PROGRAM FILES\CMAKE\SHARE\CMAKE-3.8\MODULES\CPACK.CMAKE
C:\PROGRAM FILES\CMAKE\SHARE\CMAKE-3.8\MODULES\CPACKCOMPONENT.CMAKE
C:\PROGRAM FILES\CMAKE\SHARE\CMAKE-3.8\MODULES\COMPILER\MSVC-CXX.CMAKE
C:\PROGRAM FILES\CMAKE\SHARE\CMAKE-3.8\MODULES\EXTERNALPROJECT.CMAKE
C:\PROGRAM FILES\CMAKE\SHARE\CMAKE-3.8\MODULES\PLATFORM\WINDOWS-MSVC-C.CMAKE
C:\PROGRAM FILES\CMAKE\SHARE\CMAKE-3.8\MODULES\PLATFORM\WINDOWS-MSVC-CXX.CMAKE
C:\PROGRAM FILES\CMAKE\SHARE\CMAKE-3.8\MODULES\PLATFORM\WINDOWS-MSVC.CMAKE
C:\PROGRAM FILES\CMAKE\SHARE\CMAKE-3.8\MODULES\PLATFORM\WINDOWS.CMAKE
C:\PROGRAM FILES\CMAKE\SHARE\CMAKE-3.8\MODULES\PLATFORM\WINDOWSPATHS.CMAKE
C:\PROGRAM FILES\CMAKE\SHARE\CMAKE-3.8\TEMPLATES\CPACKCONFIG.CMAKE.IN
C:\SAGE\OMICRON\BUILD\CMAKEFILES\3.8.0-RC2\CMAKECCOMPILER.CMAKE
C:\SAGE\OMICRON\BUILD\CMAKEFILES\3.8.0-RC2\CMAKECXXCOMPILER.CMAKE
C:\SAGE\OMICRON\BUILD\CMAKEFILES\3.8.0-RC2\CMAKERCCOMPILER.CMAKE
C:\SAGE\OMICRON\BUILD\CMAKEFILES\3.8.0-RC2\CMAKESYSTEM.CMAKE
C:\SAGE\OMICRON\BUILD\SRC\LOCALSERVICE-PREFIX\TMP\LOCALSERVICE-CFGCMD.TXT.IN
C:\SAGE\OMICRON\BUILD\SRC\REMOTESERVICE-PREFIX\TMP\REMOTESERVICE-CFGCMD.TXT.IN
C:\SAGE\OMICRON\SOURCE\CMAKELISTS.TXT
C:\SAGE\OMICRON\SOURCE\CMAKEMODULES\OMICRONADDEXAMPLE.CMAKE
C:\SAGE\OMICRON\SOURCE\CMAKEMODULES\USEOMICRON.CMAKE.IN
C:\SAGE\OMICRON\SOURCE\CMAKEMODULES\USEPCH.CMAKE
C:\SAGE\OMICRON\SOURCE\EXTERNAL\USEASIO.CMAKE
C:\SAGE\OMICRON\SOURCE\EXTERNAL\USEBOOST.CMAKE
C:\SAGE\OMICRON\SOURCE\EXTERNAL\USEEIGEN.CMAKE
C:\SAGE\OMICRON\SOURCE\EXTERNAL\LIBS32\KINECT2\MICROSOFT.KINECT.DLL
C:\SAGE\OMICRON\SOURCE\EXTERNAL\LIBS32\PQMTCLIENT.DLL
C:\SAGE\OMICRON\SOURCE\SRC\CMAKELISTS.TXT
C:\SAGE\OMICRON\SOURCE\SRC\APPS\CONNECTORCLIENT\CMAKELISTS.TXT
C:\SAGE\OMICRON\SOURCE\SRC\APPS\EVENTLOGGER\CMAKELISTS.TXT
C:\SAGE\OMICRON\SOURCE\SRC\APPS\LEGACY-OINPUTSERVER\CMAKELISTS.TXT
C:\SAGE\OMICRON\SOURCE\SRC\APPS\OCACHESRV\CMAKELISTS.TXT
C:\SAGE\OMICRON\SOURCE\SRC\APPS\OCACHESYNC\CMAKELISTS.TXT
C:\SAGE\OMICRON\SOURCE\SRC\APPS\OINPUTSERVER\CMAKELISTS.TXT
C:\SAGE\OMICRON\SOURCE\SRC\APPS\SAGEINPUTSERVER\CMAKELISTS.TXT
C:\SAGE\OMICRON\SOURCE\SRC\APPS\SOUNDTEST\CMAKELISTS.TXT
C:\SAGE\OMICRON\SOURCE\SRC\OMICRON\CMAKELISTS.TXT
C:\SAGE\OMICRON\SOURCE\SRC\OMICRON\OMICRON\OMICRONCONFIG.H.IN
