^C:\SAGE\OMICRON\SOURCE\SRC\APPS\EVENTLOGGER\EVENTLOGGER.CPP
C:\PROGRAM FILES (X86)\MICROSOFT VISUAL STUDIO 12.0\VC\BIN\1033\CLUI.DLL
C:\WINDOWS\GLOBALIZATION\SORTING\SORTDEFAULT.NLS
C:\WINDOWS\SYSTEM32\TZRES.DLL
C:\SAGE\OMICRON\SOURCE\INCLUDE\OMICRON.H
C:\SAGE\OMICRON\BUILD\INCLUDE\OMICRONCONFIG.H
C:\SAGE\OMICRON\SOURCE\INCLUDE\OMICRON\LIBCONFIG\ARGUMENTHELPER.H
C:\PROGRAM FILES (X86)\MICROSOFT VISUAL STUDIO 12.0\VC\INCLUDE\VECTOR
C:\PROGRAM FILES (X86)\MICROSOFT VISUAL STUDIO 12.0\VC\INCLUDE\XMEMORY
C:\PROGRAM FILES (X86)\MICROSOFT VISUAL STUDIO 12.0\VC\INCLUDE\XMEMORY0
C:\PROGRAM FILES (X86)\MICROSOFT VISUAL STUDIO 12.0\VC\INCLUDE\CSTDLIB
C:\PROGRAM FILES (X86)\MICROSOFT VISUAL STUDIO 12.0\VC\INCLUDE\YVALS.H
C:\PROGRAM FILES (X86)\MICROSOFT VISUAL STUDIO 12.0\VC\INCLUDE\XKEYCHECK.H
C:\PROGRAM FILES (X86)\MICROSOFT VISUAL STUDIO 12.0\VC\INCLUDE\CRTDEFS.H
C:\PROGRAM FILES (X86)\MICROSOFT VISUAL STUDIO 12.0\VC\INCLUDE\SAL.H
C:\PROGRAM FILES (X86)\MICROSOFT VISUAL STUDIO 12.0\VC\INCLUDE\CONCURRENCYSAL.H
C:\PROGRAM FILES (X86)\MICROSOFT VISUAL STUDIO 12.0\VC\INCLUDE\VADEFS.H
C:\PROGRAM FILES (X86)\MICROSOFT VISUAL STUDIO 12.0\VC\INCLUDE\USE_ANSI.H
C:\PROGRAM FILES (X86)\MICROSOFT VISUAL STUDIO 12.0\VC\INCLUDE\STDLIB.H
C:\PROGRAM FILES (X86)\MICROSOFT VISUAL STUDIO 12.0\VC\INCLUDE\LIMITS.H
C:\PROGRAM FILES (X86)\MICROSOFT VISUAL STUDIO 12.0\VC\INCLUDE\LIMITS
C:\PROGRAM FILES (X86)\MICROSOFT VISUAL STUDIO 12.0\VC\INCLUDE\YMATH.H
C:\PROGRAM FILES (X86)\MICROSOFT VISUAL STUDIO 12.0\VC\INCLUDE\CFLOAT
C:\PROGRAM FILES (X86)\MICROSOFT VISUAL STUDIO 12.0\VC\INCLUDE\FLOAT.H
C:\PROGRAM FILES (X86)\MICROSOFT VISUAL STUDIO 12.0\VC\INCLUDE\CRTWRN.H
C:\PROGRAM FILES (X86)\MICROSOFT VISUAL STUDIO 12.0\VC\INCLUDE\CLIMITS
C:\PROGRAM FILES (X86)\MICROSOFT VISUAL STUDIO 12.0\VC\INCLUDE\CMATH
C:\PROGRAM FILES (X86)\MICROSOFT VISUAL STUDIO 12.0\VC\INCLUDE\MATH.H
C:\PROGRAM FILES (X86)\MICROSOFT VISUAL STUDIO 12.0\VC\INCLUDE\XTGMATH.H
C:\PROGRAM FILES (X86)\MICROSOFT VISUAL STUDIO 12.0\VC\INCLUDE\XTR1COMMON
C:\PROGRAM FILES (X86)\MICROSOFT VISUAL STUDIO 12.0\VC\INCLUDE\CWCHAR
C:\PROGRAM FILES (X86)\MICROSOFT VISUAL STUDIO 12.0\VC\INCLUDE\WCHAR.H
C:\PROGRAM FILES (X86)\MICROSOFT VISUAL STUDIO 12.0\VC\INCLUDE\SWPRINTF.INL
C:\PROGRAM FILES (X86)\MICROSOFT VISUAL STUDIO 12.0\VC\INCLUDE\WTIME.INL
C:\PROGRAM FILES (X86)\MICROSOFT VISUAL STUDIO 12.0\VC\INCLUDE\XSTDDEF
C:\PROGRAM FILES (X86)\MICROSOFT VISUAL STUDIO 12.0\VC\INCLUDE\CSTDDEF
C:\PROGRAM FILES (X86)\MICROSOFT VISUAL STUDIO 12.0\VC\INCLUDE\STDDEF.H
C:\PROGRAM FILES (X86)\MICROSOFT VISUAL STUDIO 12.0\VC\INCLUDE\INITIALIZER_LIST
C:\PROGRAM FILES (X86)\MICROSOFT VISUAL STUDIO 12.0\VC\INCLUDE\NEW
C:\PROGRAM FILES (X86)\MICROSOFT VISUAL STUDIO 12.0\VC\INCLUDE\EXCEPTION
C:\PROGRAM FILES (X86)\MICROSOFT VISUAL STUDIO 12.0\VC\INCLUDE\EH.H
C:\PROGRAM FILES (X86)\MICROSOFT VISUAL STUDIO 12.0\VC\INCLUDE\MALLOC.H
C:\PROGRAM FILES (X86)\MICROSOFT VISUAL STUDIO 12.0\VC\INCLUDE\STRING.H
C:\PROGRAM FILES (X86)\MICROSOFT VISUAL STUDIO 12.0\VC\INCLUDE\XUTILITY
C:\PROGRAM FILES (X86)\MICROSOFT VISUAL STUDIO 12.0\VC\INCLUDE\UTILITY
C:\PROGRAM FILES (X86)\MICROSOFT VISUAL STUDIO 12.0\VC\INCLUDE\IOSFWD
C:\PROGRAM FILES (X86)\MICROSOFT VISUAL STUDIO 12.0\VC\INCLUDE\CSTDIO
C:\PROGRAM FILES (X86)\MICROSOFT VISUAL STUDIO 12.0\VC\INCLUDE\STDIO.H
C:\PROGRAM FILES (X86)\MICROSOFT VISUAL STUDIO 12.0\VC\INCLUDE\CSTRING
C:\PROGRAM FILES (X86)\MICROSOFT VISUAL STUDIO 12.0\VC\INCLUDE\CRTDBG.H
C:\PROGRAM FILES (X86)\MICROSOFT VISUAL STUDIO 12.0\VC\INCLUDE\TYPE_TRAITS
C:\PROGRAM FILES (X86)\MICROSOFT VISUAL STUDIO 12.0\VC\INCLUDE\XREFWRAP
C:\PROGRAM FILES (X86)\MICROSOFT VISUAL STUDIO 12.0\VC\INCLUDE\XATOMIC0.H
C:\PROGRAM FILES (X86)\MICROSOFT VISUAL STUDIO 12.0\VC\INCLUDE\INTRIN.H
C:\PROGRAM FILES (X86)\MICROSOFT VISUAL STUDIO 12.0\VC\INCLUDE\SETJMP.H
C:\PROGRAM FILES (X86)\MICROSOFT VISUAL STUDIO 12.0\VC\INCLUDE\IMMINTRIN.H
C:\PROGRAM FILES (X86)\MICROSOFT VISUAL STUDIO 12.0\VC\INCLUDE\WMMINTRIN.H
C:\PROGRAM FILES (X86)\MICROSOFT VISUAL STUDIO 12.0\VC\INCLUDE\NMMINTRIN.H
C:\PROGRAM FILES (X86)\MICROSOFT VISUAL STUDIO 12.0\VC\INCLUDE\SMMINTRIN.H
C:\PROGRAM FILES (X86)\MICROSOFT VISUAL STUDIO 12.0\VC\INCLUDE\TMMINTRIN.H
C:\PROGRAM FILES (X86)\MICROSOFT VISUAL STUDIO 12.0\VC\INCLUDE\PMMINTRIN.H
C:\PROGRAM FILES (X86)\MICROSOFT VISUAL STUDIO 12.0\VC\INCLUDE\EMMINTRIN.H
C:\PROGRAM FILES (X86)\MICROSOFT VISUAL STUDIO 12.0\VC\INCLUDE\XMMINTRIN.H
C:\PROGRAM FILES (X86)\MICROSOFT VISUAL STUDIO 12.0\VC\INCLUDE\MMINTRIN.H
C:\PROGRAM FILES (X86)\MICROSOFT VISUAL STUDIO 12.0\VC\INCLUDE\AMMINTRIN.H
C:\PROGRAM FILES (X86)\MICROSOFT VISUAL STUDIO 12.0\VC\INCLUDE\MM3DNOW.H
C:\PROGRAM FILES (X86)\MICROSOFT VISUAL STUDIO 12.0\VC\INCLUDE\STDEXCEPT
C:\PROGRAM FILES (X86)\MICROSOFT VISUAL STUDIO 12.0\VC\INCLUDE\XSTRING
C:\PROGRAM FILES (X86)\MICROSOFT VISUAL STUDIO 12.0\VC\INCLUDE\MAP
C:\PROGRAM FILES (X86)\MICROSOFT VISUAL STUDIO 12.0\VC\INCLUDE\XTREE
C:\PROGRAM FILES (X86)\MICROSOFT VISUAL STUDIO 12.0\VC\INCLUDE\TUPLE
C:\PROGRAM FILES (X86)\MICROSOFT VISUAL STUDIO 12.0\VC\INCLUDE\LIST
C:\PROGRAM FILES (X86)\MICROSOFT VISUAL STUDIO 12.0\VC\INCLUDE\STRING
C:\PROGRAM FILES (X86)\MICROSOFT VISUAL STUDIO 12.0\VC\INCLUDE\ITERATOR
C:\PROGRAM FILES (X86)\MICROSOFT VISUAL STUDIO 12.0\VC\INCLUDE\ISTREAM
C:\PROGRAM FILES (X86)\MICROSOFT VISUAL STUDIO 12.0\VC\INCLUDE\OSTREAM
C:\PROGRAM FILES (X86)\MICROSOFT VISUAL STUDIO 12.0\VC\INCLUDE\IOS
C:\PROGRAM FILES (X86)\MICROSOFT VISUAL STUDIO 12.0\VC\INCLUDE\XLOCNUM
C:\PROGRAM FILES (X86)\MICROSOFT VISUAL STUDIO 12.0\VC\INCLUDE\STREAMBUF
C:\PROGRAM FILES (X86)\MICROSOFT VISUAL STUDIO 12.0\VC\INCLUDE\XIOSBASE
C:\PROGRAM FILES (X86)\MICROSOFT VISUAL STUDIO 12.0\VC\INCLUDE\XLOCALE
C:\PROGRAM FILES (X86)\MICROSOFT VISUAL STUDIO 12.0\VC\INCLUDE\TYPEINFO
C:\PROGRAM FILES (X86)\MICROSOFT VISUAL STUDIO 12.0\VC\INCLUDE\XLOCINFO
C:\PROGRAM FILES (X86)\MICROSOFT VISUAL STUDIO 12.0\VC\INCLUDE\XLOCINFO.H
C:\PROGRAM FILES (X86)\MICROSOFT VISUAL STUDIO 12.0\VC\INCLUDE\CTYPE.H
C:\PROGRAM FILES (X86)\MICROSOFT VISUAL STUDIO 12.0\VC\INCLUDE\LOCALE.H
C:\PROGRAM FILES (X86)\MICROSOFT VISUAL STUDIO 12.0\VC\INCLUDE\XDEBUG
C:\PROGRAM FILES (X86)\MICROSOFT VISUAL STUDIO 12.0\VC\INCLUDE\XFACET
C:\PROGRAM FILES (X86)\MICROSOFT VISUAL STUDIO 12.0\VC\INCLUDE\SYSTEM_ERROR
C:\PROGRAM FILES (X86)\MICROSOFT VISUAL STUDIO 12.0\VC\INCLUDE\CERRNO
C:\PROGRAM FILES (X86)\MICROSOFT VISUAL STUDIO 12.0\VC\INCLUDE\ERRNO.H
C:\PROGRAM FILES (X86)\MICROSOFT VISUAL STUDIO 12.0\VC\INCLUDE\SHARE.H
C:\SAGE\OMICRON\SOURCE\INCLUDE\OMICRON\OSYSTEM.H
C:\SAGE\OMICRON\SOURCE\INCLUDE\OMICRON\OTYPES.H
C:\PROGRAM FILES (X86)\MICROSOFT VISUAL STUDIO 12.0\VC\INCLUDE\QUEUE
C:\PROGRAM FILES (X86)\MICROSOFT VISUAL STUDIO 12.0\VC\INCLUDE\ALGORITHM
C:\PROGRAM FILES (X86)\MICROSOFT VISUAL STUDIO 12.0\VC\INCLUDE\DEQUE
C:\PROGRAM FILES (X86)\MICROSOFT VISUAL STUDIO 12.0\VC\INCLUDE\TIME.H
C:\PROGRAM FILES (X86)\MICROSOFT VISUAL STUDIO 12.0\VC\INCLUDE\TIME.INL
C:\SAGE\OMICRON\BUILD\INCLUDE\BOOST\FOREACH.HPP
C:\SAGE\OMICRON\BUILD\INCLUDE\BOOST\CONFIG.HPP
C:\SAGE\OMICRON\BUILD\INCLUDE\BOOST\CONFIG\USER.HPP
C:\SAGE\OMICRON\BUILD\INCLUDE\BOOST\CONFIG\SELECT_COMPILER_CONFIG.HPP
C:\SAGE\OMICRON\BUILD\INCLUDE\BOOST\CONFIG\COMPILER\VISUALC.HPP
C:\SAGE\OMICRON\BUILD\INCLUDE\BOOST\CONFIG\SELECT_STDLIB_CONFIG.HPP
C:\SAGE\OMICRON\BUILD\INCLUDE\BOOST\CONFIG\STDLIB\DINKUMWARE.HPP
C:\SAGE\OMICRON\BUILD\INCLUDE\BOOST\CONFIG\SELECT_PLATFORM_CONFIG.HPP
C:\SAGE\OMICRON\BUILD\INCLUDE\BOOST\CONFIG\PLATFORM\WIN32.HPP
C:\SAGE\OMICRON\BUILD\INCLUDE\BOOST\CONFIG\SUFFIX.HPP
C:\SAGE\OMICRON\BUILD\INCLUDE\BOOST\DETAIL\WORKAROUND.HPP
C:\SAGE\OMICRON\BUILD\INCLUDE\BOOST\MPL\IF.HPP
C:\SAGE\OMICRON\BUILD\INCLUDE\BOOST\MPL\AUX_\VALUE_WKND.HPP
C:\SAGE\OMICRON\BUILD\INCLUDE\BOOST\MPL\AUX_\STATIC_CAST.HPP
C:\SAGE\OMICRON\BUILD\INCLUDE\BOOST\MPL\AUX_\CONFIG\WORKAROUND.HPP
C:\SAGE\OMICRON\BUILD\INCLUDE\BOOST\MPL\AUX_\CONFIG\INTEGRAL.HPP
C:\SAGE\OMICRON\BUILD\INCLUDE\BOOST\MPL\AUX_\CONFIG\MSVC.HPP
C:\SAGE\OMICRON\BUILD\INCLUDE\BOOST\MPL\AUX_\CONFIG\ETI.HPP
C:\SAGE\OMICRON\BUILD\INCLUDE\BOOST\MPL\AUX_\NA_SPEC.HPP
C:\SAGE\OMICRON\BUILD\INCLUDE\BOOST\MPL\LAMBDA_FWD.HPP
C:\SAGE\OMICRON\BUILD\INCLUDE\BOOST\MPL\VOID_FWD.HPP
C:\SAGE\OMICRON\BUILD\INCLUDE\BOOST\MPL\AUX_\ADL_BARRIER.HPP
C:\SAGE\OMICRON\BUILD\INCLUDE\BOOST\MPL\AUX_\CONFIG\ADL.HPP
C:\SAGE\OMICRON\BUILD\INCLUDE\BOOST\MPL\AUX_\CONFIG\INTEL.HPP
C:\SAGE\OMICRON\BUILD\INCLUDE\BOOST\MPL\AUX_\CONFIG\GCC.HPP
C:\SAGE\OMICRON\BUILD\INCLUDE\BOOST\MPL\AUX_\NA.HPP
C:\SAGE\OMICRON\BUILD\INCLUDE\BOOST\MPL\BOOL.HPP
C:\SAGE\OMICRON\BUILD\INCLUDE\BOOST\MPL\BOOL_FWD.HPP
C:\SAGE\OMICRON\BUILD\INCLUDE\BOOST\MPL\INTEGRAL_C_TAG.HPP
C:\SAGE\OMICRON\BUILD\INCLUDE\BOOST\MPL\AUX_\CONFIG\STATIC_CONSTANT.HPP
C:\SAGE\OMICRON\BUILD\INCLUDE\BOOST\MPL\AUX_\NA_FWD.HPP
C:\SAGE\OMICRON\BUILD\INCLUDE\BOOST\MPL\AUX_\CONFIG\CTPS.HPP
C:\SAGE\OMICRON\BUILD\INCLUDE\BOOST\MPL\AUX_\CONFIG\LAMBDA.HPP
C:\SAGE\OMICRON\BUILD\INCLUDE\BOOST\MPL\AUX_\CONFIG\TTP.HPP
C:\SAGE\OMICRON\BUILD\INCLUDE\BOOST\MPL\INT.HPP
C:\SAGE\OMICRON\BUILD\INCLUDE\BOOST\MPL\INT_FWD.HPP
C:\SAGE\OMICRON\BUILD\INCLUDE\BOOST\MPL\AUX_\NTTP_DECL.HPP
C:\SAGE\OMICRON\BUILD\INCLUDE\BOOST\MPL\AUX_\CONFIG\NTTP.HPP
C:\SAGE\OMICRON\BUILD\INCLUDE\BOOST\MPL\AUX_\INTEGRAL_WRAPPER.HPP
C:\SAGE\OMICRON\BUILD\INCLUDE\BOOST\PREPROCESSOR\CAT.HPP
C:\SAGE\OMICRON\BUILD\INCLUDE\BOOST\PREPROCESSOR\CONFIG\CONFIG.HPP
C:\SAGE\OMICRON\BUILD\INCLUDE\BOOST\MPL\AUX_\LAMBDA_ARITY_PARAM.HPP
C:\SAGE\OMICRON\BUILD\INCLUDE\BOOST\MPL\AUX_\TEMPLATE_ARITY_FWD.HPP
C:\SAGE\OMICRON\BUILD\INCLUDE\BOOST\MPL\AUX_\ARITY.HPP
C:\SAGE\OMICRON\BUILD\INCLUDE\BOOST\MPL\AUX_\CONFIG\DTP.HPP
C:\SAGE\OMICRON\BUILD\INCLUDE\BOOST\MPL\AUX_\PREPROCESSOR\PARAMS.HPP
C:\SAGE\OMICRON\BUILD\INCLUDE\BOOST\MPL\AUX_\CONFIG\PREPROCESSOR.HPP
C:\SAGE\OMICRON\BUILD\INCLUDE\BOOST\PREPROCESSOR\COMMA_IF.HPP
C:\SAGE\OMICRON\BUILD\INCLUDE\BOOST\PREPROCESSOR\PUNCTUATION\COMMA_IF.HPP
C:\SAGE\OMICRON\BUILD\INCLUDE\BOOST\PREPROCESSOR\CONTROL\IF.HPP
C:\SAGE\OMICRON\BUILD\INCLUDE\BOOST\PREPROCESSOR\CONTROL\IIF.HPP
C:\SAGE\OMICRON\BUILD\INCLUDE\BOOST\PREPROCESSOR\LOGICAL\BOOL.HPP
C:\SAGE\OMICRON\BUILD\INCLUDE\BOOST\PREPROCESSOR\FACILITIES\EMPTY.HPP
C:\SAGE\OMICRON\BUILD\INCLUDE\BOOST\PREPROCESSOR\PUNCTUATION\COMMA.HPP
C:\SAGE\OMICRON\BUILD\INCLUDE\BOOST\PREPROCESSOR\REPEAT.HPP
C:\SAGE\OMICRON\BUILD\INCLUDE\BOOST\PREPROCESSOR\REPETITION\REPEAT.HPP
C:\SAGE\OMICRON\BUILD\INCLUDE\BOOST\PREPROCESSOR\DEBUG\ERROR.HPP
C:\SAGE\OMICRON\BUILD\INCLUDE\BOOST\PREPROCESSOR\DETAIL\AUTO_REC.HPP
C:\SAGE\OMICRON\BUILD\INCLUDE\BOOST\PREPROCESSOR\TUPLE\EAT.HPP
C:\SAGE\OMICRON\BUILD\INCLUDE\BOOST\PREPROCESSOR\INC.HPP
C:\SAGE\OMICRON\BUILD\INCLUDE\BOOST\PREPROCESSOR\ARITHMETIC\INC.HPP
C:\SAGE\OMICRON\BUILD\INCLUDE\BOOST\MPL\AUX_\PREPROCESSOR\ENUM.HPP
C:\SAGE\OMICRON\BUILD\INCLUDE\BOOST\MPL\AUX_\PREPROCESSOR\DEF_PARAMS_TAIL.HPP
C:\SAGE\OMICRON\BUILD\INCLUDE\BOOST\MPL\LIMITS\ARITY.HPP
C:\SAGE\OMICRON\BUILD\INCLUDE\BOOST\PREPROCESSOR\LOGICAL\AND.HPP
C:\SAGE\OMICRON\BUILD\INCLUDE\BOOST\PREPROCESSOR\LOGICAL\BITAND.HPP
C:\SAGE\OMICRON\BUILD\INCLUDE\BOOST\PREPROCESSOR\IDENTITY.HPP
C:\SAGE\OMICRON\BUILD\INCLUDE\BOOST\PREPROCESSOR\FACILITIES\IDENTITY.HPP
C:\SAGE\OMICRON\BUILD\INCLUDE\BOOST\PREPROCESSOR\EMPTY.HPP
C:\SAGE\OMICRON\BUILD\INCLUDE\BOOST\PREPROCESSOR\ARITHMETIC\ADD.HPP
C:\SAGE\OMICRON\BUILD\INCLUDE\BOOST\PREPROCESSOR\ARITHMETIC\DEC.HPP
C:\SAGE\OMICRON\BUILD\INCLUDE\BOOST\PREPROCESSOR\CONTROL\WHILE.HPP
C:\SAGE\OMICRON\BUILD\INCLUDE\BOOST\PREPROCESSOR\LIST\FOLD_LEFT.HPP
C:\SAGE\OMICRON\BUILD\INCLUDE\BOOST\PREPROCESSOR\LIST\DETAIL\FOLD_LEFT.HPP
C:\SAGE\OMICRON\BUILD\INCLUDE\BOOST\PREPROCESSOR\CONTROL\EXPR_IIF.HPP
C:\SAGE\OMICRON\BUILD\INCLUDE\BOOST\PREPROCESSOR\LIST\ADT.HPP
C:\SAGE\OMICRON\BUILD\INCLUDE\BOOST\PREPROCESSOR\DETAIL\IS_BINARY.HPP
C:\SAGE\OMICRON\BUILD\INCLUDE\BOOST\PREPROCESSOR\DETAIL\CHECK.HPP
C:\SAGE\OMICRON\BUILD\INCLUDE\BOOST\PREPROCESSOR\LOGICAL\COMPL.HPP
C:\SAGE\OMICRON\BUILD\INCLUDE\BOOST\PREPROCESSOR\LIST\FOLD_RIGHT.HPP
C:\SAGE\OMICRON\BUILD\INCLUDE\BOOST\PREPROCESSOR\LIST\DETAIL\FOLD_RIGHT.HPP
C:\SAGE\OMICRON\BUILD\INCLUDE\BOOST\PREPROCESSOR\LIST\REVERSE.HPP
C:\SAGE\OMICRON\BUILD\INCLUDE\BOOST\PREPROCESSOR\CONTROL\DETAIL\MSVC\WHILE.HPP
C:\SAGE\OMICRON\BUILD\INCLUDE\BOOST\PREPROCESSOR\TUPLE\ELEM.HPP
C:\SAGE\OMICRON\BUILD\INCLUDE\BOOST\PREPROCESSOR\FACILITIES\EXPAND.HPP
C:\SAGE\OMICRON\BUILD\INCLUDE\BOOST\PREPROCESSOR\FACILITIES\OVERLOAD.HPP
C:\SAGE\OMICRON\BUILD\INCLUDE\BOOST\PREPROCESSOR\VARIADIC\SIZE.HPP
C:\SAGE\OMICRON\BUILD\INCLUDE\BOOST\PREPROCESSOR\TUPLE\REM.HPP
C:\SAGE\OMICRON\BUILD\INCLUDE\BOOST\PREPROCESSOR\TUPLE\DETAIL\IS_SINGLE_RETURN.HPP
C:\SAGE\OMICRON\BUILD\INCLUDE\BOOST\PREPROCESSOR\FACILITIES\IS_1.HPP
C:\SAGE\OMICRON\BUILD\INCLUDE\BOOST\PREPROCESSOR\FACILITIES\IS_EMPTY.HPP
C:\SAGE\OMICRON\BUILD\INCLUDE\BOOST\PREPROCESSOR\FACILITIES\IS_EMPTY_VARIADIC.HPP
C:\SAGE\OMICRON\BUILD\INCLUDE\BOOST\PREPROCESSOR\PUNCTUATION\IS_BEGIN_PARENS.HPP
C:\SAGE\OMICRON\BUILD\INCLUDE\BOOST\PREPROCESSOR\PUNCTUATION\DETAIL\IS_BEGIN_PARENS.HPP
C:\SAGE\OMICRON\BUILD\INCLUDE\BOOST\PREPROCESSOR\FACILITIES\DETAIL\IS_EMPTY.HPP
C:\SAGE\OMICRON\BUILD\INCLUDE\BOOST\PREPROCESSOR\TUPLE\SIZE.HPP
C:\SAGE\OMICRON\BUILD\INCLUDE\BOOST\PREPROCESSOR\VARIADIC\ELEM.HPP
C:\SAGE\OMICRON\BUILD\INCLUDE\BOOST\PREPROCESSOR\ARITHMETIC\SUB.HPP
C:\SAGE\OMICRON\BUILD\INCLUDE\BOOST\MPL\AUX_\CONFIG\OVERLOAD_RESOLUTION.HPP
C:\SAGE\OMICRON\BUILD\INCLUDE\BOOST\MPL\AUX_\LAMBDA_SUPPORT.HPP
C:\SAGE\OMICRON\BUILD\INCLUDE\BOOST\MPL\ASSERT.HPP
C:\SAGE\OMICRON\BUILD\INCLUDE\BOOST\MPL\NOT.HPP
C:\SAGE\OMICRON\BUILD\INCLUDE\BOOST\MPL\AUX_\NESTED_TYPE_WKND.HPP
C:\SAGE\OMICRON\BUILD\INCLUDE\BOOST\MPL\AUX_\YES_NO.HPP
C:\SAGE\OMICRON\BUILD\INCLUDE\BOOST\MPL\AUX_\CONFIG\ARRAYS.HPP
C:\SAGE\OMICRON\BUILD\INCLUDE\BOOST\MPL\AUX_\CONFIG\GPU.HPP
C:\SAGE\OMICRON\BUILD\INCLUDE\BOOST\MPL\AUX_\CONFIG\PP_COUNTER.HPP
C:\SAGE\OMICRON\BUILD\INCLUDE\BOOST\MPL\LOGICAL.HPP
C:\SAGE\OMICRON\BUILD\INCLUDE\BOOST\MPL\OR.HPP
C:\SAGE\OMICRON\BUILD\INCLUDE\BOOST\MPL\AUX_\CONFIG\USE_PREPROCESSED.HPP
C:\SAGE\OMICRON\BUILD\INCLUDE\BOOST\MPL\AUX_\INCLUDE_PREPROCESSED.HPP
C:\SAGE\OMICRON\BUILD\INCLUDE\BOOST\MPL\AUX_\CONFIG\COMPILER.HPP
C:\SAGE\OMICRON\BUILD\INCLUDE\BOOST\PREPROCESSOR\STRINGIZE.HPP
C:\SAGE\OMICRON\BUILD\INCLUDE\BOOST\MPL\AUX_\PREPROCESSED\PLAIN\OR.HPP
C:\SAGE\OMICRON\BUILD\INCLUDE\BOOST\MPL\AND.HPP
C:\SAGE\OMICRON\BUILD\INCLUDE\BOOST\MPL\AUX_\PREPROCESSED\PLAIN\AND.HPP
C:\SAGE\OMICRON\BUILD\INCLUDE\BOOST\MPL\EVAL_IF.HPP
C:\SAGE\OMICRON\BUILD\INCLUDE\BOOST\NONCOPYABLE.HPP
C:\SAGE\OMICRON\BUILD\INCLUDE\BOOST\CORE\NONCOPYABLE.HPP
C:\SAGE\OMICRON\BUILD\INCLUDE\BOOST\RANGE\END.HPP
C:\SAGE\OMICRON\BUILD\INCLUDE\BOOST\RANGE\CONFIG.HPP
C:\SAGE\OMICRON\BUILD\INCLUDE\BOOST\RANGE\DETAIL\IMPLEMENTATION_HELP.HPP
C:\SAGE\OMICRON\BUILD\INCLUDE\BOOST\RANGE\DETAIL\COMMON.HPP
C:\SAGE\OMICRON\BUILD\INCLUDE\BOOST\RANGE\DETAIL\SFINAE.HPP
C:\SAGE\OMICRON\BUILD\INCLUDE\BOOST\TYPE_TRAITS\IS_ARRAY.HPP
C:\SAGE\OMICRON\BUILD\INCLUDE\BOOST\TYPE_TRAITS\INTEGRAL_CONSTANT.HPP
C:\SAGE\OMICRON\BUILD\INCLUDE\BOOST\TYPE_TRAITS\DETAIL\YES_NO_TYPE.HPP
C:\SAGE\OMICRON\BUILD\INCLUDE\BOOST\TYPE_TRAITS\IS_VOID.HPP
C:\SAGE\OMICRON\BUILD\INCLUDE\BOOST\TYPE_TRAITS\IS_SAME.HPP
C:\SAGE\OMICRON\BUILD\INCLUDE\BOOST\RANGE\ITERATOR.HPP
C:\SAGE\OMICRON\BUILD\INCLUDE\BOOST\RANGE\RANGE_FWD.HPP
C:\SAGE\OMICRON\BUILD\INCLUDE\BOOST\RANGE\MUTABLE_ITERATOR.HPP
C:\SAGE\OMICRON\BUILD\INCLUDE\BOOST\RANGE\DETAIL\EXTRACT_OPTIONAL_TYPE.HPP
C:\SAGE\OMICRON\BUILD\INCLUDE\BOOST\MPL\HAS_XXX.HPP
C:\SAGE\OMICRON\BUILD\INCLUDE\BOOST\MPL\AUX_\TYPE_WRAPPER.HPP
C:\SAGE\OMICRON\BUILD\INCLUDE\BOOST\MPL\AUX_\CONFIG\HAS_XXX.HPP
C:\SAGE\OMICRON\BUILD\INCLUDE\BOOST\MPL\AUX_\CONFIG\MSVC_TYPENAME.HPP
C:\SAGE\OMICRON\BUILD\INCLUDE\BOOST\PREPROCESSOR\ARRAY\ELEM.HPP
C:\SAGE\OMICRON\BUILD\INCLUDE\BOOST\PREPROCESSOR\ARRAY\DATA.HPP
C:\SAGE\OMICRON\BUILD\INCLUDE\BOOST\PREPROCESSOR\ARRAY\SIZE.HPP
C:\SAGE\OMICRON\BUILD\INCLUDE\BOOST\PREPROCESSOR\REPETITION\ENUM_PARAMS.HPP
C:\SAGE\OMICRON\BUILD\INCLUDE\BOOST\PREPROCESSOR\REPETITION\ENUM_TRAILING_PARAMS.HPP
C:\SAGE\OMICRON\BUILD\INCLUDE\BOOST\TYPE_TRAITS\REMOVE_REFERENCE.HPP
C:\SAGE\OMICRON\BUILD\INCLUDE\BOOST\ITERATOR\ITERATOR_TRAITS.HPP
C:\SAGE\OMICRON\BUILD\INCLUDE\BOOST\DETAIL\ITERATOR.HPP
C:\SAGE\OMICRON\BUILD\INCLUDE\BOOST\RANGE\DETAIL\MSVC_HAS_ITERATOR_WORKAROUND.HPP
C:\SAGE\OMICRON\BUILD\INCLUDE\BOOST\RANGE\CONST_ITERATOR.HPP
C:\SAGE\OMICRON\BUILD\INCLUDE\BOOST\TYPE_TRAITS\REMOVE_CONST.HPP
C:\SAGE\OMICRON\BUILD\INCLUDE\BOOST\TYPE_TRAITS\IS_CONST.HPP
C:\SAGE\OMICRON\BUILD\INCLUDE\BOOST\RANGE\BEGIN.HPP
C:\SAGE\OMICRON\BUILD\INCLUDE\BOOST\RANGE\REND.HPP
C:\SAGE\OMICRON\BUILD\INCLUDE\BOOST\RANGE\REVERSE_ITERATOR.HPP
C:\SAGE\OMICRON\BUILD\INCLUDE\BOOST\ITERATOR\REVERSE_ITERATOR.HPP
C:\SAGE\OMICRON\BUILD\INCLUDE\BOOST\NEXT_PRIOR.HPP
C:\SAGE\OMICRON\BUILD\INCLUDE\BOOST\TYPE_TRAITS\IS_UNSIGNED.HPP
C:\SAGE\OMICRON\BUILD\INCLUDE\BOOST\TYPE_TRAITS\IS_INTEGRAL.HPP
C:\SAGE\OMICRON\BUILD\INCLUDE\BOOST\TYPE_TRAITS\IS_ENUM.HPP
C:\SAGE\OMICRON\BUILD\INCLUDE\BOOST\TYPE_TRAITS\INTRINSICS.HPP
C:\SAGE\OMICRON\BUILD\INCLUDE\BOOST\TYPE_TRAITS\DETAIL\CONFIG.HPP
C:\SAGE\OMICRON\BUILD\INCLUDE\BOOST\VERSION.HPP
C:\SAGE\OMICRON\BUILD\INCLUDE\BOOST\TYPE_TRAITS\REMOVE_CV.HPP
C:\SAGE\OMICRON\BUILD\INCLUDE\BOOST\TYPE_TRAITS\INTEGRAL_PROMOTION.HPP
C:\SAGE\OMICRON\BUILD\INCLUDE\BOOST\TYPE_TRAITS\IS_VOLATILE.HPP
C:\SAGE\OMICRON\BUILD\INCLUDE\BOOST\TYPE_TRAITS\MAKE_SIGNED.HPP
C:\SAGE\OMICRON\BUILD\INCLUDE\BOOST\TYPE_TRAITS\CONDITIONAL.HPP
C:\SAGE\OMICRON\BUILD\INCLUDE\BOOST\TYPE_TRAITS\IS_SIGNED.HPP
C:\SAGE\OMICRON\BUILD\INCLUDE\BOOST\TYPE_TRAITS\ADD_CONST.HPP
C:\SAGE\OMICRON\BUILD\INCLUDE\BOOST\TYPE_TRAITS\ADD_VOLATILE.HPP
C:\SAGE\OMICRON\BUILD\INCLUDE\BOOST\STATIC_ASSERT.HPP
C:\SAGE\OMICRON\BUILD\INCLUDE\BOOST\TYPE_TRAITS\HAS_PLUS.HPP
C:\SAGE\OMICRON\BUILD\INCLUDE\BOOST\TYPE_TRAITS\DETAIL\HAS_BINARY_OPERATOR.HPP
C:\SAGE\OMICRON\BUILD\INCLUDE\BOOST\TYPE_TRAITS\IS_BASE_OF.HPP
C:\SAGE\OMICRON\BUILD\INCLUDE\BOOST\TYPE_TRAITS\IS_BASE_AND_DERIVED.HPP
C:\SAGE\OMICRON\BUILD\INCLUDE\BOOST\TYPE_TRAITS\IS_CLASS.HPP
C:\SAGE\OMICRON\BUILD\INCLUDE\BOOST\TYPE_TRAITS\IS_CONVERTIBLE.HPP
C:\SAGE\OMICRON\BUILD\INCLUDE\BOOST\TYPE_TRAITS\IS_FUNCTION.HPP
C:\SAGE\OMICRON\BUILD\INCLUDE\BOOST\TYPE_TRAITS\IS_REFERENCE.HPP
C:\SAGE\OMICRON\BUILD\INCLUDE\BOOST\TYPE_TRAITS\IS_LVALUE_REFERENCE.HPP
C:\SAGE\OMICRON\BUILD\INCLUDE\BOOST\TYPE_TRAITS\IS_RVALUE_REFERENCE.HPP
C:\SAGE\OMICRON\BUILD\INCLUDE\BOOST\TYPE_TRAITS\DETAIL\IS_FUNCTION_PTR_TESTER.HPP
C:\SAGE\OMICRON\BUILD\INCLUDE\BOOST\TYPE_TRAITS\IS_FUNDAMENTAL.HPP
C:\SAGE\OMICRON\BUILD\INCLUDE\BOOST\TYPE_TRAITS\IS_ARITHMETIC.HPP
C:\SAGE\OMICRON\BUILD\INCLUDE\BOOST\TYPE_TRAITS\IS_FLOATING_POINT.HPP
C:\SAGE\OMICRON\BUILD\INCLUDE\BOOST\TYPE_TRAITS\IS_POINTER.HPP
C:\SAGE\OMICRON\BUILD\INCLUDE\BOOST\TYPE_TRAITS\REMOVE_POINTER.HPP
C:\SAGE\OMICRON\BUILD\INCLUDE\BOOST\TYPE_TRAITS\HAS_PLUS_ASSIGN.HPP
C:\SAGE\OMICRON\BUILD\INCLUDE\BOOST\TYPE_TRAITS\HAS_MINUS.HPP
C:\SAGE\OMICRON\BUILD\INCLUDE\BOOST\TYPE_TRAITS\HAS_MINUS_ASSIGN.HPP
C:\SAGE\OMICRON\BUILD\INCLUDE\BOOST\ITERATOR.HPP
C:\SAGE\OMICRON\BUILD\INCLUDE\BOOST\ITERATOR\ITERATOR_ADAPTOR.HPP
C:\SAGE\OMICRON\BUILD\INCLUDE\BOOST\ITERATOR\ITERATOR_CATEGORIES.HPP
C:\SAGE\OMICRON\BUILD\INCLUDE\BOOST\ITERATOR\DETAIL\CONFIG_DEF.HPP
C:\SAGE\OMICRON\BUILD\INCLUDE\BOOST\MPL\IDENTITY.HPP
C:\SAGE\OMICRON\BUILD\INCLUDE\BOOST\MPL\PLACEHOLDERS.HPP
C:\SAGE\OMICRON\BUILD\INCLUDE\BOOST\MPL\ARG.HPP
C:\SAGE\OMICRON\BUILD\INCLUDE\BOOST\MPL\ARG_FWD.HPP
C:\SAGE\OMICRON\BUILD\INCLUDE\BOOST\MPL\AUX_\NA_ASSERT.HPP
C:\SAGE\OMICRON\BUILD\INCLUDE\BOOST\MPL\AUX_\ARITY_SPEC.HPP
C:\SAGE\OMICRON\BUILD\INCLUDE\BOOST\MPL\AUX_\ARG_TYPEDEF.HPP
C:\SAGE\OMICRON\BUILD\INCLUDE\BOOST\MPL\AUX_\PREPROCESSED\PLAIN\ARG.HPP
C:\SAGE\OMICRON\BUILD\INCLUDE\BOOST\MPL\AUX_\PREPROCESSED\PLAIN\PLACEHOLDERS.HPP
C:\SAGE\OMICRON\BUILD\INCLUDE\BOOST\ITERATOR\DETAIL\CONFIG_UNDEF.HPP
C:\SAGE\OMICRON\BUILD\INCLUDE\BOOST\ITERATOR\ITERATOR_FACADE.HPP
C:\SAGE\OMICRON\BUILD\INCLUDE\BOOST\ITERATOR\INTEROPERABLE.HPP
C:\SAGE\OMICRON\BUILD\INCLUDE\BOOST\ITERATOR\DETAIL\FACADE_ITERATOR_CATEGORY.HPP
C:\SAGE\OMICRON\BUILD\INCLUDE\BOOST\DETAIL\INDIRECT_TRAITS.HPP
C:\SAGE\OMICRON\BUILD\INCLUDE\BOOST\TYPE_TRAITS\IS_MEMBER_FUNCTION_POINTER.HPP
C:\SAGE\OMICRON\BUILD\INCLUDE\BOOST\TYPE_TRAITS\DETAIL\IS_MEM_FUN_POINTER_TESTER.HPP
C:\SAGE\OMICRON\BUILD\INCLUDE\BOOST\TYPE_TRAITS\IS_MEMBER_POINTER.HPP
C:\SAGE\OMICRON\BUILD\INCLUDE\BOOST\ITERATOR\DETAIL\ENABLE_IF.HPP
C:\SAGE\OMICRON\BUILD\INCLUDE\BOOST\UTILITY\ADDRESSOF.HPP
C:\SAGE\OMICRON\BUILD\INCLUDE\BOOST\CORE\ADDRESSOF.HPP
C:\SAGE\OMICRON\BUILD\INCLUDE\BOOST\TYPE_TRAITS\ADD_POINTER.HPP
C:\SAGE\OMICRON\BUILD\INCLUDE\BOOST\TYPE_TRAITS\ADD_LVALUE_REFERENCE.HPP
C:\SAGE\OMICRON\BUILD\INCLUDE\BOOST\TYPE_TRAITS\ADD_REFERENCE.HPP
C:\SAGE\OMICRON\BUILD\INCLUDE\BOOST\TYPE_TRAITS\IS_POD.HPP
C:\SAGE\OMICRON\BUILD\INCLUDE\BOOST\TYPE_TRAITS\IS_SCALAR.HPP
C:\SAGE\OMICRON\BUILD\INCLUDE\BOOST\MPL\ALWAYS.HPP
C:\SAGE\OMICRON\BUILD\INCLUDE\BOOST\MPL\AUX_\PREPROCESSOR\DEFAULT_PARAMS.HPP
C:\SAGE\OMICRON\BUILD\INCLUDE\BOOST\MPL\APPLY.HPP
C:\SAGE\OMICRON\BUILD\INCLUDE\BOOST\MPL\APPLY_FWD.HPP
C:\SAGE\OMICRON\BUILD\INCLUDE\BOOST\MPL\AUX_\PREPROCESSED\PLAIN\APPLY_FWD.HPP
C:\SAGE\OMICRON\BUILD\INCLUDE\BOOST\MPL\APPLY_WRAP.HPP
C:\SAGE\OMICRON\BUILD\INCLUDE\BOOST\MPL\AUX_\HAS_APPLY.HPP
C:\SAGE\OMICRON\BUILD\INCLUDE\BOOST\MPL\AUX_\CONFIG\HAS_APPLY.HPP
C:\SAGE\OMICRON\BUILD\INCLUDE\BOOST\MPL\AUX_\MSVC_NEVER_TRUE.HPP
C:\SAGE\OMICRON\BUILD\INCLUDE\BOOST\MPL\AUX_\PREPROCESSED\PLAIN\APPLY_WRAP.HPP
C:\SAGE\OMICRON\BUILD\INCLUDE\BOOST\MPL\LAMBDA.HPP
C:\SAGE\OMICRON\BUILD\INCLUDE\BOOST\MPL\BIND.HPP
C:\SAGE\OMICRON\BUILD\INCLUDE\BOOST\MPL\BIND_FWD.HPP
C:\SAGE\OMICRON\BUILD\INCLUDE\BOOST\MPL\AUX_\CONFIG\BIND.HPP
C:\SAGE\OMICRON\BUILD\INCLUDE\BOOST\MPL\AUX_\PREPROCESSED\PLAIN\BIND_FWD.HPP
C:\SAGE\OMICRON\BUILD\INCLUDE\BOOST\MPL\NEXT.HPP
C:\SAGE\OMICRON\BUILD\INCLUDE\BOOST\MPL\NEXT_PRIOR.HPP
C:\SAGE\OMICRON\BUILD\INCLUDE\BOOST\MPL\AUX_\COMMON_NAME_WKND.HPP
C:\SAGE\OMICRON\BUILD\INCLUDE\BOOST\MPL\PROTECT.HPP
C:\SAGE\OMICRON\BUILD\INCLUDE\BOOST\MPL\AUX_\PREPROCESSED\PLAIN\BIND.HPP
C:\SAGE\OMICRON\BUILD\INCLUDE\BOOST\MPL\AUX_\FULL_LAMBDA.HPP
C:\SAGE\OMICRON\BUILD\INCLUDE\BOOST\MPL\QUOTE.HPP
C:\SAGE\OMICRON\BUILD\INCLUDE\BOOST\MPL\VOID.HPP
C:\SAGE\OMICRON\BUILD\INCLUDE\BOOST\MPL\AUX_\HAS_TYPE.HPP
C:\SAGE\OMICRON\BUILD\INCLUDE\BOOST\MPL\AUX_\CONFIG\BCC.HPP
C:\SAGE\OMICRON\BUILD\INCLUDE\BOOST\MPL\AUX_\PREPROCESSED\PLAIN\QUOTE.HPP
C:\SAGE\OMICRON\BUILD\INCLUDE\BOOST\MPL\AUX_\TEMPLATE_ARITY.HPP
C:\SAGE\OMICRON\BUILD\INCLUDE\BOOST\MPL\AUX_\PREPROCESSED\PLAIN\TEMPLATE_ARITY.HPP
C:\SAGE\OMICRON\BUILD\INCLUDE\BOOST\MPL\AUX_\PREPROCESSED\PLAIN\FULL_LAMBDA.HPP
C:\SAGE\OMICRON\BUILD\INCLUDE\BOOST\MPL\AUX_\PREPROCESSED\PLAIN\APPLY.HPP
C:\SAGE\OMICRON\BUILD\INCLUDE\BOOST\RANGE\RBEGIN.HPP
C:\SAGE\OMICRON\BUILD\INCLUDE\BOOST\TYPE_TRAITS\IS_ABSTRACT.HPP
C:\SAGE\OMICRON\BUILD\INCLUDE\BOOST\FOREACH_FWD.HPP
C:\SAGE\OMICRON\BUILD\INCLUDE\BOOST\DETAIL\ATOMIC_COUNT.HPP
C:\SAGE\OMICRON\BUILD\INCLUDE\BOOST\SMART_PTR\DETAIL\ATOMIC_COUNT.HPP
C:\SAGE\OMICRON\BUILD\INCLUDE\BOOST\SMART_PTR\DETAIL\SP_HAS_SYNC.HPP
C:\SAGE\OMICRON\BUILD\INCLUDE\BOOST\SMART_PTR\DETAIL\ATOMIC_COUNT_WIN32.HPP
C:\SAGE\OMICRON\BUILD\INCLUDE\BOOST\SMART_PTR\DETAIL\SP_INTERLOCKED.HPP
C:\SAGE\OMICRON\SOURCE\INCLUDE\OMICRON\REF.HPP
C:\SAGE\OMICRON\BUILD\INCLUDE\BOOST\ASSERT.HPP
C:\PROGRAM FILES (X86)\MICROSOFT VISUAL STUDIO 12.0\VC\INCLUDE\ASSERT.H
C:\SAGE\OMICRON\BUILD\INCLUDE\BOOST\SMART_PTR\DETAIL\SP_CONVERTIBLE.HPP
C:\SAGE\OMICRON\BUILD\INCLUDE\BOOST\CONFIG\NO_TR1\FUNCTIONAL.HPP
C:\PROGRAM FILES (X86)\MICROSOFT VISUAL STUDIO 12.0\VC\INCLUDE\FUNCTIONAL
C:\PROGRAM FILES (X86)\MICROSOFT VISUAL STUDIO 12.0\VC\INCLUDE\XFUNCTIONAL
C:\PROGRAM FILES (X86)\MICROSOFT VISUAL STUDIO 12.0\VC\INCLUDE\UNORDERED_MAP
C:\PROGRAM FILES (X86)\MICROSOFT VISUAL STUDIO 12.0\VC\INCLUDE\XHASH
C:\SAGE\OMICRON\SOURCE\INCLUDE\OMICRON\LIBCONFIG\LIBCONFIG.HH
C:\SAGE\OMICRON\SOURCE\INCLUDE\OMICRON\LIBCONFIG\LIBCONFIG.H++
C:\SAGE\OMICRON\SOURCE\INCLUDE\OMICRON\MATH\MATH.H
C:\SAGE\OMICRON\SOURCE\INCLUDE\OMICRON\MATH\PLANE.H
C:\SAGE\OMICRON\SOURCE\INCLUDE\OMICRON\MATH\EIGENWRAPPERS.H
C:\SAGE\OMICRON\BUILD\INCLUDE\EIGEN\CORE
C:\SAGE\OMICRON\BUILD\INCLUDE\EIGEN\SRC\CORE\UTIL\DISABLESTUPIDWARNINGS.H
C:\SAGE\OMICRON\BUILD\INCLUDE\EIGEN\SRC\CORE\UTIL\MACROS.H
C:\PROGRAM FILES (X86)\MICROSOFT VISUAL STUDIO 12.0\VC\INCLUDE\COMPLEX
C:\PROGRAM FILES (X86)\MICROSOFT VISUAL STUDIO 12.0\VC\INCLUDE\CCOMPLEX
C:\PROGRAM FILES (X86)\MICROSOFT VISUAL STUDIO 12.0\VC\INCLUDE\SSTREAM
C:\PROGRAM FILES (X86)\MICROSOFT VISUAL STUDIO 12.0\VC\INCLUDE\XCOMPLEX
C:\SAGE\OMICRON\BUILD\INCLUDE\EIGEN\SRC\CORE\UTIL\MKL_SUPPORT.H
C:\PROGRAM FILES (X86)\MICROSOFT VISUAL STUDIO 12.0\VC\INCLUDE\CASSERT
C:\SAGE\OMICRON\BUILD\INCLUDE\EIGEN\SRC\CORE\UTIL\CONSTANTS.H
C:\SAGE\OMICRON\BUILD\INCLUDE\EIGEN\SRC\CORE\UTIL\FORWARDDECLARATIONS.H
C:\SAGE\OMICRON\BUILD\INCLUDE\EIGEN\SRC\CORE\UTIL\META.H
C:\SAGE\OMICRON\BUILD\INCLUDE\EIGEN\SRC\CORE\UTIL\STATICASSERT.H
C:\SAGE\OMICRON\BUILD\INCLUDE\EIGEN\SRC\CORE\UTIL\XPRHELPER.H
C:\SAGE\OMICRON\BUILD\INCLUDE\EIGEN\SRC\CORE\UTIL\MEMORY.H
C:\SAGE\OMICRON\BUILD\INCLUDE\EIGEN\SRC\CORE\NUMTRAITS.H
C:\SAGE\OMICRON\BUILD\INCLUDE\EIGEN\SRC\CORE\MATHFUNCTIONS.H
C:\SAGE\OMICRON\BUILD\INCLUDE\EIGEN\SRC\CORE\GENERICPACKETMATH.H
C:\SAGE\OMICRON\BUILD\INCLUDE\EIGEN\SRC\CORE\ARCH\DEFAULT\SETTINGS.H
C:\SAGE\OMICRON\BUILD\INCLUDE\EIGEN\SRC\CORE\FUNCTORS.H
C:\SAGE\OMICRON\BUILD\INCLUDE\EIGEN\SRC\CORE\DENSECOEFFSBASE.H
C:\SAGE\OMICRON\BUILD\INCLUDE\EIGEN\SRC\CORE\DENSEBASE.H
C:\SAGE\OMICRON\BUILD\INCLUDE\EIGEN\SRC\PLUGINS\BLOCKMETHODS.H
C:\SAGE\OMICRON\BUILD\INCLUDE\EIGEN\SRC\CORE\MATRIXBASE.H
C:\SAGE\OMICRON\BUILD\INCLUDE\EIGEN\SRC\PLUGINS\COMMONCWISEUNARYOPS.H
C:\SAGE\OMICRON\BUILD\INCLUDE\EIGEN\SRC\PLUGINS\COMMONCWISEBINARYOPS.H
C:\SAGE\OMICRON\BUILD\INCLUDE\EIGEN\SRC\PLUGINS\MATRIXCWISEUNARYOPS.H
C:\SAGE\OMICRON\BUILD\INCLUDE\EIGEN\SRC\PLUGINS\MATRIXCWISEBINARYOPS.H
C:\SAGE\OMICRON\BUILD\INCLUDE\EIGEN\SRC\CORE\EIGENBASE.H
C:\SAGE\OMICRON\BUILD\INCLUDE\EIGEN\SRC\CORE\ASSIGN.H
C:\SAGE\OMICRON\BUILD\INCLUDE\EIGEN\SRC\CORE\UTIL\BLASUTIL.H
C:\SAGE\OMICRON\BUILD\INCLUDE\EIGEN\SRC\CORE\DENSESTORAGE.H
C:\SAGE\OMICRON\BUILD\INCLUDE\EIGEN\SRC\CORE\NESTBYVALUE.H
C:\SAGE\OMICRON\BUILD\INCLUDE\EIGEN\SRC\CORE\FORCEALIGNEDACCESS.H
C:\SAGE\OMICRON\BUILD\INCLUDE\EIGEN\SRC\CORE\RETURNBYVALUE.H
C:\SAGE\OMICRON\BUILD\INCLUDE\EIGEN\SRC\CORE\NOALIAS.H
C:\SAGE\OMICRON\BUILD\INCLUDE\EIGEN\SRC\CORE\PLAINOBJECTBASE.H
C:\SAGE\OMICRON\BUILD\INCLUDE\EIGEN\SRC\CORE\MATRIX.H
C:\SAGE\OMICRON\BUILD\INCLUDE\EIGEN\SRC\CORE\ARRAY.H
C:\SAGE\OMICRON\BUILD\INCLUDE\EIGEN\SRC\CORE\CWISEBINARYOP.H
C:\SAGE\OMICRON\BUILD\INCLUDE\EIGEN\SRC\CORE\CWISEUNARYOP.H
C:\SAGE\OMICRON\BUILD\INCLUDE\EIGEN\SRC\CORE\CWISENULLARYOP.H
C:\SAGE\OMICRON\BUILD\INCLUDE\EIGEN\SRC\CORE\CWISEUNARYVIEW.H
C:\SAGE\OMICRON\BUILD\INCLUDE\EIGEN\SRC\CORE\SELFCWISEBINARYOP.H
C:\SAGE\OMICRON\BUILD\INCLUDE\EIGEN\SRC\CORE\DOT.H
C:\SAGE\OMICRON\BUILD\INCLUDE\EIGEN\SRC\CORE\STABLENORM.H
C:\SAGE\OMICRON\BUILD\INCLUDE\EIGEN\SRC\CORE\MAPBASE.H
C:\SAGE\OMICRON\BUILD\INCLUDE\EIGEN\SRC\CORE\STRIDE.H
C:\SAGE\OMICRON\BUILD\INCLUDE\EIGEN\SRC\CORE\MAP.H
C:\SAGE\OMICRON\BUILD\INCLUDE\EIGEN\SRC\CORE\BLOCK.H
C:\SAGE\OMICRON\BUILD\INCLUDE\EIGEN\SRC\CORE\VECTORBLOCK.H
C:\SAGE\OMICRON\BUILD\INCLUDE\EIGEN\SRC\CORE\REF.H
C:\SAGE\OMICRON\BUILD\INCLUDE\EIGEN\SRC\CORE\TRANSPOSE.H
C:\SAGE\OMICRON\BUILD\INCLUDE\EIGEN\SRC\CORE\DIAGONALMATRIX.H
C:\SAGE\OMICRON\BUILD\INCLUDE\EIGEN\SRC\CORE\DIAGONAL.H
C:\SAGE\OMICRON\BUILD\INCLUDE\EIGEN\SRC\CORE\DIAGONALPRODUCT.H
C:\SAGE\OMICRON\BUILD\INCLUDE\EIGEN\SRC\CORE\PERMUTATIONMATRIX.H
C:\SAGE\OMICRON\BUILD\INCLUDE\EIGEN\SRC\CORE\TRANSPOSITIONS.H
C:\SAGE\OMICRON\BUILD\INCLUDE\EIGEN\SRC\CORE\REDUX.H
C:\SAGE\OMICRON\BUILD\INCLUDE\EIGEN\SRC\CORE\VISITOR.H
C:\SAGE\OMICRON\BUILD\INCLUDE\EIGEN\SRC\CORE\FUZZY.H
C:\SAGE\OMICRON\BUILD\INCLUDE\EIGEN\SRC\CORE\IO.H
C:\SAGE\OMICRON\BUILD\INCLUDE\EIGEN\SRC\CORE\SWAP.H
C:\SAGE\OMICRON\BUILD\INCLUDE\EIGEN\SRC\CORE\COMMAINITIALIZER.H
C:\SAGE\OMICRON\BUILD\INCLUDE\EIGEN\SRC\CORE\FLAGGED.H
C:\SAGE\OMICRON\BUILD\INCLUDE\EIGEN\SRC\CORE\PRODUCTBASE.H
C:\SAGE\OMICRON\BUILD\INCLUDE\EIGEN\SRC\CORE\GENERALPRODUCT.H
C:\SAGE\OMICRON\BUILD\INCLUDE\EIGEN\SRC\CORE\TRIANGULARMATRIX.H
C:\SAGE\OMICRON\BUILD\INCLUDE\EIGEN\SRC\CORE\SELFADJOINTVIEW.H
C:\SAGE\OMICRON\BUILD\INCLUDE\EIGEN\SRC\CORE\PRODUCTS\GENERALBLOCKPANELKERNEL.H
C:\SAGE\OMICRON\BUILD\INCLUDE\EIGEN\SRC\CORE\PRODUCTS\PARALLELIZER.H
C:\SAGE\OMICRON\BUILD\INCLUDE\EIGEN\SRC\CORE\PRODUCTS\COEFFBASEDPRODUCT.H
C:\SAGE\OMICRON\BUILD\INCLUDE\EIGEN\SRC\CORE\PRODUCTS\GENERALMATRIXVECTOR.H
C:\SAGE\OMICRON\BUILD\INCLUDE\EIGEN\SRC\CORE\PRODUCTS\GENERALMATRIXMATRIX.H
C:\SAGE\OMICRON\BUILD\INCLUDE\EIGEN\SRC\CORE\SOLVETRIANGULAR.H
C:\SAGE\OMICRON\BUILD\INCLUDE\EIGEN\SRC\CORE\PRODUCTS\GENERALMATRIXMATRIXTRIANGULAR.H
C:\SAGE\OMICRON\BUILD\INCLUDE\EIGEN\SRC\CORE\PRODUCTS\SELFADJOINTMATRIXVECTOR.H
C:\SAGE\OMICRON\BUILD\INCLUDE\EIGEN\SRC\CORE\PRODUCTS\SELFADJOINTMATRIXMATRIX.H
C:\SAGE\OMICRON\BUILD\INCLUDE\EIGEN\SRC\CORE\PRODUCTS\SELFADJOINTPRODUCT.H
C:\SAGE\OMICRON\BUILD\INCLUDE\EIGEN\SRC\CORE\PRODUCTS\SELFADJOINTRANK2UPDATE.H
C:\SAGE\OMICRON\BUILD\INCLUDE\EIGEN\SRC\CORE\PRODUCTS\TRIANGULARMATRIXVECTOR.H
C:\SAGE\OMICRON\BUILD\INCLUDE\EIGEN\SRC\CORE\PRODUCTS\TRIANGULARMATRIXMATRIX.H
C:\SAGE\OMICRON\BUILD\INCLUDE\EIGEN\SRC\CORE\PRODUCTS\TRIANGULARSOLVERMATRIX.H
C:\SAGE\OMICRON\BUILD\INCLUDE\EIGEN\SRC\CORE\PRODUCTS\TRIANGULARSOLVERVECTOR.H
C:\SAGE\OMICRON\BUILD\INCLUDE\EIGEN\SRC\CORE\BANDMATRIX.H
C:\SAGE\OMICRON\BUILD\INCLUDE\EIGEN\SRC\CORE\COREITERATORS.H
C:\SAGE\OMICRON\BUILD\INCLUDE\EIGEN\SRC\CORE\BOOLEANREDUX.H
C:\SAGE\OMICRON\BUILD\INCLUDE\EIGEN\SRC\CORE\SELECT.H
C:\SAGE\OMICRON\BUILD\INCLUDE\EIGEN\SRC\CORE\VECTORWISEOP.H
C:\SAGE\OMICRON\BUILD\INCLUDE\EIGEN\SRC\CORE\RANDOM.H
C:\SAGE\OMICRON\BUILD\INCLUDE\EIGEN\SRC\CORE\REPLICATE.H
C:\SAGE\OMICRON\BUILD\INCLUDE\EIGEN\SRC\CORE\REVERSE.H
C:\SAGE\OMICRON\BUILD\INCLUDE\EIGEN\SRC\CORE\ARRAYBASE.H
C:\SAGE\OMICRON\BUILD\INCLUDE\EIGEN\SRC\PLUGINS\ARRAYCWISEUNARYOPS.H
C:\SAGE\OMICRON\BUILD\INCLUDE\EIGEN\SRC\PLUGINS\ARRAYCWISEBINARYOPS.H
C:\SAGE\OMICRON\BUILD\INCLUDE\EIGEN\SRC\CORE\ARRAYWRAPPER.H
C:\SAGE\OMICRON\BUILD\INCLUDE\EIGEN\SRC\CORE\GLOBALFUNCTIONS.H
C:\SAGE\OMICRON\BUILD\INCLUDE\EIGEN\SRC\CORE\UTIL\REENABLESTUPIDWARNINGS.H
C:\SAGE\OMICRON\BUILD\INCLUDE\EIGEN\GEOMETRY
C:\SAGE\OMICRON\BUILD\INCLUDE\EIGEN\SVD
C:\SAGE\OMICRON\BUILD\INCLUDE\EIGEN\QR
C:\SAGE\OMICRON\BUILD\INCLUDE\EIGEN\CHOLESKY
C:\SAGE\OMICRON\BUILD\INCLUDE\EIGEN\SRC\MISC\SOLVE.H
C:\SAGE\OMICRON\BUILD\INCLUDE\EIGEN\SRC\CHOLESKY\LLT.H
C:\SAGE\OMICRON\BUILD\INCLUDE\EIGEN\SRC\CHOLESKY\LDLT.H
C:\SAGE\OMICRON\BUILD\INCLUDE\EIGEN\JACOBI
C:\SAGE\OMICRON\BUILD\INCLUDE\EIGEN\SRC\JACOBI\JACOBI.H
C:\SAGE\OMICRON\BUILD\INCLUDE\EIGEN\HOUSEHOLDER
C:\SAGE\OMICRON\BUILD\INCLUDE\EIGEN\SRC\HOUSEHOLDER\HOUSEHOLDER.H
C:\SAGE\OMICRON\BUILD\INCLUDE\EIGEN\SRC\HOUSEHOLDER\HOUSEHOLDERSEQUENCE.H
C:\SAGE\OMICRON\BUILD\INCLUDE\EIGEN\SRC\HOUSEHOLDER\BLOCKHOUSEHOLDER.H
C:\SAGE\OMICRON\BUILD\INCLUDE\EIGEN\SRC\QR\HOUSEHOLDERQR.H
C:\SAGE\OMICRON\BUILD\INCLUDE\EIGEN\SRC\QR\FULLPIVHOUSEHOLDERQR.H
C:\SAGE\OMICRON\BUILD\INCLUDE\EIGEN\SRC\QR\COLPIVHOUSEHOLDERQR.H
C:\SAGE\OMICRON\BUILD\INCLUDE\EIGEN\SRC\SVD\JACOBISVD.H
C:\SAGE\OMICRON\BUILD\INCLUDE\EIGEN\SRC\SVD\UPPERBIDIAGONALIZATION.H
C:\SAGE\OMICRON\BUILD\INCLUDE\EIGEN\LU
C:\SAGE\OMICRON\BUILD\INCLUDE\EIGEN\SRC\MISC\KERNEL.H
C:\SAGE\OMICRON\BUILD\INCLUDE\EIGEN\SRC\MISC\IMAGE.H
C:\SAGE\OMICRON\BUILD\INCLUDE\EIGEN\SRC\LU\FULLPIVLU.H
C:\SAGE\OMICRON\BUILD\INCLUDE\EIGEN\SRC\LU\PARTIALPIVLU.H
C:\SAGE\OMICRON\BUILD\INCLUDE\EIGEN\SRC\LU\DETERMINANT.H
C:\SAGE\OMICRON\BUILD\INCLUDE\EIGEN\SRC\LU\INVERSE.H
C:\SAGE\OMICRON\BUILD\INCLUDE\EIGEN\SRC\GEOMETRY\ORTHOMETHODS.H
C:\SAGE\OMICRON\BUILD\INCLUDE\EIGEN\SRC\GEOMETRY\EULERANGLES.H
C:\SAGE\OMICRON\BUILD\INCLUDE\EIGEN\SRC\GEOMETRY\HOMOGENEOUS.H
C:\SAGE\OMICRON\BUILD\INCLUDE\EIGEN\SRC\GEOMETRY\ROTATIONBASE.H
C:\SAGE\OMICRON\BUILD\INCLUDE\EIGEN\SRC\GEOMETRY\ROTATION2D.H
C:\SAGE\OMICRON\BUILD\INCLUDE\EIGEN\SRC\GEOMETRY\QUATERNION.H
C:\SAGE\OMICRON\BUILD\INCLUDE\EIGEN\SRC\GEOMETRY\ANGLEAXIS.H
C:\SAGE\OMICRON\BUILD\INCLUDE\EIGEN\SRC\GEOMETRY\TRANSFORM.H
C:\SAGE\OMICRON\BUILD\INCLUDE\EIGEN\SRC\GEOMETRY\TRANSLATION.H
C:\SAGE\OMICRON\BUILD\INCLUDE\EIGEN\SRC\GEOMETRY\SCALING.H
C:\SAGE\OMICRON\BUILD\INCLUDE\EIGEN\SRC\GEOMETRY\HYPERPLANE.H
C:\SAGE\OMICRON\BUILD\INCLUDE\EIGEN\SRC\GEOMETRY\PARAMETRIZEDLINE.H
C:\SAGE\OMICRON\BUILD\INCLUDE\EIGEN\SRC\GEOMETRY\ALIGNEDBOX.H
C:\SAGE\OMICRON\BUILD\INCLUDE\EIGEN\SRC\GEOMETRY\UMEYAMA.H
C:\SAGE\OMICRON\SOURCE\INCLUDE\OMICRON\MATH\RAY.H
C:\SAGE\OMICRON\SOURCE\INCLUDE\OMICRON\MATH\PLANEBOUNDEDVOLUME.H
C:\SAGE\OMICRON\SOURCE\INCLUDE\OMICRON\MATH\ALIGNEDBOX.H
C:\SAGE\OMICRON\SOURCE\INCLUDE\OMICRON\MATH\SPHERE.H
C:\SAGE\OMICRON\SOURCE\INCLUDE\OMICRON\ASSETCACHEMANAGER.H
C:\SAGE\OMICRON\SOURCE\INCLUDE\OMICRON\THREAD.H
C:\SAGE\OMICRON\SOURCE\INCLUDE\OMICRON\ASSETCACHESERVICE.H
C:\SAGE\OMICRON\SOURCE\INCLUDE\OMICRON\TCP.H
C:\SAGE\OMICRON\SOURCE\INCLUDE\OMICRON\SERVICE.H
C:\SAGE\OMICRON\SOURCE\INCLUDE\CONNECTOR\OMICRONCONNECTORCLIENT.H
C:\PROGRAM FILES (X86)\WINDOWS KITS\8.1\INCLUDE\UM\WINDOWS.H
C:\PROGRAM FILES (X86)\WINDOWS KITS\8.1\INCLUDE\SHARED\WINAPIFAMILY.H
C:\PROGRAM FILES (X86)\WINDOWS KITS\8.1\INCLUDE\SHARED\SDKDDKVER.H
C:\PROGRAM FILES (X86)\MICROSOFT VISUAL STUDIO 12.0\VC\INCLUDE\EXCPT.H
C:\PROGRAM FILES (X86)\MICROSOFT VISUAL STUDIO 12.0\VC\INCLUDE\STDARG.H
C:\PROGRAM FILES (X86)\WINDOWS KITS\8.1\INCLUDE\SHARED\WINDEF.H
C:\PROGRAM FILES (X86)\WINDOWS KITS\8.1\INCLUDE\SHARED\MINWINDEF.H
C:\PROGRAM FILES (X86)\WINDOWS KITS\8.1\INCLUDE\SHARED\SPECSTRINGS.H
C:\PROGRAM FILES (X86)\WINDOWS KITS\8.1\INCLUDE\SHARED\SPECSTRINGS_STRICT.H
C:\PROGRAM FILES (X86)\WINDOWS KITS\8.1\INCLUDE\SHARED\SPECSTRINGS_UNDEF.H
C:\PROGRAM FILES (X86)\WINDOWS KITS\8.1\INCLUDE\SHARED\DRIVERSPECS.H
C:\PROGRAM FILES (X86)\WINDOWS KITS\8.1\INCLUDE\SHARED\SDV_DRIVERSPECS.H
C:\PROGRAM FILES (X86)\WINDOWS KITS\8.1\INCLUDE\UM\WINNT.H
C:\PROGRAM FILES (X86)\WINDOWS KITS\8.1\INCLUDE\SHARED\KERNELSPECS.H
C:\PROGRAM FILES (X86)\WINDOWS KITS\8.1\INCLUDE\SHARED\BASETSD.H
C:\PROGRAM FILES (X86)\WINDOWS KITS\8.1\INCLUDE\SHARED\GUIDDEF.H
C:\PROGRAM FILES (X86)\WINDOWS KITS\8.1\INCLUDE\SHARED\PSHPACK4.H
C:\PROGRAM FILES (X86)\WINDOWS KITS\8.1\INCLUDE\SHARED\POPPACK.H
C:\PROGRAM FILES (X86)\WINDOWS KITS\8.1\INCLUDE\SHARED\PSHPACK2.H
C:\PROGRAM FILES (X86)\WINDOWS KITS\8.1\INCLUDE\SHARED\PSHPACK8.H
C:\PROGRAM FILES (X86)\WINDOWS KITS\8.1\INCLUDE\SHARED\APISET.H
C:\PROGRAM FILES (X86)\WINDOWS KITS\8.1\INCLUDE\SHARED\KTMTYPES.H
C:\PROGRAM FILES (X86)\WINDOWS KITS\8.1\INCLUDE\UM\WINBASE.H
C:\PROGRAM FILES (X86)\WINDOWS KITS\8.1\INCLUDE\SHARED\APISETCCONV.H
C:\PROGRAM FILES (X86)\WINDOWS KITS\8.1\INCLUDE\UM\MINWINBASE.H
C:\PROGRAM FILES (X86)\WINDOWS KITS\8.1\INCLUDE\UM\PROCESSENV.H
C:\PROGRAM FILES (X86)\WINDOWS KITS\8.1\INCLUDE\UM\FILEAPI.H
C:\PROGRAM FILES (X86)\WINDOWS KITS\8.1\INCLUDE\UM\DEBUGAPI.H
C:\PROGRAM FILES (X86)\WINDOWS KITS\8.1\INCLUDE\UM\UTILAPISET.H
C:\PROGRAM FILES (X86)\WINDOWS KITS\8.1\INCLUDE\UM\HANDLEAPI.H
C:\PROGRAM FILES (X86)\WINDOWS KITS\8.1\INCLUDE\UM\ERRHANDLINGAPI.H
C:\PROGRAM FILES (X86)\WINDOWS KITS\8.1\INCLUDE\UM\FIBERSAPI.H
C:\PROGRAM FILES (X86)\WINDOWS KITS\8.1\INCLUDE\UM\NAMEDPIPEAPI.H
C:\PROGRAM FILES (X86)\WINDOWS KITS\8.1\INCLUDE\UM\PROFILEAPI.H
C:\PROGRAM FILES (X86)\WINDOWS KITS\8.1\INCLUDE\UM\HEAPAPI.H
C:\PROGRAM FILES (X86)\WINDOWS KITS\8.1\INCLUDE\UM\IOAPISET.H
C:\PROGRAM FILES (X86)\WINDOWS KITS\8.1\INCLUDE\UM\SYNCHAPI.H
C:\PROGRAM FILES (X86)\WINDOWS KITS\8.1\INCLUDE\UM\INTERLOCKEDAPI.H
C:\PROGRAM FILES (X86)\WINDOWS KITS\8.1\INCLUDE\UM\PROCESSTHREADSAPI.H
C:\PROGRAM FILES (X86)\WINDOWS KITS\8.1\INCLUDE\UM\SYSINFOAPI.H
C:\PROGRAM FILES (X86)\WINDOWS KITS\8.1\INCLUDE\UM\MEMORYAPI.H
C:\PROGRAM FILES (X86)\WINDOWS KITS\8.1\INCLUDE\UM\THREADPOOLLEGACYAPISET.H
C:\PROGRAM FILES (X86)\WINDOWS KITS\8.1\INCLUDE\UM\THREADPOOLAPISET.H
C:\PROGRAM FILES (X86)\WINDOWS KITS\8.1\INCLUDE\UM\BEMAPISET.H
C:\PROGRAM FILES (X86)\WINDOWS KITS\8.1\INCLUDE\UM\JOBAPI.H
C:\PROGRAM FILES (X86)\WINDOWS KITS\8.1\INCLUDE\UM\WOW64APISET.H
C:\PROGRAM FILES (X86)\WINDOWS KITS\8.1\INCLUDE\UM\LIBLOADERAPI.H
C:\PROGRAM FILES (X86)\WINDOWS KITS\8.1\INCLUDE\UM\SECURITYBASEAPI.H
C:\PROGRAM FILES (X86)\WINDOWS KITS\8.1\INCLUDE\UM\NAMESPACEAPI.H
C:\PROGRAM FILES (X86)\WINDOWS KITS\8.1\INCLUDE\UM\SYSTEMTOPOLOGYAPI.H
C:\PROGRAM FILES (X86)\WINDOWS KITS\8.1\INCLUDE\UM\PROCESSTOPOLOGYAPI.H
C:\PROGRAM FILES (X86)\WINDOWS KITS\8.1\INCLUDE\UM\SECURITYAPPCONTAINER.H
C:\PROGRAM FILES (X86)\WINDOWS KITS\8.1\INCLUDE\UM\REALTIMEAPISET.H
C:\PROGRAM FILES (X86)\WINDOWS KITS\8.1\INCLUDE\SHARED\WINERROR.H
C:\PROGRAM FILES (X86)\WINDOWS KITS\8.1\INCLUDE\UM\TIMEZONEAPI.H
C:\PROGRAM FILES (X86)\WINDOWS KITS\8.1\INCLUDE\UM\WINGDI.H
C:\PROGRAM FILES (X86)\WINDOWS KITS\8.1\INCLUDE\SHARED\PSHPACK1.H
C:\PROGRAM FILES (X86)\WINDOWS KITS\8.1\INCLUDE\UM\WINUSER.H
C:\PROGRAM FILES (X86)\WINDOWS KITS\8.1\INCLUDE\SHARED\TVOUT.H
C:\PROGRAM FILES (X86)\WINDOWS KITS\8.1\INCLUDE\UM\WINNLS.H
C:\PROGRAM FILES (X86)\WINDOWS KITS\8.1\INCLUDE\UM\DATETIMEAPI.H
C:\PROGRAM FILES (X86)\WINDOWS KITS\8.1\INCLUDE\UM\STRINGAPISET.H
C:\PROGRAM FILES (X86)\WINDOWS KITS\8.1\INCLUDE\UM\WINCON.H
C:\PROGRAM FILES (X86)\WINDOWS KITS\8.1\INCLUDE\UM\CONSOLEAPI.H
C:\PROGRAM FILES (X86)\WINDOWS KITS\8.1\INCLUDE\UM\WINVER.H
C:\PROGRAM FILES (X86)\WINDOWS KITS\8.1\INCLUDE\UM\VERRSRC.H
C:\PROGRAM FILES (X86)\WINDOWS KITS\8.1\INCLUDE\UM\WINREG.H
C:\PROGRAM FILES (X86)\WINDOWS KITS\8.1\INCLUDE\UM\REASON.H
C:\PROGRAM FILES (X86)\WINDOWS KITS\8.1\INCLUDE\UM\WINNETWK.H
C:\PROGRAM FILES (X86)\WINDOWS KITS\8.1\INCLUDE\SHARED\WNNC.H
C:\PROGRAM FILES (X86)\WINDOWS KITS\8.1\INCLUDE\SHARED\STRALIGN.H
C:\PROGRAM FILES (X86)\WINDOWS KITS\8.1\INCLUDE\UM\WINSVC.H
C:\PROGRAM FILES (X86)\WINDOWS KITS\8.1\INCLUDE\UM\MCX.H
C:\PROGRAM FILES (X86)\WINDOWS KITS\8.1\INCLUDE\UM\IMM.H
C:\PROGRAM FILES (X86)\WINDOWS KITS\8.1\INCLUDE\UM\IME_CMODES.H
C:\SAGE\OMICRON\BUILD\INCLUDE\ASIO.HPP
C:\SAGE\OMICRON\BUILD\INCLUDE\ASIO\BASIC_DATAGRAM_SOCKET.HPP
C:\SAGE\OMICRON\BUILD\INCLUDE\ASIO\DETAIL\CONFIG.HPP
C:\SAGE\OMICRON\BUILD\INCLUDE\ASIO\BASIC_SOCKET.HPP
C:\SAGE\OMICRON\BUILD\INCLUDE\ASIO\BASIC_IO_OBJECT.HPP
C:\SAGE\OMICRON\BUILD\INCLUDE\ASIO\IO_SERVICE.HPP
C:\SAGE\OMICRON\BUILD\INCLUDE\ASIO\DETAIL\NONCOPYABLE.HPP
C:\SAGE\OMICRON\BUILD\INCLUDE\ASIO\DETAIL\PUSH_OPTIONS.HPP
C:\SAGE\OMICRON\BUILD\INCLUDE\ASIO\DETAIL\POP_OPTIONS.HPP
C:\SAGE\OMICRON\BUILD\INCLUDE\ASIO\DETAIL\SERVICE_REGISTRY_FWD.HPP
C:\SAGE\OMICRON\BUILD\INCLUDE\ASIO\DETAIL\WRAPPED_HANDLER.HPP
C:\SAGE\OMICRON\BUILD\INCLUDE\ASIO\DETAIL\BIND_HANDLER.HPP
C:\SAGE\OMICRON\BUILD\INCLUDE\ASIO\DETAIL\HANDLER_ALLOC_HELPERS.HPP
C:\SAGE\OMICRON\BUILD\INCLUDE\ASIO\HANDLER_ALLOC_HOOK.HPP
C:\SAGE\OMICRON\BUILD\INCLUDE\ASIO\DETAIL\HANDLER_INVOKE_HELPERS.HPP
C:\SAGE\OMICRON\BUILD\INCLUDE\ASIO\HANDLER_INVOKE_HOOK.HPP
C:\SAGE\OMICRON\BUILD\INCLUDE\ASIO\ERROR_CODE.HPP
C:\SAGE\OMICRON\BUILD\INCLUDE\ASIO\IMPL\ERROR_CODE.IPP
C:\SAGE\OMICRON\BUILD\INCLUDE\ASIO\DETAIL\LOCAL_FREE_ON_BLOCK_EXIT.HPP
C:\SAGE\OMICRON\BUILD\INCLUDE\ASIO\DETAIL\SOCKET_TYPES.HPP
C:\PROGRAM FILES (X86)\WINDOWS KITS\8.1\INCLUDE\UM\WINSOCK2.H
C:\PROGRAM FILES (X86)\WINDOWS KITS\8.1\INCLUDE\SHARED\WS2DEF.H
C:\PROGRAM FILES (X86)\WINDOWS KITS\8.1\INCLUDE\SHARED\INADDR.H
C:\PROGRAM FILES (X86)\WINDOWS KITS\8.1\INCLUDE\SHARED\QOS.H
C:\PROGRAM FILES (X86)\WINDOWS KITS\8.1\INCLUDE\UM\WS2TCPIP.H
C:\PROGRAM FILES (X86)\WINDOWS KITS\8.1\INCLUDE\SHARED\WS2IPDEF.H
C:\PROGRAM FILES (X86)\WINDOWS KITS\8.1\INCLUDE\SHARED\IN6ADDR.H
C:\PROGRAM FILES (X86)\WINDOWS KITS\8.1\INCLUDE\UM\MSWSOCK.H
C:\PROGRAM FILES (X86)\WINDOWS KITS\8.1\INCLUDE\SHARED\MSWSOCKDEF.H
C:\SAGE\OMICRON\BUILD\INCLUDE\ASIO\DETAIL\OLD_WIN_SDK_COMPAT.HPP
C:\SAGE\OMICRON\BUILD\INCLUDE\ASIO\DETAIL\WIN_IOCP_IO_SERVICE_FWD.HPP
C:\SAGE\OMICRON\BUILD\INCLUDE\ASIO\DETAIL\WINSOCK_INIT.HPP
C:\SAGE\OMICRON\BUILD\INCLUDE\ASIO\DETAIL\IMPL\WINSOCK_INIT.IPP
C:\SAGE\OMICRON\BUILD\INCLUDE\ASIO\DETAIL\THROW_ERROR.HPP
C:\SAGE\OMICRON\BUILD\INCLUDE\ASIO\DETAIL\IMPL\THROW_ERROR.IPP
C:\SAGE\OMICRON\BUILD\INCLUDE\BOOST\THROW_EXCEPTION.HPP
C:\SAGE\OMICRON\BUILD\INCLUDE\BOOST\EXCEPTION\EXCEPTION.HPP
C:\SAGE\OMICRON\BUILD\INCLUDE\BOOST\CURRENT_FUNCTION.HPP
C:\SAGE\OMICRON\BUILD\INCLUDE\ASIO\SYSTEM_ERROR.HPP
C:\SAGE\OMICRON\BUILD\INCLUDE\ASIO\DETAIL\SCOPED_PTR.HPP
C:\SAGE\OMICRON\BUILD\INCLUDE\ASIO\ERROR.HPP
C:\SAGE\OMICRON\BUILD\INCLUDE\ASIO\IMPL\ERROR.IPP
C:\SAGE\OMICRON\BUILD\INCLUDE\ASIO\IMPL\IO_SERVICE.HPP
C:\SAGE\OMICRON\BUILD\INCLUDE\ASIO\DETAIL\HANDLER_TYPE_REQUIREMENTS.HPP
C:\SAGE\OMICRON\BUILD\INCLUDE\ASIO\DETAIL\SERVICE_REGISTRY.HPP
C:\SAGE\OMICRON\BUILD\INCLUDE\ASIO\DETAIL\MUTEX.HPP
C:\SAGE\OMICRON\BUILD\INCLUDE\ASIO\DETAIL\WIN_MUTEX.HPP
C:\SAGE\OMICRON\BUILD\INCLUDE\ASIO\DETAIL\SCOPED_LOCK.HPP
C:\SAGE\OMICRON\BUILD\INCLUDE\ASIO\DETAIL\IMPL\WIN_MUTEX.IPP
C:\SAGE\OMICRON\BUILD\INCLUDE\ASIO\DETAIL\IMPL\SERVICE_REGISTRY.HPP
C:\SAGE\OMICRON\BUILD\INCLUDE\ASIO\DETAIL\IMPL\SERVICE_REGISTRY.IPP
C:\SAGE\OMICRON\BUILD\INCLUDE\ASIO\DETAIL\WIN_IOCP_IO_SERVICE.HPP
C:\SAGE\OMICRON\BUILD\INCLUDE\BOOST\LIMITS.HPP
C:\SAGE\OMICRON\BUILD\INCLUDE\ASIO\DETAIL\OP_QUEUE.HPP
C:\SAGE\OMICRON\BUILD\INCLUDE\ASIO\DETAIL\TIMER_OP.HPP
C:\SAGE\OMICRON\BUILD\INCLUDE\ASIO\DETAIL\OPERATION.HPP
C:\SAGE\OMICRON\BUILD\INCLUDE\ASIO\DETAIL\WIN_IOCP_OPERATION.HPP
C:\SAGE\OMICRON\BUILD\INCLUDE\ASIO\DETAIL\HANDLER_TRACKING.HPP
C:\SAGE\OMICRON\BUILD\INCLUDE\ASIO\DETAIL\IMPL\HANDLER_TRACKING.IPP
C:\SAGE\OMICRON\BUILD\INCLUDE\ASIO\DETAIL\TIMER_QUEUE_BASE.HPP
C:\SAGE\OMICRON\BUILD\INCLUDE\ASIO\DETAIL\TIMER_QUEUE_FWD.HPP
C:\SAGE\OMICRON\BUILD\INCLUDE\ASIO\DETAIL\TIMER_QUEUE_SET.HPP
C:\SAGE\OMICRON\BUILD\INCLUDE\ASIO\DETAIL\IMPL\TIMER_QUEUE_SET.IPP
C:\SAGE\OMICRON\BUILD\INCLUDE\ASIO\DETAIL\THREAD.HPP
C:\SAGE\OMICRON\BUILD\INCLUDE\ASIO\DETAIL\WIN_THREAD.HPP
C:\SAGE\OMICRON\BUILD\INCLUDE\ASIO\DETAIL\IMPL\WIN_THREAD.IPP
C:\PROGRAM FILES (X86)\MICROSOFT VISUAL STUDIO 12.0\VC\INCLUDE\PROCESS.H
C:\SAGE\OMICRON\BUILD\INCLUDE\ASIO\DETAIL\IMPL\WIN_IOCP_IO_SERVICE.HPP
C:\SAGE\OMICRON\BUILD\INCLUDE\ASIO\DETAIL\CALL_STACK.HPP
C:\SAGE\OMICRON\BUILD\INCLUDE\ASIO\DETAIL\TSS_PTR.HPP
C:\SAGE\OMICRON\BUILD\INCLUDE\ASIO\DETAIL\WIN_TSS_PTR.HPP
C:\SAGE\OMICRON\BUILD\INCLUDE\ASIO\DETAIL\IMPL\WIN_TSS_PTR.IPP
C:\SAGE\OMICRON\BUILD\INCLUDE\ASIO\DETAIL\COMPLETION_HANDLER.HPP
C:\SAGE\OMICRON\BUILD\INCLUDE\ASIO\DETAIL\FENCED_BLOCK.HPP
C:\SAGE\OMICRON\BUILD\INCLUDE\ASIO\DETAIL\WIN_FENCED_BLOCK.HPP
C:\SAGE\OMICRON\BUILD\INCLUDE\ASIO\DETAIL\IMPL\WIN_IOCP_IO_SERVICE.IPP
C:\SAGE\OMICRON\BUILD\INCLUDE\ASIO\IMPL\IO_SERVICE.IPP
C:\SAGE\OMICRON\BUILD\INCLUDE\ASIO\SOCKET_BASE.HPP
C:\SAGE\OMICRON\BUILD\INCLUDE\ASIO\DETAIL\IO_CONTROL.HPP
C:\SAGE\OMICRON\BUILD\INCLUDE\ASIO\DETAIL\SOCKET_OPTION.HPP
C:\SAGE\OMICRON\BUILD\INCLUDE\ASIO\DATAGRAM_SOCKET_SERVICE.HPP
C:\SAGE\OMICRON\BUILD\INCLUDE\ASIO\DETAIL\WIN_IOCP_SOCKET_SERVICE.HPP
C:\SAGE\OMICRON\BUILD\INCLUDE\ASIO\DETAIL\BUFFER_SEQUENCE_ADAPTER.HPP
C:\SAGE\OMICRON\BUILD\INCLUDE\ASIO\BUFFER.HPP
C:\SAGE\OMICRON\BUILD\INCLUDE\ASIO\DETAIL\ARRAY_FWD.HPP
C:\PROGRAM FILES (X86)\MICROSOFT VISUAL STUDIO 12.0\VC\INCLUDE\ARRAY
C:\SAGE\OMICRON\BUILD\INCLUDE\BOOST\FUNCTION.HPP
C:\SAGE\OMICRON\BUILD\INCLUDE\BOOST\PREPROCESSOR\ITERATE.HPP
C:\SAGE\OMICRON\BUILD\INCLUDE\BOOST\PREPROCESSOR\ITERATION\ITERATE.HPP
C:\SAGE\OMICRON\BUILD\INCLUDE\BOOST\PREPROCESSOR\SLOT\SLOT.HPP
C:\SAGE\OMICRON\BUILD\INCLUDE\BOOST\PREPROCESSOR\SLOT\DETAIL\DEF.HPP
C:\SAGE\OMICRON\BUILD\INCLUDE\BOOST\FUNCTION\DETAIL\PROLOGUE.HPP
C:\SAGE\OMICRON\BUILD\INCLUDE\BOOST\FUNCTION\FUNCTION_BASE.HPP
C:\PROGRAM FILES (X86)\MICROSOFT VISUAL STUDIO 12.0\VC\INCLUDE\MEMORY
C:\PROGRAM FILES (X86)\MICROSOFT VISUAL STUDIO 12.0\VC\INCLUDE\STDINT.H
C:\SAGE\OMICRON\BUILD\INCLUDE\BOOST\DETAIL\SP_TYPEINFO.HPP
C:\SAGE\OMICRON\BUILD\INCLUDE\BOOST\CORE\TYPEINFO.HPP
C:\SAGE\OMICRON\BUILD\INCLUDE\BOOST\CORE\DEMANGLE.HPP
C:\SAGE\OMICRON\BUILD\INCLUDE\BOOST\INTEGER.HPP
C:\SAGE\OMICRON\BUILD\INCLUDE\BOOST\INTEGER_FWD.HPP
C:\SAGE\OMICRON\BUILD\INCLUDE\BOOST\CSTDINT.HPP
C:\SAGE\OMICRON\BUILD\INCLUDE\BOOST\INTEGER_TRAITS.HPP
C:\SAGE\OMICRON\BUILD\INCLUDE\BOOST\TYPE_TRAITS\HAS_TRIVIAL_COPY.HPP
C:\SAGE\OMICRON\BUILD\INCLUDE\BOOST\TYPE_TRAITS\HAS_TRIVIAL_DESTRUCTOR.HPP
C:\SAGE\OMICRON\BUILD\INCLUDE\BOOST\TYPE_TRAITS\COMPOSITE_TRAITS.HPP
C:\SAGE\OMICRON\BUILD\INCLUDE\BOOST\TYPE_TRAITS\IS_UNION.HPP
C:\SAGE\OMICRON\BUILD\INCLUDE\BOOST\REF.HPP
C:\SAGE\OMICRON\BUILD\INCLUDE\BOOST\CORE\REF.HPP
C:\SAGE\OMICRON\BUILD\INCLUDE\BOOST\TYPE_TRAITS\ALIGNMENT_OF.HPP
C:\SAGE\OMICRON\BUILD\INCLUDE\BOOST\UTILITY\ENABLE_IF.HPP
C:\SAGE\OMICRON\BUILD\INCLUDE\BOOST\CORE\ENABLE_IF.HPP
C:\SAGE\OMICRON\BUILD\INCLUDE\BOOST\FUNCTION_EQUAL.HPP
C:\SAGE\OMICRON\BUILD\INCLUDE\BOOST\FUNCTION\FUNCTION_FWD.HPP
C:\SAGE\OMICRON\BUILD\INCLUDE\BOOST\MEM_FN.HPP
C:\SAGE\OMICRON\BUILD\INCLUDE\BOOST\BIND\MEM_FN.HPP
C:\SAGE\OMICRON\BUILD\INCLUDE\BOOST\GET_POINTER.HPP
C:\SAGE\OMICRON\BUILD\INCLUDE\BOOST\CONFIG\NO_TR1\MEMORY.HPP
C:\SAGE\OMICRON\BUILD\INCLUDE\BOOST\BIND\MEM_FN_TEMPLATE.HPP
C:\SAGE\OMICRON\BUILD\INCLUDE\BOOST\BIND\MEM_FN_CC.HPP
C:\SAGE\OMICRON\BUILD\INCLUDE\BOOST\PREPROCESSOR\ENUM.HPP
C:\SAGE\OMICRON\BUILD\INCLUDE\BOOST\PREPROCESSOR\REPETITION\ENUM.HPP
C:\SAGE\OMICRON\BUILD\INCLUDE\BOOST\PREPROCESSOR\ENUM_PARAMS.HPP
C:\SAGE\OMICRON\BUILD\INCLUDE\BOOST\PREPROCESSOR\ITERATION\DETAIL\ITER\FORWARD1.HPP
C:\SAGE\OMICRON\BUILD\INCLUDE\BOOST\PREPROCESSOR\ITERATION\DETAIL\BOUNDS\LOWER1.HPP
C:\SAGE\OMICRON\BUILD\INCLUDE\BOOST\PREPROCESSOR\SLOT\DETAIL\SHARED.HPP
C:\SAGE\OMICRON\BUILD\INCLUDE\BOOST\PREPROCESSOR\ITERATION\DETAIL\BOUNDS\UPPER1.HPP
C:\SAGE\OMICRON\BUILD\INCLUDE\BOOST\FUNCTION\DETAIL\FUNCTION_ITERATE.HPP
C:\SAGE\OMICRON\BUILD\INCLUDE\BOOST\FUNCTION\DETAIL\MAYBE_INCLUDE.HPP
C:\SAGE\OMICRON\BUILD\INCLUDE\BOOST\FUNCTION\FUNCTION_TEMPLATE.HPP
C:\SAGE\OMICRON\BUILD\INCLUDE\BOOST\DETAIL\NO_EXCEPTIONS_SUPPORT.HPP
C:\SAGE\OMICRON\BUILD\INCLUDE\BOOST\CORE\NO_EXCEPTIONS_SUPPORT.HPP
C:\SAGE\OMICRON\BUILD\INCLUDE\BOOST\MOVE\UTILITY_CORE.HPP
C:\SAGE\OMICRON\BUILD\INCLUDE\BOOST\MOVE\DETAIL\CONFIG_BEGIN.HPP
C:\SAGE\OMICRON\BUILD\INCLUDE\BOOST\MOVE\CORE.HPP
C:\SAGE\OMICRON\BUILD\INCLUDE\BOOST\MOVE\DETAIL\WORKAROUND.HPP
C:\SAGE\OMICRON\BUILD\INCLUDE\BOOST\MOVE\DETAIL\CONFIG_END.HPP
C:\SAGE\OMICRON\BUILD\INCLUDE\BOOST\MOVE\DETAIL\META_UTILS.HPP
C:\SAGE\OMICRON\BUILD\INCLUDE\BOOST\MOVE\DETAIL\META_UTILS_CORE.HPP
C:\SAGE\OMICRON\BUILD\INCLUDE\ASIO\DETAIL\REACTIVE_SOCKET_CONNECT_OP.HPP
C:\SAGE\OMICRON\BUILD\INCLUDE\ASIO\DETAIL\REACTOR_OP.HPP
C:\SAGE\OMICRON\BUILD\INCLUDE\ASIO\DETAIL\SOCKET_OPS.HPP
C:\SAGE\OMICRON\BUILD\INCLUDE\ASIO\DETAIL\SHARED_PTR.HPP
C:\SAGE\OMICRON\BUILD\INCLUDE\ASIO\DETAIL\WEAK_PTR.HPP
C:\SAGE\OMICRON\BUILD\INCLUDE\ASIO\DETAIL\IMPL\SOCKET_OPS.IPP
C:\SAGE\OMICRON\BUILD\INCLUDE\ASIO\DETAIL\REACTOR.HPP
C:\SAGE\OMICRON\BUILD\INCLUDE\ASIO\DETAIL\REACTOR_FWD.HPP
C:\SAGE\OMICRON\BUILD\INCLUDE\ASIO\DETAIL\SELECT_REACTOR_FWD.HPP
C:\SAGE\OMICRON\BUILD\INCLUDE\ASIO\DETAIL\SELECT_REACTOR.HPP
C:\SAGE\OMICRON\BUILD\INCLUDE\ASIO\DETAIL\REACTOR_OP_QUEUE.HPP
C:\SAGE\OMICRON\BUILD\INCLUDE\ASIO\DETAIL\HASH_MAP.HPP
C:\SAGE\OMICRON\BUILD\INCLUDE\ASIO\DETAIL\SELECT_INTERRUPTER.HPP
C:\SAGE\OMICRON\BUILD\INCLUDE\ASIO\DETAIL\SOCKET_SELECT_INTERRUPTER.HPP
C:\SAGE\OMICRON\BUILD\INCLUDE\ASIO\DETAIL\IMPL\SOCKET_SELECT_INTERRUPTER.IPP
C:\SAGE\OMICRON\BUILD\INCLUDE\ASIO\DETAIL\SOCKET_HOLDER.HPP
C:\SAGE\OMICRON\BUILD\INCLUDE\ASIO\DETAIL\IMPL\SELECT_REACTOR.HPP
C:\SAGE\OMICRON\BUILD\INCLUDE\ASIO\DETAIL\IMPL\SELECT_REACTOR.IPP
C:\SAGE\OMICRON\BUILD\INCLUDE\ASIO\DETAIL\FD_SET_ADAPTER.HPP
C:\SAGE\OMICRON\BUILD\INCLUDE\ASIO\DETAIL\POSIX_FD_SET_ADAPTER.HPP
C:\SAGE\OMICRON\BUILD\INCLUDE\ASIO\DETAIL\WIN_FD_SET_ADAPTER.HPP
C:\SAGE\OMICRON\BUILD\INCLUDE\ASIO\DETAIL\SIGNAL_BLOCKER.HPP
C:\SAGE\OMICRON\BUILD\INCLUDE\ASIO\DETAIL\NULL_SIGNAL_BLOCKER.HPP
C:\SAGE\OMICRON\BUILD\INCLUDE\ASIO\DETAIL\WIN_IOCP_NULL_BUFFERS_OP.HPP
C:\SAGE\OMICRON\BUILD\INCLUDE\ASIO\DETAIL\WIN_IOCP_SOCKET_ACCEPT_OP.HPP
C:\SAGE\OMICRON\BUILD\INCLUDE\ASIO\DETAIL\WIN_IOCP_SOCKET_SERVICE_BASE.HPP
C:\SAGE\OMICRON\BUILD\INCLUDE\ASIO\DETAIL\WIN_IOCP_SOCKET_SEND_OP.HPP
C:\SAGE\OMICRON\BUILD\INCLUDE\ASIO\DETAIL\WIN_IOCP_SOCKET_RECV_OP.HPP
C:\SAGE\OMICRON\BUILD\INCLUDE\ASIO\DETAIL\WIN_IOCP_SOCKET_RECVMSG_OP.HPP
C:\SAGE\OMICRON\BUILD\INCLUDE\ASIO\DETAIL\IMPL\WIN_IOCP_SOCKET_SERVICE_BASE.IPP
C:\SAGE\OMICRON\BUILD\INCLUDE\ASIO\DETAIL\WIN_IOCP_SOCKET_RECVFROM_OP.HPP
C:\SAGE\OMICRON\BUILD\INCLUDE\ASIO\BASIC_DEADLINE_TIMER.HPP
C:\SAGE\OMICRON\BUILD\INCLUDE\ASIO\DEADLINE_TIMER_SERVICE.HPP
C:\SAGE\OMICRON\BUILD\INCLUDE\ASIO\DETAIL\DEADLINE_TIMER_SERVICE.HPP
C:\SAGE\OMICRON\BUILD\INCLUDE\ASIO\DETAIL\TIMER_QUEUE.HPP
C:\SAGE\OMICRON\BUILD\INCLUDE\ASIO\TIME_TRAITS.HPP
C:\SAGE\OMICRON\BUILD\INCLUDE\BOOST\DATE_TIME\POSIX_TIME\POSIX_TIME_TYPES.HPP
C:\SAGE\OMICRON\BUILD\INCLUDE\BOOST\DATE_TIME\TIME_CLOCK.HPP
C:\SAGE\OMICRON\BUILD\INCLUDE\BOOST\DATE_TIME\C_TIME.HPP
C:\PROGRAM FILES (X86)\MICROSOFT VISUAL STUDIO 12.0\VC\INCLUDE\CTIME
C:\SAGE\OMICRON\BUILD\INCLUDE\BOOST\DATE_TIME\COMPILER_CONFIG.HPP
C:\SAGE\OMICRON\BUILD\INCLUDE\BOOST\DATE_TIME\LOCALE_CONFIG.HPP
C:\SAGE\OMICRON\BUILD\INCLUDE\BOOST\SHARED_PTR.HPP
C:\SAGE\OMICRON\BUILD\INCLUDE\BOOST\SMART_PTR\SHARED_PTR.HPP
C:\SAGE\OMICRON\BUILD\INCLUDE\BOOST\CHECKED_DELETE.HPP
C:\SAGE\OMICRON\BUILD\INCLUDE\BOOST\CORE\CHECKED_DELETE.HPP
C:\SAGE\OMICRON\BUILD\INCLUDE\BOOST\SMART_PTR\DETAIL\SHARED_COUNT.HPP
C:\SAGE\OMICRON\BUILD\INCLUDE\BOOST\SMART_PTR\BAD_WEAK_PTR.HPP
C:\SAGE\OMICRON\BUILD\INCLUDE\BOOST\SMART_PTR\DETAIL\SP_COUNTED_BASE.HPP
C:\SAGE\OMICRON\BUILD\INCLUDE\BOOST\SMART_PTR\DETAIL\SP_COUNTED_BASE_W32.HPP
C:\SAGE\OMICRON\BUILD\INCLUDE\BOOST\SMART_PTR\DETAIL\SP_COUNTED_IMPL.HPP
C:\SAGE\OMICRON\BUILD\INCLUDE\BOOST\SMART_PTR\DETAIL\SP_DISABLE_DEPRECATED.HPP
C:\SAGE\OMICRON\BUILD\INCLUDE\BOOST\SMART_PTR\DETAIL\SP_NULLPTR_T.HPP
C:\SAGE\OMICRON\BUILD\INCLUDE\BOOST\SMART_PTR\DETAIL\SPINLOCK_POOL.HPP
C:\SAGE\OMICRON\BUILD\INCLUDE\BOOST\SMART_PTR\DETAIL\SPINLOCK.HPP
C:\SAGE\OMICRON\BUILD\INCLUDE\BOOST\SMART_PTR\DETAIL\SPINLOCK_W32.HPP
C:\SAGE\OMICRON\BUILD\INCLUDE\BOOST\SMART_PTR\DETAIL\YIELD_K.HPP
C:\SAGE\OMICRON\BUILD\INCLUDE\BOOST\PREDEF.H
C:\SAGE\OMICRON\BUILD\INCLUDE\BOOST\PREDEF\LANGUAGE.H
C:\SAGE\OMICRON\BUILD\INCLUDE\BOOST\PREDEF\LANGUAGE\STDC.H
C:\SAGE\OMICRON\BUILD\INCLUDE\BOOST\PREDEF\VERSION_NUMBER.H
C:\SAGE\OMICRON\BUILD\INCLUDE\BOOST\PREDEF\MAKE.H
C:\SAGE\OMICRON\BUILD\INCLUDE\BOOST\PREDEF\DETAIL\TEST.H
C:\SAGE\OMICRON\BUILD\INCLUDE\BOOST\PREDEF\LANGUAGE\STDCPP.H
C:\SAGE\OMICRON\BUILD\INCLUDE\BOOST\PREDEF\LANGUAGE\OBJC.H
C:\SAGE\OMICRON\BUILD\INCLUDE\BOOST\PREDEF\ARCHITECTURE.H
C:\SAGE\OMICRON\BUILD\INCLUDE\BOOST\PREDEF\ARCHITECTURE\ALPHA.H
C:\SAGE\OMICRON\BUILD\INCLUDE\BOOST\PREDEF\ARCHITECTURE\ARM.H
C:\SAGE\OMICRON\BUILD\INCLUDE\BOOST\PREDEF\ARCHITECTURE\BLACKFIN.H
C:\SAGE\OMICRON\BUILD\INCLUDE\BOOST\PREDEF\ARCHITECTURE\CONVEX.H
C:\SAGE\OMICRON\BUILD\INCLUDE\BOOST\PREDEF\ARCHITECTURE\IA64.H
C:\SAGE\OMICRON\BUILD\INCLUDE\BOOST\PREDEF\ARCHITECTURE\M68K.H
C:\SAGE\OMICRON\BUILD\INCLUDE\BOOST\PREDEF\ARCHITECTURE\MIPS.H
C:\SAGE\OMICRON\BUILD\INCLUDE\BOOST\PREDEF\ARCHITECTURE\PARISC.H
C:\SAGE\OMICRON\BUILD\INCLUDE\BOOST\PREDEF\ARCHITECTURE\PPC.H
C:\SAGE\OMICRON\BUILD\INCLUDE\BOOST\PREDEF\ARCHITECTURE\PYRAMID.H
C:\SAGE\OMICRON\BUILD\INCLUDE\BOOST\PREDEF\ARCHITECTURE\RS6K.H
C:\SAGE\OMICRON\BUILD\INCLUDE\BOOST\PREDEF\ARCHITECTURE\SPARC.H
C:\SAGE\OMICRON\BUILD\INCLUDE\BOOST\PREDEF\ARCHITECTURE\SUPERH.H
C:\SAGE\OMICRON\BUILD\INCLUDE\BOOST\PREDEF\ARCHITECTURE\SYS370.H
C:\SAGE\OMICRON\BUILD\INCLUDE\BOOST\PREDEF\ARCHITECTURE\SYS390.H
C:\SAGE\OMICRON\BUILD\INCLUDE\BOOST\PREDEF\ARCHITECTURE\X86.H
C:\SAGE\OMICRON\BUILD\INCLUDE\BOOST\PREDEF\ARCHITECTURE\X86\32.H
C:\SAGE\OMICRON\BUILD\INCLUDE\BOOST\PREDEF\ARCHITECTURE\X86\64.H
C:\SAGE\OMICRON\BUILD\INCLUDE\BOOST\PREDEF\ARCHITECTURE\Z.H
C:\SAGE\OMICRON\BUILD\INCLUDE\BOOST\PREDEF\COMPILER.H
C:\SAGE\OMICRON\BUILD\INCLUDE\BOOST\PREDEF\COMPILER\BORLAND.H
C:\SAGE\OMICRON\BUILD\INCLUDE\BOOST\PREDEF\COMPILER\CLANG.H
C:\SAGE\OMICRON\BUILD\INCLUDE\BOOST\PREDEF\COMPILER\COMEAU.H
C:\SAGE\OMICRON\BUILD\INCLUDE\BOOST\PREDEF\COMPILER\COMPAQ.H
C:\SAGE\OMICRON\BUILD\INCLUDE\BOOST\PREDEF\COMPILER\DIAB.H
C:\SAGE\OMICRON\BUILD\INCLUDE\BOOST\PREDEF\COMPILER\DIGITALMARS.H
C:\SAGE\OMICRON\BUILD\INCLUDE\BOOST\PREDEF\COMPILER\DIGNUS.H
C:\SAGE\OMICRON\BUILD\INCLUDE\BOOST\PREDEF\COMPILER\EDG.H
C:\SAGE\OMICRON\BUILD\INCLUDE\BOOST\PREDEF\COMPILER\EKOPATH.H
C:\SAGE\OMICRON\BUILD\INCLUDE\BOOST\PREDEF\COMPILER\GCC_XML.H
C:\SAGE\OMICRON\BUILD\INCLUDE\BOOST\PREDEF\COMPILER\GCC.H
C:\SAGE\OMICRON\BUILD\INCLUDE\BOOST\PREDEF\COMPILER\GREENHILLS.H
C:\SAGE\OMICRON\BUILD\INCLUDE\BOOST\PREDEF\COMPILER\HP_ACC.H
C:\SAGE\OMICRON\BUILD\INCLUDE\BOOST\PREDEF\COMPILER\IAR.H
C:\SAGE\OMICRON\BUILD\INCLUDE\BOOST\PREDEF\COMPILER\IBM.H
C:\SAGE\OMICRON\BUILD\INCLUDE\BOOST\PREDEF\COMPILER\INTEL.H
C:\SAGE\OMICRON\BUILD\INCLUDE\BOOST\PREDEF\COMPILER\KAI.H
C:\SAGE\OMICRON\BUILD\INCLUDE\BOOST\PREDEF\COMPILER\LLVM.H
C:\SAGE\OMICRON\BUILD\INCLUDE\BOOST\PREDEF\COMPILER\METAWARE.H
C:\SAGE\OMICRON\BUILD\INCLUDE\BOOST\PREDEF\COMPILER\METROWERKS.H
C:\SAGE\OMICRON\BUILD\INCLUDE\BOOST\PREDEF\COMPILER\MICROTEC.H
C:\SAGE\OMICRON\BUILD\INCLUDE\BOOST\PREDEF\COMPILER\MPW.H
C:\SAGE\OMICRON\BUILD\INCLUDE\BOOST\PREDEF\COMPILER\PALM.H
C:\SAGE\OMICRON\BUILD\INCLUDE\BOOST\PREDEF\COMPILER\PGI.H
C:\SAGE\OMICRON\BUILD\INCLUDE\BOOST\PREDEF\COMPILER\SGI_MIPSPRO.H
C:\SAGE\OMICRON\BUILD\INCLUDE\BOOST\PREDEF\COMPILER\SUNPRO.H
C:\SAGE\OMICRON\BUILD\INCLUDE\BOOST\PREDEF\COMPILER\TENDRA.H
C:\SAGE\OMICRON\BUILD\INCLUDE\BOOST\PREDEF\COMPILER\VISUALC.H
C:\SAGE\OMICRON\BUILD\INCLUDE\BOOST\PREDEF\DETAIL\COMP_DETECTED.H
C:\SAGE\OMICRON\BUILD\INCLUDE\BOOST\PREDEF\COMPILER\WATCOM.H
C:\SAGE\OMICRON\BUILD\INCLUDE\BOOST\PREDEF\LIBRARY.H
C:\SAGE\OMICRON\BUILD\INCLUDE\BOOST\PREDEF\LIBRARY\C.H
C:\SAGE\OMICRON\BUILD\INCLUDE\BOOST\PREDEF\LIBRARY\C\_PREFIX.H
C:\SAGE\OMICRON\BUILD\INCLUDE\BOOST\PREDEF\DETAIL\_CASSERT.H
C:\SAGE\OMICRON\BUILD\INCLUDE\BOOST\PREDEF\LIBRARY\C\GNU.H
C:\SAGE\OMICRON\BUILD\INCLUDE\BOOST\PREDEF\LIBRARY\C\UC.H
C:\SAGE\OMICRON\BUILD\INCLUDE\BOOST\PREDEF\LIBRARY\C\VMS.H
C:\SAGE\OMICRON\BUILD\INCLUDE\BOOST\PREDEF\LIBRARY\C\ZOS.H
C:\SAGE\OMICRON\BUILD\INCLUDE\BOOST\PREDEF\LIBRARY\STD.H
C:\SAGE\OMICRON\BUILD\INCLUDE\BOOST\PREDEF\LIBRARY\STD\_PREFIX.H
C:\SAGE\OMICRON\BUILD\INCLUDE\BOOST\PREDEF\DETAIL\_EXCEPTION.H
C:\SAGE\OMICRON\BUILD\INCLUDE\BOOST\PREDEF\LIBRARY\STD\CXX.H
C:\SAGE\OMICRON\BUILD\INCLUDE\BOOST\PREDEF\LIBRARY\STD\DINKUMWARE.H
C:\SAGE\OMICRON\BUILD\INCLUDE\BOOST\PREDEF\LIBRARY\STD\LIBCOMO.H
C:\SAGE\OMICRON\BUILD\INCLUDE\BOOST\PREDEF\LIBRARY\STD\MODENA.H
C:\SAGE\OMICRON\BUILD\INCLUDE\BOOST\PREDEF\LIBRARY\STD\MSL.H
C:\SAGE\OMICRON\BUILD\INCLUDE\BOOST\PREDEF\LIBRARY\STD\ROGUEWAVE.H
C:\SAGE\OMICRON\BUILD\INCLUDE\BOOST\PREDEF\LIBRARY\STD\SGI.H
C:\SAGE\OMICRON\BUILD\INCLUDE\BOOST\PREDEF\LIBRARY\STD\STDCPP3.H
C:\SAGE\OMICRON\BUILD\INCLUDE\BOOST\PREDEF\LIBRARY\STD\STLPORT.H
C:\SAGE\OMICRON\BUILD\INCLUDE\BOOST\PREDEF\LIBRARY\STD\VACPP.H
C:\SAGE\OMICRON\BUILD\INCLUDE\BOOST\PREDEF\OS.H
C:\SAGE\OMICRON\BUILD\INCLUDE\BOOST\PREDEF\OS\AIX.H
C:\SAGE\OMICRON\BUILD\INCLUDE\BOOST\PREDEF\OS\AMIGAOS.H
C:\SAGE\OMICRON\BUILD\INCLUDE\BOOST\PREDEF\OS\ANDROID.H
C:\SAGE\OMICRON\BUILD\INCLUDE\BOOST\PREDEF\OS\BEOS.H
C:\SAGE\OMICRON\BUILD\INCLUDE\BOOST\PREDEF\OS\BSD.H
C:\SAGE\OMICRON\BUILD\INCLUDE\BOOST\PREDEF\OS\MACOS.H
C:\SAGE\OMICRON\BUILD\INCLUDE\BOOST\PREDEF\OS\IOS.H
C:\SAGE\OMICRON\BUILD\INCLUDE\BOOST\PREDEF\OS\BSD\BSDI.H
C:\SAGE\OMICRON\BUILD\INCLUDE\BOOST\PREDEF\OS\BSD\DRAGONFLY.H
C:\SAGE\OMICRON\BUILD\INCLUDE\BOOST\PREDEF\OS\BSD\FREE.H
C:\SAGE\OMICRON\BUILD\INCLUDE\BOOST\PREDEF\OS\BSD\OPEN.H
C:\SAGE\OMICRON\BUILD\INCLUDE\BOOST\PREDEF\OS\BSD\NET.H
C:\SAGE\OMICRON\BUILD\INCLUDE\BOOST\PREDEF\OS\CYGWIN.H
C:\SAGE\OMICRON\BUILD\INCLUDE\BOOST\PREDEF\OS\HAIKU.H
C:\SAGE\OMICRON\BUILD\INCLUDE\BOOST\PREDEF\OS\HPUX.H
C:\SAGE\OMICRON\BUILD\INCLUDE\BOOST\PREDEF\OS\IRIX.H
C:\SAGE\OMICRON\BUILD\INCLUDE\BOOST\PREDEF\OS\LINUX.H
C:\SAGE\OMICRON\BUILD\INCLUDE\BOOST\PREDEF\OS\OS400.H
C:\SAGE\OMICRON\BUILD\INCLUDE\BOOST\PREDEF\OS\QNXNTO.H
C:\SAGE\OMICRON\BUILD\INCLUDE\BOOST\PREDEF\OS\SOLARIS.H
C:\SAGE\OMICRON\BUILD\INCLUDE\BOOST\PREDEF\OS\UNIX.H
C:\SAGE\OMICRON\BUILD\INCLUDE\BOOST\PREDEF\OS\VMS.H
C:\SAGE\OMICRON\BUILD\INCLUDE\BOOST\PREDEF\OS\WINDOWS.H
C:\SAGE\OMICRON\BUILD\INCLUDE\BOOST\PREDEF\DETAIL\OS_DETECTED.H
C:\SAGE\OMICRON\BUILD\INCLUDE\BOOST\PREDEF\OTHER.H
C:\SAGE\OMICRON\BUILD\INCLUDE\BOOST\PREDEF\OTHER\ENDIAN.H
C:\SAGE\OMICRON\BUILD\INCLUDE\BOOST\PREDEF\PLATFORM.H
C:\SAGE\OMICRON\BUILD\INCLUDE\BOOST\PREDEF\PLATFORM\MINGW.H
C:\SAGE\OMICRON\BUILD\INCLUDE\BOOST\PREDEF\PLATFORM\WINDOWS_DESKTOP.H
C:\SAGE\OMICRON\BUILD\INCLUDE\BOOST\PREDEF\DETAIL\PLATFORM_DETECTED.H
C:\SAGE\OMICRON\BUILD\INCLUDE\BOOST\PREDEF\PLATFORM\WINDOWS_STORE.H
C:\SAGE\OMICRON\BUILD\INCLUDE\BOOST\PREDEF\PLATFORM\WINDOWS_PHONE.H
C:\SAGE\OMICRON\BUILD\INCLUDE\BOOST\PREDEF\PLATFORM\WINDOWS_RUNTIME.H
C:\SAGE\OMICRON\BUILD\INCLUDE\BOOST\PREDEF\HARDWARE.H
C:\SAGE\OMICRON\BUILD\INCLUDE\BOOST\PREDEF\HARDWARE\SIMD.H
C:\SAGE\OMICRON\BUILD\INCLUDE\BOOST\PREDEF\HARDWARE\SIMD\X86.H
C:\SAGE\OMICRON\BUILD\INCLUDE\BOOST\PREDEF\HARDWARE\SIMD\X86\VERSIONS.H
C:\SAGE\OMICRON\BUILD\INCLUDE\BOOST\PREDEF\HARDWARE\SIMD\X86_AMD.H
C:\SAGE\OMICRON\BUILD\INCLUDE\BOOST\PREDEF\HARDWARE\SIMD\X86_AMD\VERSIONS.H
C:\SAGE\OMICRON\BUILD\INCLUDE\BOOST\PREDEF\HARDWARE\SIMD\ARM.H
C:\SAGE\OMICRON\BUILD\INCLUDE\BOOST\PREDEF\HARDWARE\SIMD\ARM\VERSIONS.H
C:\SAGE\OMICRON\BUILD\INCLUDE\BOOST\PREDEF\HARDWARE\SIMD\PPC.H
C:\SAGE\OMICRON\BUILD\INCLUDE\BOOST\PREDEF\HARDWARE\SIMD\PPC\VERSIONS.H
C:\SAGE\OMICRON\BUILD\INCLUDE\BOOST\PREDEF\VERSION.H
C:\SAGE\OMICRON\BUILD\INCLUDE\BOOST\SMART_PTR\DETAIL\OPERATOR_BOOL.HPP
C:\SAGE\OMICRON\BUILD\INCLUDE\BOOST\DATE_TIME\MICROSEC_TIME_CLOCK.HPP
C:\SAGE\OMICRON\BUILD\INCLUDE\BOOST\DATE_TIME\FILETIME_FUNCTIONS.HPP
C:\SAGE\OMICRON\BUILD\INCLUDE\BOOST\DATE_TIME\TIME.HPP
C:\SAGE\OMICRON\BUILD\INCLUDE\BOOST\OPERATORS.HPP
C:\SAGE\OMICRON\BUILD\INCLUDE\BOOST\DATE_TIME\TIME_DEFS.HPP
C:\SAGE\OMICRON\BUILD\INCLUDE\BOOST\DATE_TIME\SPECIAL_DEFS.HPP
C:\SAGE\OMICRON\BUILD\INCLUDE\BOOST\DATE_TIME\DATE_DEFS.HPP
C:\SAGE\OMICRON\BUILD\INCLUDE\BOOST\DATE_TIME\POSIX_TIME\PTIME.HPP
C:\SAGE\OMICRON\BUILD\INCLUDE\BOOST\DATE_TIME\POSIX_TIME\POSIX_TIME_SYSTEM.HPP
C:\SAGE\OMICRON\BUILD\INCLUDE\BOOST\DATE_TIME\POSIX_TIME\POSIX_TIME_CONFIG.HPP
C:\SAGE\OMICRON\BUILD\INCLUDE\BOOST\CONFIG\NO_TR1\CMATH.HPP
C:\SAGE\OMICRON\BUILD\INCLUDE\BOOST\DATE_TIME\TIME_DURATION.HPP
C:\SAGE\OMICRON\BUILD\INCLUDE\BOOST\DATE_TIME\TIME_RESOLUTION_TRAITS.HPP
C:\SAGE\OMICRON\BUILD\INCLUDE\BOOST\DATE_TIME\INT_ADAPTER.HPP
C:\SAGE\OMICRON\BUILD\INCLUDE\BOOST\DATE_TIME\GREGORIAN\GREGORIAN_TYPES.HPP
C:\SAGE\OMICRON\BUILD\INCLUDE\BOOST\DATE_TIME\DATE.HPP
C:\SAGE\OMICRON\BUILD\INCLUDE\BOOST\DATE_TIME\YEAR_MONTH_DAY.HPP
C:\SAGE\OMICRON\BUILD\INCLUDE\BOOST\DATE_TIME\PERIOD.HPP
C:\SAGE\OMICRON\BUILD\INCLUDE\BOOST\DATE_TIME\GREGORIAN\GREG_CALENDAR.HPP
C:\SAGE\OMICRON\BUILD\INCLUDE\BOOST\DATE_TIME\GREGORIAN\GREG_WEEKDAY.HPP
C:\SAGE\OMICRON\BUILD\INCLUDE\BOOST\DATE_TIME\CONSTRAINED_VALUE.HPP
C:\SAGE\OMICRON\BUILD\INCLUDE\BOOST\DATE_TIME\GREGORIAN\GREG_DAY_OF_YEAR.HPP
C:\SAGE\OMICRON\BUILD\INCLUDE\BOOST\DATE_TIME\GREGORIAN_CALENDAR.HPP
C:\SAGE\OMICRON\BUILD\INCLUDE\BOOST\DATE_TIME\GREGORIAN_CALENDAR.IPP
C:\SAGE\OMICRON\BUILD\INCLUDE\BOOST\DATE_TIME\GREGORIAN\GREG_YMD.HPP
C:\SAGE\OMICRON\BUILD\INCLUDE\BOOST\DATE_TIME\GREGORIAN\GREG_DAY.HPP
C:\SAGE\OMICRON\BUILD\INCLUDE\BOOST\DATE_TIME\GREGORIAN\GREG_YEAR.HPP
C:\SAGE\OMICRON\BUILD\INCLUDE\BOOST\DATE_TIME\GREGORIAN\GREG_MONTH.HPP
C:\PROGRAM FILES (X86)\MICROSOFT VISUAL STUDIO 12.0\VC\INCLUDE\CCTYPE
C:\SAGE\OMICRON\BUILD\INCLUDE\BOOST\DATE_TIME\GREGORIAN\GREG_DURATION.HPP
C:\SAGE\OMICRON\BUILD\INCLUDE\BOOST\DATE_TIME\DATE_DURATION.HPP
C:\SAGE\OMICRON\BUILD\INCLUDE\BOOST\DATE_TIME\DATE_DURATION_TYPES.HPP
C:\SAGE\OMICRON\BUILD\INCLUDE\BOOST\DATE_TIME\GREGORIAN\GREG_DURATION_TYPES.HPP
C:\SAGE\OMICRON\BUILD\INCLUDE\BOOST\DATE_TIME\GREGORIAN\GREG_DATE.HPP
C:\SAGE\OMICRON\BUILD\INCLUDE\BOOST\DATE_TIME\ADJUST_FUNCTORS.HPP
C:\SAGE\OMICRON\BUILD\INCLUDE\BOOST\DATE_TIME\WRAPPING_INT.HPP
C:\SAGE\OMICRON\BUILD\INCLUDE\BOOST\DATE_TIME\DATE_GENERATORS.HPP
C:\SAGE\OMICRON\BUILD\INCLUDE\BOOST\DATE_TIME\DATE_CLOCK_DEVICE.HPP
C:\SAGE\OMICRON\BUILD\INCLUDE\BOOST\DATE_TIME\DATE_ITERATOR.HPP
C:\SAGE\OMICRON\BUILD\INCLUDE\BOOST\DATE_TIME\TIME_SYSTEM_SPLIT.HPP
C:\SAGE\OMICRON\BUILD\INCLUDE\BOOST\DATE_TIME\TIME_SYSTEM_COUNTED.HPP
C:\SAGE\OMICRON\BUILD\INCLUDE\BOOST\DATE_TIME\POSIX_TIME\DATE_DURATION_OPERATORS.HPP
C:\SAGE\OMICRON\BUILD\INCLUDE\BOOST\DATE_TIME\POSIX_TIME\POSIX_TIME_DURATION.HPP
C:\SAGE\OMICRON\BUILD\INCLUDE\BOOST\DATE_TIME\POSIX_TIME\TIME_PERIOD.HPP
C:\SAGE\OMICRON\BUILD\INCLUDE\BOOST\DATE_TIME\TIME_ITERATOR.HPP
C:\SAGE\OMICRON\BUILD\INCLUDE\BOOST\DATE_TIME\DST_RULES.HPP
C:\SAGE\OMICRON\BUILD\INCLUDE\ASIO\DETAIL\TIMER_SCHEDULER.HPP
C:\SAGE\OMICRON\BUILD\INCLUDE\ASIO\DETAIL\TIMER_SCHEDULER_FWD.HPP
C:\SAGE\OMICRON\BUILD\INCLUDE\ASIO\DETAIL\WAIT_HANDLER.HPP
C:\SAGE\OMICRON\BUILD\INCLUDE\ASIO\BASIC_RAW_SOCKET.HPP
C:\SAGE\OMICRON\BUILD\INCLUDE\ASIO\RAW_SOCKET_SERVICE.HPP
C:\SAGE\OMICRON\BUILD\INCLUDE\ASIO\BASIC_SEQ_PACKET_SOCKET.HPP
C:\SAGE\OMICRON\BUILD\INCLUDE\ASIO\SEQ_PACKET_SOCKET_SERVICE.HPP
C:\SAGE\OMICRON\BUILD\INCLUDE\ASIO\BASIC_SERIAL_PORT.HPP
C:\SAGE\OMICRON\BUILD\INCLUDE\ASIO\SERIAL_PORT_BASE.HPP
C:\SAGE\OMICRON\BUILD\INCLUDE\ASIO\IMPL\SERIAL_PORT_BASE.HPP
C:\SAGE\OMICRON\BUILD\INCLUDE\ASIO\IMPL\SERIAL_PORT_BASE.IPP
C:\SAGE\OMICRON\BUILD\INCLUDE\ASIO\SERIAL_PORT_SERVICE.HPP
C:\SAGE\OMICRON\BUILD\INCLUDE\ASIO\DETAIL\REACTIVE_SERIAL_PORT_SERVICE.HPP
C:\SAGE\OMICRON\BUILD\INCLUDE\ASIO\DETAIL\WIN_IOCP_SERIAL_PORT_SERVICE.HPP
C:\SAGE\OMICRON\BUILD\INCLUDE\ASIO\DETAIL\WIN_IOCP_HANDLE_SERVICE.HPP
C:\SAGE\OMICRON\BUILD\INCLUDE\ASIO\DETAIL\WIN_IOCP_HANDLE_READ_OP.HPP
C:\SAGE\OMICRON\BUILD\INCLUDE\ASIO\DETAIL\WIN_IOCP_HANDLE_WRITE_OP.HPP
C:\SAGE\OMICRON\BUILD\INCLUDE\ASIO\DETAIL\IMPL\WIN_IOCP_HANDLE_SERVICE.IPP
C:\SAGE\OMICRON\BUILD\INCLUDE\ASIO\DETAIL\IMPL\WIN_IOCP_SERIAL_PORT_SERVICE.IPP
C:\SAGE\OMICRON\BUILD\INCLUDE\ASIO\BASIC_SIGNAL_SET.HPP
C:\SAGE\OMICRON\BUILD\INCLUDE\ASIO\SIGNAL_SET_SERVICE.HPP
C:\SAGE\OMICRON\BUILD\INCLUDE\ASIO\DETAIL\SIGNAL_SET_SERVICE.HPP
C:\PROGRAM FILES (X86)\MICROSOFT VISUAL STUDIO 12.0\VC\INCLUDE\CSIGNAL
C:\PROGRAM FILES (X86)\MICROSOFT VISUAL STUDIO 12.0\VC\INCLUDE\SIGNAL.H
C:\SAGE\OMICRON\BUILD\INCLUDE\ASIO\DETAIL\SIGNAL_HANDLER.HPP
C:\SAGE\OMICRON\BUILD\INCLUDE\ASIO\DETAIL\SIGNAL_OP.HPP
C:\SAGE\OMICRON\BUILD\INCLUDE\ASIO\DETAIL\IMPL\SIGNAL_SET_SERVICE.IPP
C:\SAGE\OMICRON\BUILD\INCLUDE\ASIO\DETAIL\STATIC_MUTEX.HPP
C:\SAGE\OMICRON\BUILD\INCLUDE\ASIO\DETAIL\WIN_STATIC_MUTEX.HPP
C:\SAGE\OMICRON\BUILD\INCLUDE\ASIO\DETAIL\IMPL\WIN_STATIC_MUTEX.IPP
C:\SAGE\OMICRON\BUILD\INCLUDE\ASIO\BASIC_SOCKET_ACCEPTOR.HPP
C:\SAGE\OMICRON\BUILD\INCLUDE\ASIO\SOCKET_ACCEPTOR_SERVICE.HPP
C:\SAGE\OMICRON\BUILD\INCLUDE\ASIO\BASIC_SOCKET_IOSTREAM.HPP
C:\SAGE\OMICRON\BUILD\INCLUDE\BOOST\PREPROCESSOR\REPETITION\ENUM_BINARY_PARAMS.HPP
C:\SAGE\OMICRON\BUILD\INCLUDE\BOOST\PREPROCESSOR\REPETITION\REPEAT_FROM_TO.HPP
C:\SAGE\OMICRON\BUILD\INCLUDE\BOOST\UTILITY\BASE_FROM_MEMBER.HPP
C:\SAGE\OMICRON\BUILD\INCLUDE\ASIO\BASIC_SOCKET_STREAMBUF.HPP
C:\SAGE\OMICRON\BUILD\INCLUDE\ASIO\DETAIL\ARRAY.HPP
C:\SAGE\OMICRON\BUILD\INCLUDE\ASIO\STREAM_SOCKET_SERVICE.HPP
C:\SAGE\OMICRON\BUILD\INCLUDE\ASIO\BASIC_STREAM_SOCKET.HPP
C:\SAGE\OMICRON\BUILD\INCLUDE\ASIO\BASIC_STREAMBUF.HPP
C:\SAGE\OMICRON\BUILD\INCLUDE\ASIO\BASIC_STREAMBUF_FWD.HPP
C:\SAGE\OMICRON\BUILD\INCLUDE\ASIO\BUFFERED_READ_STREAM_FWD.HPP
C:\SAGE\OMICRON\BUILD\INCLUDE\ASIO\BUFFERED_READ_STREAM.HPP
C:\SAGE\OMICRON\BUILD\INCLUDE\ASIO\DETAIL\BUFFER_RESIZE_GUARD.HPP
C:\SAGE\OMICRON\BUILD\INCLUDE\ASIO\DETAIL\BUFFERED_STREAM_STORAGE.HPP
C:\SAGE\OMICRON\BUILD\INCLUDE\ASIO\BUFFERED_STREAM_FWD.HPP
C:\SAGE\OMICRON\BUILD\INCLUDE\ASIO\BUFFERED_STREAM.HPP
C:\SAGE\OMICRON\BUILD\INCLUDE\ASIO\BUFFERED_WRITE_STREAM.HPP
C:\SAGE\OMICRON\BUILD\INCLUDE\ASIO\BUFFERED_WRITE_STREAM_FWD.HPP
C:\SAGE\OMICRON\BUILD\INCLUDE\ASIO\COMPLETION_CONDITION.HPP
C:\SAGE\OMICRON\BUILD\INCLUDE\ASIO\WRITE.HPP
C:\SAGE\OMICRON\BUILD\INCLUDE\ASIO\IMPL\WRITE.HPP
C:\SAGE\OMICRON\BUILD\INCLUDE\ASIO\DETAIL\BASE_FROM_COMPLETION_COND.HPP
C:\SAGE\OMICRON\BUILD\INCLUDE\ASIO\DETAIL\CONSUMING_BUFFERS.HPP
C:\SAGE\OMICRON\BUILD\INCLUDE\ASIO\BUFFERS_ITERATOR.HPP
C:\SAGE\OMICRON\BUILD\INCLUDE\ASIO\CONNECT.HPP
C:\SAGE\OMICRON\BUILD\INCLUDE\ASIO\IMPL\CONNECT.HPP
C:\SAGE\OMICRON\BUILD\INCLUDE\ASIO\DEADLINE_TIMER.HPP
C:\SAGE\OMICRON\BUILD\INCLUDE\ASIO\IP\ADDRESS.HPP
C:\SAGE\OMICRON\BUILD\INCLUDE\ASIO\IP\ADDRESS_V4.HPP
C:\SAGE\OMICRON\BUILD\INCLUDE\ASIO\IP\IMPL\ADDRESS_V4.HPP
C:\SAGE\OMICRON\BUILD\INCLUDE\ASIO\IP\IMPL\ADDRESS_V4.IPP
C:\SAGE\OMICRON\BUILD\INCLUDE\ASIO\IP\ADDRESS_V6.HPP
C:\SAGE\OMICRON\BUILD\INCLUDE\ASIO\IP\IMPL\ADDRESS_V6.HPP
C:\SAGE\OMICRON\BUILD\INCLUDE\ASIO\IP\IMPL\ADDRESS_V6.IPP
C:\SAGE\OMICRON\BUILD\INCLUDE\ASIO\IP\IMPL\ADDRESS.HPP
C:\SAGE\OMICRON\BUILD\INCLUDE\ASIO\IP\IMPL\ADDRESS.IPP
C:\SAGE\OMICRON\BUILD\INCLUDE\ASIO\IP\BASIC_ENDPOINT.HPP
C:\SAGE\OMICRON\BUILD\INCLUDE\ASIO\IP\DETAIL\ENDPOINT.HPP
C:\SAGE\OMICRON\BUILD\INCLUDE\ASIO\IP\DETAIL\IMPL\ENDPOINT.IPP
C:\SAGE\OMICRON\BUILD\INCLUDE\ASIO\IP\IMPL\BASIC_ENDPOINT.HPP
C:\SAGE\OMICRON\BUILD\INCLUDE\ASIO\IP\BASIC_RESOLVER.HPP
C:\SAGE\OMICRON\BUILD\INCLUDE\ASIO\IP\BASIC_RESOLVER_ITERATOR.HPP
C:\SAGE\OMICRON\BUILD\INCLUDE\ASIO\IP\BASIC_RESOLVER_ENTRY.HPP
C:\SAGE\OMICRON\BUILD\INCLUDE\ASIO\IP\BASIC_RESOLVER_QUERY.HPP
C:\SAGE\OMICRON\BUILD\INCLUDE\ASIO\IP\RESOLVER_QUERY_BASE.HPP
C:\SAGE\OMICRON\BUILD\INCLUDE\ASIO\IP\RESOLVER_SERVICE.HPP
C:\SAGE\OMICRON\BUILD\INCLUDE\ASIO\DETAIL\RESOLVER_SERVICE.HPP
C:\SAGE\OMICRON\BUILD\INCLUDE\ASIO\DETAIL\RESOLVE_ENDPOINT_OP.HPP
C:\SAGE\OMICRON\BUILD\INCLUDE\ASIO\DETAIL\RESOLVE_OP.HPP
C:\SAGE\OMICRON\BUILD\INCLUDE\ASIO\DETAIL\RESOLVER_SERVICE_BASE.HPP
C:\SAGE\OMICRON\BUILD\INCLUDE\ASIO\DETAIL\IMPL\RESOLVER_SERVICE_BASE.IPP
C:\SAGE\OMICRON\BUILD\INCLUDE\ASIO\IP\HOST_NAME.HPP
C:\SAGE\OMICRON\BUILD\INCLUDE\ASIO\IP\IMPL\HOST_NAME.IPP
C:\SAGE\OMICRON\BUILD\INCLUDE\ASIO\IP\ICMP.HPP
C:\SAGE\OMICRON\BUILD\INCLUDE\ASIO\IP\MULTICAST.HPP
C:\SAGE\OMICRON\BUILD\INCLUDE\ASIO\IP\DETAIL\SOCKET_OPTION.HPP
C:\SAGE\OMICRON\BUILD\INCLUDE\ASIO\IP\TCP.HPP
C:\SAGE\OMICRON\BUILD\INCLUDE\ASIO\IP\UDP.HPP
C:\SAGE\OMICRON\BUILD\INCLUDE\ASIO\IP\UNICAST.HPP
C:\SAGE\OMICRON\BUILD\INCLUDE\ASIO\IP\V6_ONLY.HPP
C:\SAGE\OMICRON\BUILD\INCLUDE\ASIO\IS_READ_BUFFERED.HPP
C:\SAGE\OMICRON\BUILD\INCLUDE\ASIO\IS_WRITE_BUFFERED.HPP
C:\SAGE\OMICRON\BUILD\INCLUDE\ASIO\LOCAL\BASIC_ENDPOINT.HPP
C:\SAGE\OMICRON\BUILD\INCLUDE\ASIO\LOCAL\CONNECT_PAIR.HPP
C:\SAGE\OMICRON\BUILD\INCLUDE\ASIO\LOCAL\DATAGRAM_PROTOCOL.HPP
C:\SAGE\OMICRON\BUILD\INCLUDE\ASIO\LOCAL\STREAM_PROTOCOL.HPP
C:\SAGE\OMICRON\BUILD\INCLUDE\ASIO\PLACEHOLDERS.HPP
C:\SAGE\OMICRON\BUILD\INCLUDE\BOOST\BIND\ARG.HPP
C:\SAGE\OMICRON\BUILD\INCLUDE\BOOST\IS_PLACEHOLDER.HPP
C:\SAGE\OMICRON\BUILD\INCLUDE\ASIO\POSIX\BASIC_DESCRIPTOR.HPP
C:\SAGE\OMICRON\BUILD\INCLUDE\ASIO\POSIX\BASIC_STREAM_DESCRIPTOR.HPP
C:\SAGE\OMICRON\BUILD\INCLUDE\ASIO\POSIX\DESCRIPTOR_BASE.HPP
C:\SAGE\OMICRON\BUILD\INCLUDE\ASIO\POSIX\STREAM_DESCRIPTOR.HPP
C:\SAGE\OMICRON\BUILD\INCLUDE\ASIO\POSIX\STREAM_DESCRIPTOR_SERVICE.HPP
C:\SAGE\OMICRON\BUILD\INCLUDE\ASIO\READ.HPP
C:\SAGE\OMICRON\BUILD\INCLUDE\ASIO\IMPL\READ.HPP
C:\SAGE\OMICRON\BUILD\INCLUDE\ASIO\READ_AT.HPP
C:\SAGE\OMICRON\BUILD\INCLUDE\ASIO\IMPL\READ_AT.HPP
C:\SAGE\OMICRON\BUILD\INCLUDE\ASIO\READ_UNTIL.HPP
C:\SAGE\OMICRON\BUILD\INCLUDE\ASIO\DETAIL\REGEX_FWD.HPP
C:\SAGE\OMICRON\BUILD\INCLUDE\BOOST\REGEX_FWD.HPP
C:\SAGE\OMICRON\BUILD\INCLUDE\BOOST\REGEX\CONFIG.HPP
C:\SAGE\OMICRON\BUILD\INCLUDE\BOOST\REGEX\USER.HPP
C:\SAGE\OMICRON\BUILD\INCLUDE\BOOST\REGEX\CONFIG\CWCHAR.HPP
C:\PROGRAM FILES (X86)\MICROSOFT VISUAL STUDIO 12.0\VC\INCLUDE\CWCTYPE
C:\PROGRAM FILES (X86)\MICROSOFT VISUAL STUDIO 12.0\VC\INCLUDE\WCTYPE.H
C:\SAGE\OMICRON\BUILD\INCLUDE\BOOST\REGEX\V4\REGEX_FWD.HPP
C:\SAGE\OMICRON\BUILD\INCLUDE\BOOST\REGEX\V4\MATCH_FLAGS.HPP
C:\SAGE\OMICRON\BUILD\INCLUDE\ASIO\IMPL\READ_UNTIL.HPP
C:\SAGE\OMICRON\BUILD\INCLUDE\ASIO\SERIAL_PORT.HPP
C:\SAGE\OMICRON\BUILD\INCLUDE\ASIO\SIGNAL_SET.HPP
C:\SAGE\OMICRON\BUILD\INCLUDE\ASIO\STRAND.HPP
C:\SAGE\OMICRON\BUILD\INCLUDE\ASIO\DETAIL\STRAND_SERVICE.HPP
C:\SAGE\OMICRON\BUILD\INCLUDE\ASIO\DETAIL\IMPL\STRAND_SERVICE.HPP
C:\SAGE\OMICRON\BUILD\INCLUDE\ASIO\DETAIL\IMPL\STRAND_SERVICE.IPP
C:\SAGE\OMICRON\BUILD\INCLUDE\ASIO\STREAMBUF.HPP
C:\SAGE\OMICRON\BUILD\INCLUDE\ASIO\THREAD.HPP
C:\SAGE\OMICRON\BUILD\INCLUDE\ASIO\VERSION.HPP
C:\SAGE\OMICRON\BUILD\INCLUDE\ASIO\WINDOWS\BASIC_HANDLE.HPP
C:\SAGE\OMICRON\BUILD\INCLUDE\ASIO\WINDOWS\BASIC_RANDOM_ACCESS_HANDLE.HPP
C:\SAGE\OMICRON\BUILD\INCLUDE\ASIO\WINDOWS\RANDOM_ACCESS_HANDLE_SERVICE.HPP
C:\SAGE\OMICRON\BUILD\INCLUDE\ASIO\WINDOWS\BASIC_STREAM_HANDLE.HPP
C:\SAGE\OMICRON\BUILD\INCLUDE\ASIO\WINDOWS\STREAM_HANDLE_SERVICE.HPP
C:\SAGE\OMICRON\BUILD\INCLUDE\ASIO\WINDOWS\OVERLAPPED_PTR.HPP
C:\SAGE\OMICRON\BUILD\INCLUDE\ASIO\DETAIL\WIN_IOCP_OVERLAPPED_PTR.HPP
C:\SAGE\OMICRON\BUILD\INCLUDE\ASIO\DETAIL\WIN_IOCP_OVERLAPPED_OP.HPP
C:\SAGE\OMICRON\BUILD\INCLUDE\ASIO\WINDOWS\RANDOM_ACCESS_HANDLE.HPP
C:\SAGE\OMICRON\BUILD\INCLUDE\ASIO\WINDOWS\STREAM_HANDLE.HPP
C:\SAGE\OMICRON\BUILD\INCLUDE\ASIO\WRITE_AT.HPP
C:\SAGE\OMICRON\BUILD\INCLUDE\ASIO\IMPL\WRITE_AT.HPP
C:\PROGRAM FILES (X86)\MICROSOFT VISUAL STUDIO 12.0\VC\INCLUDE\SYS\STAT.H
C:\PROGRAM FILES (X86)\MICROSOFT VISUAL STUDIO 12.0\VC\INCLUDE\SYS\TYPES.H
C:\PROGRAM FILES (X86)\MICROSOFT VISUAL STUDIO 12.0\VC\INCLUDE\SYS\STAT.INL
C:\SAGE\OMICRON\SOURCE\INCLUDE\OMICRON\BYTEARRAY.H
C:\SAGE\OMICRON\SOURCE\INCLUDE\OMICRON\CONFIG.H
C:\SAGE\OMICRON\SOURCE\INCLUDE\OMICRON\DATAMANAGER.H
C:\SAGE\OMICRON\SOURCE\INCLUDE\OMICRON\EVENT.H
C:\PROGRAM FILES (X86)\MICROSOFT VISUAL STUDIO 12.0\VC\INCLUDE\SYS\TIMEB.H
C:\PROGRAM FILES (X86)\MICROSOFT VISUAL STUDIO 12.0\VC\INCLUDE\SYS\TIMEB.INL
C:\SAGE\OMICRON\SOURCE\INCLUDE\OMICRON\FILEDATASTREAM.H
C:\SAGE\OMICRON\SOURCE\INCLUDE\OMICRON\FILESYSTEMDATASOURCE.H
C:\SAGE\OMICRON\SOURCE\INCLUDE\OMICRON\IEVENTLISTENER.H
C:\SAGE\OMICRON\SOURCE\INCLUDE\OMICRON\LIBRARY.H
C:\SAGE\OMICRON\SOURCE\INCLUDE\OMICRON\NAMEGENERATOR.H
C:\SAGE\OMICRON\SOURCE\INCLUDE\OMICRON\POINTSETID.H
C:\SAGE\OMICRON\SOURCE\INCLUDE\OMICRON\SERVICEMANAGER.H
C:\SAGE\OMICRON\SOURCE\INCLUDE\OMICRON\STRINGUTILS.H
C:\SAGE\OMICRON\BUILD\INCLUDE\BOOST\FORMAT.HPP
C:\PROGRAM FILES (X86)\MICROSOFT VISUAL STUDIO 12.0\VC\INCLUDE\LOCALE
C:\PROGRAM FILES (X86)\MICROSOFT VISUAL STUDIO 12.0\VC\INCLUDE\XLOCBUF
C:\PROGRAM FILES (X86)\MICROSOFT VISUAL STUDIO 12.0\VC\INCLUDE\XLOCMES
C:\PROGRAM FILES (X86)\MICROSOFT VISUAL STUDIO 12.0\VC\INCLUDE\XLOCMON
C:\PROGRAM FILES (X86)\MICROSOFT VISUAL STUDIO 12.0\VC\INCLUDE\XLOCTIME
C:\SAGE\OMICRON\BUILD\INCLUDE\BOOST\FORMAT\DETAIL\COMPAT_WORKAROUNDS.HPP
C:\SAGE\OMICRON\BUILD\INCLUDE\BOOST\FORMAT\DETAIL\CONFIG_MACROS.HPP
C:\SAGE\OMICRON\BUILD\INCLUDE\BOOST\FORMAT\DETAIL\WORKAROUNDS_GCC-2_95.HPP
C:\SAGE\OMICRON\BUILD\INCLUDE\BOOST\FORMAT\DETAIL\WORKAROUNDS_STLPORT.HPP
C:\SAGE\OMICRON\BUILD\INCLUDE\BOOST\FORMAT\FORMAT_FWD.HPP
C:\SAGE\OMICRON\BUILD\INCLUDE\BOOST\FORMAT\INTERNALS_FWD.HPP
C:\SAGE\OMICRON\BUILD\INCLUDE\BOOST\FORMAT\INTERNALS.HPP
C:\SAGE\OMICRON\BUILD\INCLUDE\BOOST\OPTIONAL.HPP
C:\SAGE\OMICRON\BUILD\INCLUDE\BOOST\OPTIONAL\OPTIONAL.HPP
C:\SAGE\OMICRON\BUILD\INCLUDE\BOOST\CORE\EXPLICIT_OPERATOR_BOOL.HPP
C:\SAGE\OMICRON\BUILD\INCLUDE\BOOST\CORE\SWAP.HPP
C:\SAGE\OMICRON\BUILD\INCLUDE\BOOST\OPTIONAL\BAD_OPTIONAL_ACCESS.HPP
C:\SAGE\OMICRON\BUILD\INCLUDE\BOOST\TYPE.HPP
C:\SAGE\OMICRON\BUILD\INCLUDE\BOOST\TYPE_TRAITS\HAS_NOTHROW_CONSTRUCTOR.HPP
C:\SAGE\OMICRON\BUILD\INCLUDE\BOOST\TYPE_TRAITS\HAS_TRIVIAL_CONSTRUCTOR.HPP
C:\SAGE\OMICRON\BUILD\INCLUDE\BOOST\TYPE_TRAITS\IS_DEFAULT_CONSTRUCTIBLE.HPP
C:\SAGE\OMICRON\BUILD\INCLUDE\BOOST\TYPE_TRAITS\TYPE_WITH_ALIGNMENT.HPP
C:\SAGE\OMICRON\BUILD\INCLUDE\BOOST\TYPE_TRAITS\DECAY.HPP
C:\SAGE\OMICRON\BUILD\INCLUDE\BOOST\TYPE_TRAITS\REMOVE_BOUNDS.HPP
C:\SAGE\OMICRON\BUILD\INCLUDE\BOOST\TYPE_TRAITS\REMOVE_EXTENT.HPP
C:\SAGE\OMICRON\BUILD\INCLUDE\BOOST\TYPE_TRAITS\IS_NOTHROW_MOVE_ASSIGNABLE.HPP
C:\SAGE\OMICRON\BUILD\INCLUDE\BOOST\TYPE_TRAITS\HAS_TRIVIAL_MOVE_ASSIGN.HPP
C:\SAGE\OMICRON\BUILD\INCLUDE\BOOST\TYPE_TRAITS\HAS_NOTHROW_ASSIGN.HPP
C:\SAGE\OMICRON\BUILD\INCLUDE\BOOST\TYPE_TRAITS\HAS_TRIVIAL_ASSIGN.HPP
C:\SAGE\OMICRON\BUILD\INCLUDE\BOOST\TYPE_TRAITS\IS_ASSIGNABLE.HPP
C:\SAGE\OMICRON\BUILD\INCLUDE\BOOST\TYPE_TRAITS\DECLVAL.HPP
C:\SAGE\OMICRON\BUILD\INCLUDE\BOOST\TYPE_TRAITS\ADD_RVALUE_REFERENCE.HPP
C:\SAGE\OMICRON\BUILD\INCLUDE\BOOST\TYPE_TRAITS\IS_NOTHROW_MOVE_CONSTRUCTIBLE.HPP
C:\SAGE\OMICRON\BUILD\INCLUDE\BOOST\DETAIL\REFERENCE_CONTENT.HPP
C:\SAGE\OMICRON\BUILD\INCLUDE\BOOST\TYPE_TRAITS\HAS_NOTHROW_COPY.HPP
C:\SAGE\OMICRON\BUILD\INCLUDE\BOOST\MOVE\UTILITY.HPP
C:\SAGE\OMICRON\BUILD\INCLUDE\BOOST\MOVE\TRAITS.HPP
C:\SAGE\OMICRON\BUILD\INCLUDE\BOOST\MOVE\DETAIL\TYPE_TRAITS.HPP
C:\SAGE\OMICRON\BUILD\INCLUDE\BOOST\NONE.HPP
C:\SAGE\OMICRON\BUILD\INCLUDE\BOOST\NONE_T.HPP
C:\SAGE\OMICRON\BUILD\INCLUDE\BOOST\UTILITY\COMPARE_POINTEES.HPP
C:\SAGE\OMICRON\BUILD\INCLUDE\BOOST\OPTIONAL\OPTIONAL_FWD.HPP
C:\SAGE\OMICRON\BUILD\INCLUDE\BOOST\FORMAT\ALT_SSTREAM.HPP
C:\SAGE\OMICRON\BUILD\INCLUDE\BOOST\FORMAT\ALT_SSTREAM_IMPL.HPP
C:\SAGE\OMICRON\BUILD\INCLUDE\BOOST\FORMAT\FORMAT_CLASS.HPP
C:\SAGE\OMICRON\BUILD\INCLUDE\BOOST\FORMAT\EXCEPTIONS.HPP
C:\SAGE\OMICRON\BUILD\INCLUDE\BOOST\FORMAT\FORMAT_IMPLEMENTATION.HPP
C:\SAGE\OMICRON\BUILD\INCLUDE\BOOST\FORMAT\GROUP.HPP
C:\SAGE\OMICRON\BUILD\INCLUDE\BOOST\FORMAT\FEED_ARGS.HPP
C:\SAGE\OMICRON\BUILD\INCLUDE\BOOST\FORMAT\DETAIL\MSVC_DISAMBIGUATER.HPP
C:\SAGE\OMICRON\BUILD\INCLUDE\BOOST\FORMAT\PARSING.HPP
C:\SAGE\OMICRON\BUILD\INCLUDE\BOOST\FORMAT\FREE_FUNCS.HPP
C:\SAGE\OMICRON\BUILD\INCLUDE\BOOST\FORMAT\DETAIL\UNSET_MACROS.HPP
C:\SAGE\OMICRON\BUILD\INCLUDE\BOOST\LEXICAL_CAST.HPP
C:\SAGE\OMICRON\BUILD\INCLUDE\BOOST\RANGE\ITERATOR_RANGE_CORE.HPP
C:\SAGE\OMICRON\BUILD\INCLUDE\BOOST\RANGE\FUNCTIONS.HPP
C:\SAGE\OMICRON\BUILD\INCLUDE\BOOST\RANGE\SIZE.HPP
C:\SAGE\OMICRON\BUILD\INCLUDE\BOOST\RANGE\SIZE_TYPE.HPP
C:\SAGE\OMICRON\BUILD\INCLUDE\BOOST\RANGE\DIFFERENCE_TYPE.HPP
C:\SAGE\OMICRON\BUILD\INCLUDE\BOOST\RANGE\HAS_RANGE_ITERATOR.HPP
C:\SAGE\OMICRON\BUILD\INCLUDE\BOOST\RANGE\CONCEPTS.HPP
C:\SAGE\OMICRON\BUILD\INCLUDE\BOOST\CONCEPT_CHECK.HPP
C:\SAGE\OMICRON\BUILD\INCLUDE\BOOST\CONCEPT\ASSERT.HPP
C:\SAGE\OMICRON\BUILD\INCLUDE\BOOST\CONCEPT\DETAIL\MSVC.HPP
C:\SAGE\OMICRON\BUILD\INCLUDE\BOOST\CONCEPT\DETAIL\BACKWARD_COMPATIBILITY.HPP
C:\SAGE\OMICRON\BUILD\INCLUDE\BOOST\CONCEPT\DETAIL\HAS_CONSTRAINTS.HPP
C:\SAGE\OMICRON\BUILD\INCLUDE\BOOST\TYPE_TRAITS\CONVERSION_TRAITS.HPP
C:\SAGE\OMICRON\BUILD\INCLUDE\BOOST\CONCEPT\USAGE.HPP
C:\SAGE\OMICRON\BUILD\INCLUDE\BOOST\CONCEPT\DETAIL\CONCEPT_DEF.HPP
C:\SAGE\OMICRON\BUILD\INCLUDE\BOOST\PREPROCESSOR\SEQ\FOR_EACH_I.HPP
C:\SAGE\OMICRON\BUILD\INCLUDE\BOOST\PREPROCESSOR\REPETITION\FOR.HPP
C:\SAGE\OMICRON\BUILD\INCLUDE\BOOST\PREPROCESSOR\REPETITION\DETAIL\MSVC\FOR.HPP
C:\SAGE\OMICRON\BUILD\INCLUDE\BOOST\PREPROCESSOR\SEQ\SEQ.HPP
C:\SAGE\OMICRON\BUILD\INCLUDE\BOOST\PREPROCESSOR\SEQ\ELEM.HPP
C:\SAGE\OMICRON\BUILD\INCLUDE\BOOST\PREPROCESSOR\SEQ\SIZE.HPP
C:\SAGE\OMICRON\BUILD\INCLUDE\BOOST\PREPROCESSOR\SEQ\DETAIL\IS_EMPTY.HPP
C:\SAGE\OMICRON\BUILD\INCLUDE\BOOST\PREPROCESSOR\SEQ\ENUM.HPP
C:\SAGE\OMICRON\BUILD\INCLUDE\BOOST\CONCEPT\DETAIL\CONCEPT_UNDEF.HPP
C:\SAGE\OMICRON\BUILD\INCLUDE\BOOST\ITERATOR\ITERATOR_CONCEPTS.HPP
C:\SAGE\OMICRON\BUILD\INCLUDE\BOOST\RANGE\VALUE_TYPE.HPP
C:\SAGE\OMICRON\BUILD\INCLUDE\BOOST\RANGE\DETAIL\MISC_CONCEPT.HPP
C:\SAGE\OMICRON\BUILD\INCLUDE\BOOST\TYPE_TRAITS\MAKE_UNSIGNED.HPP
C:\SAGE\OMICRON\BUILD\INCLUDE\BOOST\RANGE\DETAIL\HAS_MEMBER_SIZE.HPP
C:\SAGE\OMICRON\BUILD\INCLUDE\BOOST\UTILITY.HPP
C:\SAGE\OMICRON\BUILD\INCLUDE\BOOST\UTILITY\BINARY.HPP
C:\SAGE\OMICRON\BUILD\INCLUDE\BOOST\PREPROCESSOR\CONTROL\DEDUCE_D.HPP
C:\SAGE\OMICRON\BUILD\INCLUDE\BOOST\PREPROCESSOR\SEQ\CAT.HPP
C:\SAGE\OMICRON\BUILD\INCLUDE\BOOST\PREPROCESSOR\SEQ\FOLD_LEFT.HPP
C:\SAGE\OMICRON\BUILD\INCLUDE\BOOST\PREPROCESSOR\SEQ\TRANSFORM.HPP
C:\SAGE\OMICRON\BUILD\INCLUDE\BOOST\PREPROCESSOR\ARITHMETIC\MOD.HPP
C:\SAGE\OMICRON\BUILD\INCLUDE\BOOST\PREPROCESSOR\ARITHMETIC\DETAIL\DIV_BASE.HPP
C:\SAGE\OMICRON\BUILD\INCLUDE\BOOST\PREPROCESSOR\COMPARISON\LESS_EQUAL.HPP
C:\SAGE\OMICRON\BUILD\INCLUDE\BOOST\PREPROCESSOR\LOGICAL\NOT.HPP
C:\SAGE\OMICRON\BUILD\INCLUDE\BOOST\UTILITY\IDENTITY_TYPE.HPP
C:\SAGE\OMICRON\BUILD\INCLUDE\BOOST\TYPE_TRAITS\FUNCTION_TRAITS.HPP
C:\SAGE\OMICRON\BUILD\INCLUDE\BOOST\RANGE\DISTANCE.HPP
C:\SAGE\OMICRON\BUILD\INCLUDE\BOOST\RANGE\EMPTY.HPP
C:\SAGE\OMICRON\BUILD\INCLUDE\BOOST\RANGE\ALGORITHM\EQUAL.HPP
C:\SAGE\OMICRON\BUILD\INCLUDE\BOOST\RANGE\DETAIL\SAFE_BOOL.HPP
C:\SAGE\OMICRON\BUILD\INCLUDE\BOOST\LEXICAL_CAST\BAD_LEXICAL_CAST.HPP
C:\SAGE\OMICRON\BUILD\INCLUDE\BOOST\LEXICAL_CAST\TRY_LEXICAL_CONVERT.HPP
C:\SAGE\OMICRON\BUILD\INCLUDE\BOOST\LEXICAL_CAST\DETAIL\IS_CHARACTER.HPP
C:\SAGE\OMICRON\BUILD\INCLUDE\BOOST\LEXICAL_CAST\DETAIL\CONVERTER_NUMERIC.HPP
C:\SAGE\OMICRON\BUILD\INCLUDE\BOOST\TYPE_TRAITS\IS_FLOAT.HPP
C:\SAGE\OMICRON\BUILD\INCLUDE\BOOST\NUMERIC\CONVERSION\CAST.HPP
C:\SAGE\OMICRON\BUILD\INCLUDE\BOOST\NUMERIC\CONVERSION\CONVERTER.HPP
C:\SAGE\OMICRON\BUILD\INCLUDE\BOOST\NUMERIC\CONVERSION\CONVERSION_TRAITS.HPP
C:\SAGE\OMICRON\BUILD\INCLUDE\BOOST\NUMERIC\CONVERSION\DETAIL\CONVERSION_TRAITS.HPP
C:\SAGE\OMICRON\BUILD\INCLUDE\BOOST\NUMERIC\CONVERSION\DETAIL\META.HPP
C:\SAGE\OMICRON\BUILD\INCLUDE\BOOST\MPL\EQUAL_TO.HPP
C:\SAGE\OMICRON\BUILD\INCLUDE\BOOST\MPL\AUX_\COMPARISON_OP.HPP
C:\SAGE\OMICRON\BUILD\INCLUDE\BOOST\MPL\AUX_\NUMERIC_OP.HPP
C:\SAGE\OMICRON\BUILD\INCLUDE\BOOST\MPL\NUMERIC_CAST.HPP
C:\SAGE\OMICRON\BUILD\INCLUDE\BOOST\MPL\TAG.HPP
C:\SAGE\OMICRON\BUILD\INCLUDE\BOOST\MPL\AUX_\HAS_TAG.HPP
C:\SAGE\OMICRON\BUILD\INCLUDE\BOOST\MPL\AUX_\NUMERIC_CAST_UTILS.HPP
C:\SAGE\OMICRON\BUILD\INCLUDE\BOOST\MPL\AUX_\CONFIG\FORWARDING.HPP
C:\SAGE\OMICRON\BUILD\INCLUDE\BOOST\MPL\AUX_\MSVC_ETI_BASE.HPP
C:\SAGE\OMICRON\BUILD\INCLUDE\BOOST\MPL\AUX_\IS_MSVC_ETI_ARG.HPP
C:\SAGE\OMICRON\BUILD\INCLUDE\BOOST\MPL\AUX_\PREPROCESSED\PLAIN\EQUAL_TO.HPP
C:\SAGE\OMICRON\BUILD\INCLUDE\BOOST\NUMERIC\CONVERSION\DETAIL\INT_FLOAT_MIXTURE.HPP
C:\SAGE\OMICRON\BUILD\INCLUDE\BOOST\NUMERIC\CONVERSION\INT_FLOAT_MIXTURE_ENUM.HPP
C:\SAGE\OMICRON\BUILD\INCLUDE\BOOST\MPL\INTEGRAL_C.HPP
C:\SAGE\OMICRON\BUILD\INCLUDE\BOOST\MPL\INTEGRAL_C_FWD.HPP
C:\SAGE\OMICRON\BUILD\INCLUDE\BOOST\NUMERIC\CONVERSION\DETAIL\SIGN_MIXTURE.HPP
C:\SAGE\OMICRON\BUILD\INCLUDE\BOOST\NUMERIC\CONVERSION\SIGN_MIXTURE_ENUM.HPP
C:\SAGE\OMICRON\BUILD\INCLUDE\BOOST\NUMERIC\CONVERSION\DETAIL\UDT_BUILTIN_MIXTURE.HPP
C:\SAGE\OMICRON\BUILD\INCLUDE\BOOST\NUMERIC\CONVERSION\UDT_BUILTIN_MIXTURE_ENUM.HPP
C:\SAGE\OMICRON\BUILD\INCLUDE\BOOST\NUMERIC\CONVERSION\DETAIL\IS_SUBRANGED.HPP
C:\SAGE\OMICRON\BUILD\INCLUDE\BOOST\MPL\MULTIPLIES.HPP
C:\SAGE\OMICRON\BUILD\INCLUDE\BOOST\MPL\TIMES.HPP
C:\SAGE\OMICRON\BUILD\INCLUDE\BOOST\MPL\AUX_\ARITHMETIC_OP.HPP
C:\SAGE\OMICRON\BUILD\INCLUDE\BOOST\MPL\AUX_\LARGEST_INT.HPP
C:\SAGE\OMICRON\BUILD\INCLUDE\BOOST\MPL\AUX_\PREPROCESSED\PLAIN\TIMES.HPP
C:\SAGE\OMICRON\BUILD\INCLUDE\BOOST\MPL\LESS.HPP
C:\SAGE\OMICRON\BUILD\INCLUDE\BOOST\MPL\AUX_\PREPROCESSED\PLAIN\LESS.HPP
C:\SAGE\OMICRON\BUILD\INCLUDE\BOOST\NUMERIC\CONVERSION\CONVERTER_POLICIES.HPP
C:\SAGE\OMICRON\BUILD\INCLUDE\BOOST\NUMERIC\CONVERSION\DETAIL\CONVERTER.HPP
C:\SAGE\OMICRON\BUILD\INCLUDE\BOOST\NUMERIC\CONVERSION\BOUNDS.HPP
C:\SAGE\OMICRON\BUILD\INCLUDE\BOOST\NUMERIC\CONVERSION\DETAIL\BOUNDS.HPP
C:\SAGE\OMICRON\BUILD\INCLUDE\BOOST\NUMERIC\CONVERSION\NUMERIC_CAST_TRAITS.HPP
C:\SAGE\OMICRON\BUILD\INCLUDE\BOOST\NUMERIC\CONVERSION\DETAIL\NUMERIC_CAST_TRAITS.HPP
C:\SAGE\OMICRON\BUILD\INCLUDE\BOOST\NUMERIC\CONVERSION\DETAIL\PREPROCESSED\NUMERIC_CAST_TRAITS_COMMON.HPP
C:\SAGE\OMICRON\BUILD\INCLUDE\BOOST\NUMERIC\CONVERSION\DETAIL\PREPROCESSED\NUMERIC_CAST_TRAITS_LONG_LONG.HPP
C:\SAGE\OMICRON\BUILD\INCLUDE\BOOST\LEXICAL_CAST\DETAIL\CONVERTER_LEXICAL.HPP
C:\SAGE\OMICRON\BUILD\INCLUDE\BOOST\TYPE_TRAITS\HAS_LEFT_SHIFT.HPP
C:\SAGE\OMICRON\BUILD\INCLUDE\BOOST\TYPE_TRAITS\HAS_RIGHT_SHIFT.HPP
C:\SAGE\OMICRON\BUILD\INCLUDE\BOOST\DETAIL\LCAST_PRECISION.HPP
C:\SAGE\OMICRON\BUILD\INCLUDE\BOOST\LEXICAL_CAST\DETAIL\WIDEST_CHAR.HPP
C:\SAGE\OMICRON\BUILD\INCLUDE\BOOST\ARRAY.HPP
C:\SAGE\OMICRON\BUILD\INCLUDE\BOOST\SWAP.HPP
C:\SAGE\OMICRON\BUILD\INCLUDE\BOOST\FUNCTIONAL\HASH_FWD.HPP
C:\SAGE\OMICRON\BUILD\INCLUDE\BOOST\FUNCTIONAL\HASH\HASH_FWD.HPP
C:\SAGE\OMICRON\BUILD\INCLUDE\BOOST\CONTAINER\CONTAINER_FWD.HPP
C:\SAGE\OMICRON\BUILD\INCLUDE\BOOST\CONTAINER\DETAIL\STD_FWD.HPP
C:\SAGE\OMICRON\BUILD\INCLUDE\BOOST\MOVE\DETAIL\STD_NS_BEGIN.HPP
C:\SAGE\OMICRON\BUILD\INCLUDE\BOOST\MOVE\DETAIL\STD_NS_END.HPP
C:\SAGE\OMICRON\BUILD\INCLUDE\BOOST\LEXICAL_CAST\DETAIL\CONVERTER_LEXICAL_STREAMS.HPP
C:\SAGE\OMICRON\BUILD\INCLUDE\BOOST\LEXICAL_CAST\DETAIL\LCAST_CHAR_CONSTANTS.HPP
C:\SAGE\OMICRON\BUILD\INCLUDE\BOOST\LEXICAL_CAST\DETAIL\LCAST_UNSIGNED_CONVERTERS.HPP
C:\SAGE\OMICRON\BUILD\INCLUDE\BOOST\LEXICAL_CAST\DETAIL\INF_NAN.HPP
C:\SAGE\OMICRON\BUILD\INCLUDE\BOOST\MATH\SPECIAL_FUNCTIONS\SIGN.HPP
C:\SAGE\OMICRON\BUILD\INCLUDE\BOOST\MATH\TOOLS\CONFIG.HPP
C:\SAGE\OMICRON\BUILD\INCLUDE\BOOST\MATH\TOOLS\USER.HPP
C:\SAGE\OMICRON\BUILD\INCLUDE\BOOST\MATH\SPECIAL_FUNCTIONS\MATH_FWD.HPP
C:\SAGE\OMICRON\BUILD\INCLUDE\BOOST\MATH\SPECIAL_FUNCTIONS\DETAIL\ROUND_FWD.HPP
C:\SAGE\OMICRON\BUILD\INCLUDE\BOOST\MATH\TOOLS\PROMOTION.HPP
C:\SAGE\OMICRON\BUILD\INCLUDE\BOOST\MATH\POLICIES\POLICY.HPP
C:\SAGE\OMICRON\BUILD\INCLUDE\BOOST\MPL\LIST.HPP
C:\SAGE\OMICRON\BUILD\INCLUDE\BOOST\MPL\LIMITS\LIST.HPP
C:\SAGE\OMICRON\BUILD\INCLUDE\BOOST\MPL\LIST\LIST20.HPP
C:\SAGE\OMICRON\BUILD\INCLUDE\BOOST\MPL\LIST\LIST10.HPP
C:\SAGE\OMICRON\BUILD\INCLUDE\BOOST\MPL\LIST\LIST0.HPP
C:\SAGE\OMICRON\BUILD\INCLUDE\BOOST\MPL\LONG.HPP
C:\SAGE\OMICRON\BUILD\INCLUDE\BOOST\MPL\LONG_FWD.HPP
C:\SAGE\OMICRON\BUILD\INCLUDE\BOOST\MPL\LIST\AUX_\PUSH_FRONT.HPP
C:\SAGE\OMICRON\BUILD\INCLUDE\BOOST\MPL\PUSH_FRONT_FWD.HPP
C:\SAGE\OMICRON\BUILD\INCLUDE\BOOST\MPL\LIST\AUX_\ITEM.HPP
C:\SAGE\OMICRON\BUILD\INCLUDE\BOOST\MPL\LIST\AUX_\TAG.HPP
C:\SAGE\OMICRON\BUILD\INCLUDE\BOOST\MPL\LIST\AUX_\POP_FRONT.HPP
C:\SAGE\OMICRON\BUILD\INCLUDE\BOOST\MPL\POP_FRONT_FWD.HPP
C:\SAGE\OMICRON\BUILD\INCLUDE\BOOST\MPL\LIST\AUX_\PUSH_BACK.HPP
C:\SAGE\OMICRON\BUILD\INCLUDE\BOOST\MPL\PUSH_BACK_FWD.HPP
C:\SAGE\OMICRON\BUILD\INCLUDE\BOOST\MPL\LIST\AUX_\FRONT.HPP
C:\SAGE\OMICRON\BUILD\INCLUDE\BOOST\MPL\FRONT_FWD.HPP
C:\SAGE\OMICRON\BUILD\INCLUDE\BOOST\MPL\LIST\AUX_\CLEAR.HPP
C:\SAGE\OMICRON\BUILD\INCLUDE\BOOST\MPL\CLEAR_FWD.HPP
C:\SAGE\OMICRON\BUILD\INCLUDE\BOOST\MPL\LIST\AUX_\O1_SIZE.HPP
C:\SAGE\OMICRON\BUILD\INCLUDE\BOOST\MPL\O1_SIZE_FWD.HPP
C:\SAGE\OMICRON\BUILD\INCLUDE\BOOST\MPL\LIST\AUX_\SIZE.HPP
C:\SAGE\OMICRON\BUILD\INCLUDE\BOOST\MPL\SIZE_FWD.HPP
C:\SAGE\OMICRON\BUILD\INCLUDE\BOOST\MPL\LIST\AUX_\EMPTY.HPP
C:\SAGE\OMICRON\BUILD\INCLUDE\BOOST\MPL\EMPTY_FWD.HPP
C:\SAGE\OMICRON\BUILD\INCLUDE\BOOST\MPL\LIST\AUX_\BEGIN_END.HPP
C:\SAGE\OMICRON\BUILD\INCLUDE\BOOST\MPL\BEGIN_END_FWD.HPP
C:\SAGE\OMICRON\BUILD\INCLUDE\BOOST\MPL\LIST\AUX_\ITERATOR.HPP
C:\SAGE\OMICRON\BUILD\INCLUDE\BOOST\MPL\ITERATOR_TAGS.HPP
C:\SAGE\OMICRON\BUILD\INCLUDE\BOOST\MPL\DEREF.HPP
C:\SAGE\OMICRON\BUILD\INCLUDE\BOOST\MPL\AUX_\MSVC_TYPE.HPP
C:\SAGE\OMICRON\BUILD\INCLUDE\BOOST\MPL\AUX_\LAMBDA_SPEC.HPP
C:\SAGE\OMICRON\BUILD\INCLUDE\BOOST\MPL\LIST\AUX_\INCLUDE_PREPROCESSED.HPP
C:\SAGE\OMICRON\BUILD\INCLUDE\BOOST\MPL\LIST\AUX_\PREPROCESSED\PLAIN\LIST10.HPP
C:\SAGE\OMICRON\BUILD\INCLUDE\BOOST\MPL\LIST\AUX_\PREPROCESSED\PLAIN\LIST20.HPP
C:\SAGE\OMICRON\BUILD\INCLUDE\BOOST\MPL\AUX_\PREPROCESSED\PLAIN\LIST.HPP
C:\SAGE\OMICRON\BUILD\INCLUDE\BOOST\MPL\CONTAINS.HPP
C:\SAGE\OMICRON\BUILD\INCLUDE\BOOST\MPL\CONTAINS_FWD.HPP
C:\SAGE\OMICRON\BUILD\INCLUDE\BOOST\MPL\SEQUENCE_TAG.HPP
C:\SAGE\OMICRON\BUILD\INCLUDE\BOOST\MPL\SEQUENCE_TAG_FWD.HPP
C:\SAGE\OMICRON\BUILD\INCLUDE\BOOST\MPL\AUX_\HAS_BEGIN.HPP
C:\SAGE\OMICRON\BUILD\INCLUDE\BOOST\MPL\AUX_\CONTAINS_IMPL.HPP
C:\SAGE\OMICRON\BUILD\INCLUDE\BOOST\MPL\BEGIN_END.HPP
C:\SAGE\OMICRON\BUILD\INCLUDE\BOOST\MPL\AUX_\BEGIN_END_IMPL.HPP
C:\SAGE\OMICRON\BUILD\INCLUDE\BOOST\MPL\AUX_\TRAITS_LAMBDA_SPEC.HPP
C:\SAGE\OMICRON\BUILD\INCLUDE\BOOST\MPL\FIND.HPP
C:\SAGE\OMICRON\BUILD\INCLUDE\BOOST\MPL\FIND_IF.HPP
C:\SAGE\OMICRON\BUILD\INCLUDE\BOOST\MPL\AUX_\FIND_IF_PRED.HPP
C:\SAGE\OMICRON\BUILD\INCLUDE\BOOST\MPL\AUX_\ITER_APPLY.HPP
C:\SAGE\OMICRON\BUILD\INCLUDE\BOOST\MPL\ITER_FOLD_IF.HPP
C:\SAGE\OMICRON\BUILD\INCLUDE\BOOST\MPL\PAIR.HPP
C:\SAGE\OMICRON\BUILD\INCLUDE\BOOST\MPL\AUX_\ITER_FOLD_IF_IMPL.HPP
C:\SAGE\OMICRON\BUILD\INCLUDE\BOOST\MPL\AUX_\PREPROCESSED\PLAIN\ITER_FOLD_IF_IMPL.HPP
C:\SAGE\OMICRON\BUILD\INCLUDE\BOOST\MPL\SAME_AS.HPP
C:\SAGE\OMICRON\BUILD\INCLUDE\BOOST\MPL\REMOVE_IF.HPP
C:\SAGE\OMICRON\BUILD\INCLUDE\BOOST\MPL\FOLD.HPP
C:\SAGE\OMICRON\BUILD\INCLUDE\BOOST\MPL\O1_SIZE.HPP
C:\SAGE\OMICRON\BUILD\INCLUDE\BOOST\MPL\AUX_\O1_SIZE_IMPL.HPP
C:\SAGE\OMICRON\BUILD\INCLUDE\BOOST\MPL\AUX_\HAS_SIZE.HPP
C:\SAGE\OMICRON\BUILD\INCLUDE\BOOST\MPL\AUX_\FOLD_IMPL.HPP
C:\SAGE\OMICRON\BUILD\INCLUDE\BOOST\MPL\AUX_\PREPROCESSED\PLAIN\FOLD_IMPL.HPP
C:\SAGE\OMICRON\BUILD\INCLUDE\BOOST\MPL\REVERSE_FOLD.HPP
C:\SAGE\OMICRON\BUILD\INCLUDE\BOOST\MPL\AUX_\REVERSE_FOLD_IMPL.HPP
C:\SAGE\OMICRON\BUILD\INCLUDE\BOOST\MPL\AUX_\PREPROCESSED\PLAIN\REVERSE_FOLD_IMPL.HPP
C:\SAGE\OMICRON\BUILD\INCLUDE\BOOST\MPL\AUX_\INSERTER_ALGORITHM.HPP
C:\SAGE\OMICRON\BUILD\INCLUDE\BOOST\MPL\BACK_INSERTER.HPP
C:\SAGE\OMICRON\BUILD\INCLUDE\BOOST\MPL\PUSH_BACK.HPP
C:\SAGE\OMICRON\BUILD\INCLUDE\BOOST\MPL\AUX_\PUSH_BACK_IMPL.HPP
C:\SAGE\OMICRON\BUILD\INCLUDE\BOOST\MPL\INSERTER.HPP
C:\SAGE\OMICRON\BUILD\INCLUDE\BOOST\MPL\FRONT_INSERTER.HPP
C:\SAGE\OMICRON\BUILD\INCLUDE\BOOST\MPL\PUSH_FRONT.HPP
C:\SAGE\OMICRON\BUILD\INCLUDE\BOOST\MPL\AUX_\PUSH_FRONT_IMPL.HPP
C:\SAGE\OMICRON\BUILD\INCLUDE\BOOST\MPL\CLEAR.HPP
C:\SAGE\OMICRON\BUILD\INCLUDE\BOOST\MPL\AUX_\CLEAR_IMPL.HPP
C:\SAGE\OMICRON\BUILD\INCLUDE\BOOST\MPL\VECTOR.HPP
C:\SAGE\OMICRON\BUILD\INCLUDE\BOOST\MPL\LIMITS\VECTOR.HPP
C:\SAGE\OMICRON\BUILD\INCLUDE\BOOST\MPL\VECTOR\VECTOR20.HPP
C:\SAGE\OMICRON\BUILD\INCLUDE\BOOST\MPL\VECTOR\VECTOR10.HPP
C:\SAGE\OMICRON\BUILD\INCLUDE\BOOST\MPL\VECTOR\VECTOR0.HPP
C:\SAGE\OMICRON\BUILD\INCLUDE\BOOST\MPL\VECTOR\AUX_\AT.HPP
C:\SAGE\OMICRON\BUILD\INCLUDE\BOOST\MPL\AT_FWD.HPP
C:\SAGE\OMICRON\BUILD\INCLUDE\BOOST\MPL\VECTOR\AUX_\TAG.HPP
C:\SAGE\OMICRON\BUILD\INCLUDE\BOOST\MPL\AUX_\CONFIG\TYPEOF.HPP
C:\SAGE\OMICRON\BUILD\INCLUDE\BOOST\MPL\VECTOR\AUX_\FRONT.HPP
C:\SAGE\OMICRON\BUILD\INCLUDE\BOOST\MPL\VECTOR\AUX_\PUSH_FRONT.HPP
C:\SAGE\OMICRON\BUILD\INCLUDE\BOOST\MPL\VECTOR\AUX_\POP_FRONT.HPP
C:\SAGE\OMICRON\BUILD\INCLUDE\BOOST\MPL\VECTOR\AUX_\PUSH_BACK.HPP
C:\SAGE\OMICRON\BUILD\INCLUDE\BOOST\MPL\VECTOR\AUX_\POP_BACK.HPP
C:\SAGE\OMICRON\BUILD\INCLUDE\BOOST\MPL\POP_BACK_FWD.HPP
C:\SAGE\OMICRON\BUILD\INCLUDE\BOOST\MPL\VECTOR\AUX_\BACK.HPP
C:\SAGE\OMICRON\BUILD\INCLUDE\BOOST\MPL\BACK_FWD.HPP
C:\SAGE\OMICRON\BUILD\INCLUDE\BOOST\MPL\VECTOR\AUX_\CLEAR.HPP
C:\SAGE\OMICRON\BUILD\INCLUDE\BOOST\MPL\VECTOR\AUX_\VECTOR0.HPP
C:\SAGE\OMICRON\BUILD\INCLUDE\BOOST\MPL\VECTOR\AUX_\ITERATOR.HPP
C:\SAGE\OMICRON\BUILD\INCLUDE\BOOST\MPL\PLUS.HPP
C:\SAGE\OMICRON\BUILD\INCLUDE\BOOST\MPL\AUX_\PREPROCESSED\PLAIN\PLUS.HPP
C:\SAGE\OMICRON\BUILD\INCLUDE\BOOST\MPL\MINUS.HPP
C:\SAGE\OMICRON\BUILD\INCLUDE\BOOST\MPL\AUX_\PREPROCESSED\PLAIN\MINUS.HPP
C:\SAGE\OMICRON\BUILD\INCLUDE\BOOST\MPL\ADVANCE_FWD.HPP
C:\SAGE\OMICRON\BUILD\INCLUDE\BOOST\MPL\DISTANCE_FWD.HPP
C:\SAGE\OMICRON\BUILD\INCLUDE\BOOST\MPL\PRIOR.HPP
C:\SAGE\OMICRON\BUILD\INCLUDE\BOOST\MPL\VECTOR\AUX_\O1_SIZE.HPP
C:\SAGE\OMICRON\BUILD\INCLUDE\BOOST\MPL\VECTOR\AUX_\SIZE.HPP
C:\SAGE\OMICRON\BUILD\INCLUDE\BOOST\MPL\VECTOR\AUX_\EMPTY.HPP
C:\SAGE\OMICRON\BUILD\INCLUDE\BOOST\MPL\VECTOR\AUX_\ITEM.HPP
C:\SAGE\OMICRON\BUILD\INCLUDE\BOOST\MPL\VECTOR\AUX_\BEGIN_END.HPP
C:\SAGE\OMICRON\BUILD\INCLUDE\BOOST\MPL\VECTOR\AUX_\INCLUDE_PREPROCESSED.HPP
C:\SAGE\OMICRON\BUILD\INCLUDE\BOOST\MPL\VECTOR\AUX_\PREPROCESSED\PLAIN\VECTOR10.HPP
C:\SAGE\OMICRON\BUILD\INCLUDE\BOOST\MPL\VECTOR\AUX_\PREPROCESSED\PLAIN\VECTOR20.HPP
C:\SAGE\OMICRON\BUILD\INCLUDE\BOOST\MPL\AUX_\PREPROCESSED\PLAIN\VECTOR.HPP
C:\SAGE\OMICRON\BUILD\INCLUDE\BOOST\MPL\AT.HPP
C:\SAGE\OMICRON\BUILD\INCLUDE\BOOST\MPL\AUX_\AT_IMPL.HPP
C:\SAGE\OMICRON\BUILD\INCLUDE\BOOST\MPL\ADVANCE.HPP
C:\SAGE\OMICRON\BUILD\INCLUDE\BOOST\MPL\NEGATE.HPP
C:\SAGE\OMICRON\BUILD\INCLUDE\BOOST\MPL\AUX_\ADVANCE_FORWARD.HPP
C:\SAGE\OMICRON\BUILD\INCLUDE\BOOST\MPL\AUX_\PREPROCESSED\PLAIN\ADVANCE_FORWARD.HPP
C:\SAGE\OMICRON\BUILD\INCLUDE\BOOST\MPL\AUX_\ADVANCE_BACKWARD.HPP
C:\SAGE\OMICRON\BUILD\INCLUDE\BOOST\MPL\AUX_\PREPROCESSED\PLAIN\ADVANCE_BACKWARD.HPP
C:\SAGE\OMICRON\BUILD\INCLUDE\BOOST\MPL\SIZE.HPP
C:\SAGE\OMICRON\BUILD\INCLUDE\BOOST\MPL\AUX_\SIZE_IMPL.HPP
C:\SAGE\OMICRON\BUILD\INCLUDE\BOOST\MPL\DISTANCE.HPP
C:\SAGE\OMICRON\BUILD\INCLUDE\BOOST\MPL\ITER_FOLD.HPP
C:\SAGE\OMICRON\BUILD\INCLUDE\BOOST\MPL\AUX_\ITER_FOLD_IMPL.HPP
C:\SAGE\OMICRON\BUILD\INCLUDE\BOOST\MPL\AUX_\PREPROCESSED\PLAIN\ITER_FOLD_IMPL.HPP
C:\SAGE\OMICRON\BUILD\INCLUDE\BOOST\MPL\ITERATOR_RANGE.HPP
C:\SAGE\OMICRON\BUILD\INCLUDE\BOOST\MPL\COMPARISON.HPP
C:\SAGE\OMICRON\BUILD\INCLUDE\BOOST\MPL\NOT_EQUAL_TO.HPP
C:\SAGE\OMICRON\BUILD\INCLUDE\BOOST\MPL\AUX_\PREPROCESSED\PLAIN\NOT_EQUAL_TO.HPP
C:\SAGE\OMICRON\BUILD\INCLUDE\BOOST\MPL\GREATER.HPP
C:\SAGE\OMICRON\BUILD\INCLUDE\BOOST\MPL\AUX_\PREPROCESSED\PLAIN\GREATER.HPP
C:\SAGE\OMICRON\BUILD\INCLUDE\BOOST\MPL\LESS_EQUAL.HPP
C:\SAGE\OMICRON\BUILD\INCLUDE\BOOST\MPL\AUX_\PREPROCESSED\PLAIN\LESS_EQUAL.HPP
C:\SAGE\OMICRON\BUILD\INCLUDE\BOOST\MPL\GREATER_EQUAL.HPP
C:\SAGE\OMICRON\BUILD\INCLUDE\BOOST\MPL\AUX_\PREPROCESSED\PLAIN\GREATER_EQUAL.HPP
C:\SAGE\OMICRON\BUILD\INCLUDE\BOOST\CONFIG\NO_TR1\COMPLEX.HPP
C:\SAGE\OMICRON\BUILD\INCLUDE\BOOST\MATH\SPECIAL_FUNCTIONS\DETAIL\FP_TRAITS.HPP
C:\SAGE\OMICRON\BUILD\INCLUDE\BOOST\DETAIL\ENDIAN.HPP
C:\SAGE\OMICRON\BUILD\INCLUDE\BOOST\PREDEF\DETAIL\ENDIAN_COMPAT.H
C:\SAGE\OMICRON\BUILD\INCLUDE\BOOST\MATH\SPECIAL_FUNCTIONS\FPCLASSIFY.HPP
C:\SAGE\OMICRON\BUILD\INCLUDE\BOOST\MATH\TOOLS\REAL_CAST.HPP
C:\SAGE\OMICRON\BUILD\INCLUDE\BOOST\DETAIL\BASIC_POINTERBUF.HPP
C:\SAGE\OMICRON\SOURCE\INCLUDE\OMICRON\TIMER.H
C:\SAGE\OMICRON\SOURCE\INCLUDE\OMICRON\XML\TINYXML.H
C:\SAGE\OMICRON\SOURCE\INCLUDE\OMICRON\XML\TINYSTR.H
C:\SAGE\OMICRON\SOURCE\INCLUDE\OMICRON\RAYPOINTMAPPER.H
