^C:\SAGE\OMICRON\SOURCE\CMAKELISTS.TXT
C:\SAGE\OMICRON\BUILD\CMAKEFILES\3.8.0-RC2\CMAKESYSTEM.CMAKE
C:\PROGRAM FILES\CMAKE\SHARE\CMAKE-3.8\MODULES\CMAKESYSTEMSPECIFICINITIALIZE.CMAKE
C:\SAGE\OMICRON\BUILD\CMAKEFILES\3.8.0-RC2\CMAKECCOMPILER.CMAKE
C:\SAGE\OMICRON\BUILD\CMAKEFILES\3.8.0-RC2\CMAKECXXCOMPILER.CMAKE
C:\PROGRAM FILES\CMAKE\SHARE\CMAKE-3.8\MODULES\CMAKESYSTEMSPECIFICINFORMATION.CMAKE
C:\PROGRAM FILES\CMAKE\SHARE\CMAKE-3.8\MODULES\CMAKEGENERICSYSTEM.CMAKE
C:\PROGRAM FILES\CMAKE\SHARE\CMAKE-3.8\MODULES\PLATFORM\WINDOWS.CMAKE
C:\PROGRAM FILES\CMAKE\SHARE\CMAKE-3.8\MODULES\PLATFORM\WINDOWSPATHS.CMAKE
C:\PROGRAM FILES\CMAKE\SHARE\CMAKE-3.8\MODULES\CMAKECINFORMATION.CMAKE
C:\PROGRAM FILES\CMAKE\SHARE\CMAKE-3.8\MODULES\CMAKELANGUAGEINFORMATION.CMAKE
C:\PROGRAM FILES\CMAKE\SHARE\CMAKE-3.8\MODULES\PLATFORM\WINDOWS-MSVC-C.CMAKE
C:\PROGRAM FILES\CMAKE\SHARE\CMAKE-3.8\MODULES\PLATFORM\WINDOWS-MSVC.CMAKE
C:\SAGE\OMICRON\BUILD\CMAKEFILES\3.8.0-RC2\CMAKERCCOMPILER.CMAKE
C:\PROGRAM FILES\CMAKE\SHARE\CMAKE-3.8\MODULES\CMAKERCINFORMATION.CMAKE
C:\PROGRAM FILES\CMAKE\SHARE\CMAKE-3.8\MODULES\CMAKECOMMONLANGUAGEINCLUDE.CMAKE
C:\PROGRAM FILES\CMAKE\SHARE\CMAKE-3.8\MODULES\CMAKECXXINFORMATION.CMAKE
C:\PROGRAM FILES\CMAKE\SHARE\CMAKE-3.8\MODULES\COMPILER\MSVC-CXX.CMAKE
C:\PROGRAM FILES\CMAKE\SHARE\CMAKE-3.8\MODULES\PLATFORM\WINDOWS-MSVC-CXX.CMAKE
C:\PROGRAM FILES\CMAKE\SHARE\CMAKE-3.8\MODULES\CPACK.CMAKE
C:\PROGRAM FILES\CMAKE\SHARE\CMAKE-3.8\MODULES\CPACKCOMPONENT.CMAKE
C:\PROGRAM FILES\CMAKE\SHARE\CMAKE-3.8\TEMPLATES\CPACKCONFIG.CMAKE.IN
