^C:\SAGE\OMICRON\BUILD\SRC\APPS\LEGACY-OINPUTSERVER\LEGACY-OINPUTSERVER.DIR\DEBUG\LEGACY-OINPUTSERVER.OBJ
C:\SAGE\OMICRON\BUILD\BIN\DEBUG\LEGACY-OINPUTSERVER.ILK
C:\SAGE\OMICRON\BUILD\BIN\DEBUG\LEGACY-OINPUTSERVER.EXE
C:\SAGE\OMICRON\BUILD\BIN\DEBUG\LEGACY-OINPUTSERVER.PDB
